status,time,memory,filename,log,data_races
124,90.0,41.23046875,sesa/real-world/transposeDiagonal.cu,sesa/real-world/transposeDiagonal-1.log,timeout
124,90.0,41.140625,sesa/real-world/transposeDiagonal-drf.cu,sesa/real-world/transposeDiagonal-drf-1.log,timeout
124,90.0,41.1328125,sesa/synthetic/first-iter.cu,sesa/synthetic/first-iter-1.log,timeout
124,90.0,41.18359375,sesa/synthetic/first-iter-drf.cu,sesa/synthetic/first-iter-drf-1.log,timeout
124,90.0,41.15625,sesa/synthetic/last-iter.cu,sesa/synthetic/last-iter-1.log,timeout
124,90.0,41.15625,sesa/synthetic/last-iter-drf.cu,sesa/synthetic/last-iter-drf-1.log,timeout
124,90.02,41.16796875,sesa/synthetic/last-iter-first-iter.cu,sesa/synthetic/last-iter-first-iter-1.log,timeout
124,90.0,41.16796875,sesa/synthetic/last-iter-first-iter-drf.cu,sesa/synthetic/last-iter-first-iter-drf-1.log,timeout
0,1.38,46.3203125,sesa/synthetic/read-index-racy.cu,sesa/synthetic/read-index-racy-1.log,no race alarms
0,1.28,46.37890625,sesa/synthetic/read-index.cu,sesa/synthetic/read-index-1.log,no race alarms
