sha1_overlap.cu:53:20: warning: equality comparison with extraneous parentheses [-Wparentheses-equality]
  if ((threadIndex == (totalThreads - 1))) {
       ~~~~~~~~~~~~^~~~~~~~~~~~~~~~~~~~~
sha1_overlap.cu:53:20: note: remove extraneous parentheses around the comparison to silence this warning
  if ((threadIndex == (totalThreads - 1))) {
      ~            ^                    ~
sha1_overlap.cu:53:20: note: use '=' to turn this equality comparison into an assignment
  if ((threadIndex == (totalThreads - 1))) {
                   ^~
                   =
1 warning generated when compiling for sm_35.
sha1_overlap.opt.bc: warning: Assuming the arguments 'input', 'output' of 'kernel' on line 41 of sha1_overlap.cu to be non-aliased; please consider adding a restrict qualifier to these arguments
