"/artifact/datasets/gpuverify-cav14/pug/C++AMP/Convolution/convolution_tiling/kernel.c", line 110: warning: 
          function "kernel" was declared but never referenced
  __global__ void kernel (const float* img, const float* filter, float* result) {
                  ^

>>>> start analysis ... 


-------------------------------------------------------
Invalid OVERFLOW_PROTECTION flag in config.txt!
Setting OVERFLOW_PROTECTION flag to on
-------------------------------------------------------

-------------------------------------------------------
Invalid NBITS value in config.txt!
Setting NBITS value to 10
-------------------------------------------------------

-------------------------------------------------------
Invalid USE_INCRSMT flag in config.txt!
Setting USE_INCRSMT flag to false
-------------------------------------------------------


-------------------------------------------------------
Invalid USE_LOOP_REFINEMENT flag in config.txt!
Setting USE_LOOP_REFINEMENT flag to true
-------------------------------------------------------


-------------------------------------------------------
Invalid SLICE_ARRAYS flag in config.txt!
Setting SLICE_ARRAYS flag to true
-------------------------------------------------------


-------------------------------------------------------
Invalid USE_ASSUMES flag in config.txt!
Setting USE_ASSUMES flag to true
-------------------------------------------------------


-------------------------------------------------------
Invalid CHK_BANK_CONFLICTS option in config.txt!
Setting CHK_BANK_CONFLICTS option to false
-------------------------------------------------------

Debug level (verbosity) set to 0


Processing function: kernel

FunctionCall: assume(((blockDim.x) ==(1)))
Assuming bdim.x == 1

FunctionCall: assume(((blockDim.y) ==(128)))
Assuming bdim.y == 128

FunctionCall: assume(((gridDim.x) ==(512)))
Assuming gdim.x == 512

FunctionCall: assume(((gridDim.y) ==(6)))
Assuming gdim.y == 6

Binary OP: a_idxY =((idx_convolve < 0)?0 :(((idx_convolve >(max_idx_convolve - 1))?(max_idx_convolve - 1) : idx_convolve)))

Binary OP: local_buf[threadIdx.y] =(img[(a_idxY * 512) + a_idxX])

FunctionCall: __syncthreads()
unsatisfiable
containBarrierFlag = 0
incrExpr = k++
------------- Already normalized 
rangeExpr = ((!1^k0 >= -7) && (!1^k0 <= 7)); substExpr = 

Binary OP: sum +=((local_buf[(threadIdx.y) +(k)]) *(filter[k_idx]))
Found loop carrying expression, try refinement!
refined exp: sum2 == (sum1 + ((!1^k0 - -7) * (local_buf1[(tid.y + !1^k0)] * filter0[!1^k_idx1])))

Binary OP: result[(a_idxY * 512) + a_idxX] = sum

Reaching the end of the kernel
unsatisfiable


#####################################################################

No races or synchronization errors were found.

Max instance solving time = 5.7e-05s
Total solving time = 9.9e-05s

#####################################################################

