"/artifact/datasets/gpuverify-cav14/pug/gpgpu-sim_ispass2009/DG/MaxwellsGPU_SURF_Kernel3D/../common.h", line 8: error: 
          this declaration has no storage class or type specifier
  texture<float4, 1, cudaReadModeElementType> t_LIFT;
  ^

"/artifact/datasets/gpuverify-cav14/pug/gpgpu-sim_ispass2009/DG/MaxwellsGPU_SURF_Kernel3D/../common.h", line 8: error: 
          expected a ";"
  texture<float4, 1, cudaReadModeElementType> t_LIFT;
         ^

"/artifact/datasets/gpuverify-cav14/pug/gpgpu-sim_ispass2009/DG/MaxwellsGPU_SURF_Kernel3D/../common.h", line 9: error: 
          this declaration has no storage class or type specifier
  texture<float4, 1, cudaReadModeElementType> t_DrDsDt;
  ^

"/artifact/datasets/gpuverify-cav14/pug/gpgpu-sim_ispass2009/DG/MaxwellsGPU_SURF_Kernel3D/../common.h", line 9: error: 
          expected a ";"
  texture<float4, 1, cudaReadModeElementType> t_DrDsDt;
         ^

"/artifact/datasets/gpuverify-cav14/pug/gpgpu-sim_ispass2009/DG/MaxwellsGPU_SURF_Kernel3D/../common.h", line 10: error: 
          this declaration has no storage class or type specifier
  texture<float, 1, cudaReadModeElementType> t_Dr;
  ^

"/artifact/datasets/gpuverify-cav14/pug/gpgpu-sim_ispass2009/DG/MaxwellsGPU_SURF_Kernel3D/../common.h", line 10: error: 
          expected a ";"
  texture<float, 1, cudaReadModeElementType> t_Dr;
         ^

"/artifact/datasets/gpuverify-cav14/pug/gpgpu-sim_ispass2009/DG/MaxwellsGPU_SURF_Kernel3D/../common.h", line 11: error: 
          this declaration has no storage class or type specifier
  texture<float, 1, cudaReadModeElementType> t_Ds;
  ^

"/artifact/datasets/gpuverify-cav14/pug/gpgpu-sim_ispass2009/DG/MaxwellsGPU_SURF_Kernel3D/../common.h", line 11: error: 
          expected a ";"
  texture<float, 1, cudaReadModeElementType> t_Ds;
         ^

"/artifact/datasets/gpuverify-cav14/pug/gpgpu-sim_ispass2009/DG/MaxwellsGPU_SURF_Kernel3D/../common.h", line 12: error: 
          this declaration has no storage class or type specifier
  texture<float, 1, cudaReadModeElementType> t_Dt;
  ^

"/artifact/datasets/gpuverify-cav14/pug/gpgpu-sim_ispass2009/DG/MaxwellsGPU_SURF_Kernel3D/../common.h", line 12: error: 
          expected a ";"
  texture<float, 1, cudaReadModeElementType> t_Dt;
         ^

"/artifact/datasets/gpuverify-cav14/pug/gpgpu-sim_ispass2009/DG/MaxwellsGPU_SURF_Kernel3D/../common.h", line 13: error: 
          this declaration has no storage class or type specifier
  texture<float, 1, cudaReadModeElementType> t_vgeo;
  ^

"/artifact/datasets/gpuverify-cav14/pug/gpgpu-sim_ispass2009/DG/MaxwellsGPU_SURF_Kernel3D/../common.h", line 13: error: 
          expected a ";"
  texture<float, 1, cudaReadModeElementType> t_vgeo;
         ^

"/artifact/datasets/gpuverify-cav14/pug/gpgpu-sim_ispass2009/DG/MaxwellsGPU_SURF_Kernel3D/../common.h", line 14: error: 
          this declaration has no storage class or type specifier
  texture<float4, 1, cudaReadModeElementType> t_vgeo4;
  ^

"/artifact/datasets/gpuverify-cav14/pug/gpgpu-sim_ispass2009/DG/MaxwellsGPU_SURF_Kernel3D/../common.h", line 14: error: 
          expected a ";"
  texture<float4, 1, cudaReadModeElementType> t_vgeo4;
         ^

"/artifact/datasets/gpuverify-cav14/pug/gpgpu-sim_ispass2009/DG/MaxwellsGPU_SURF_Kernel3D/../common.h", line 15: error: 
          this declaration has no storage class or type specifier
  texture<float, 1, cudaReadModeElementType> t_Q;
  ^

"/artifact/datasets/gpuverify-cav14/pug/gpgpu-sim_ispass2009/DG/MaxwellsGPU_SURF_Kernel3D/../common.h", line 15: error: 
          expected a ";"
  texture<float, 1, cudaReadModeElementType> t_Q;
         ^

"/artifact/datasets/gpuverify-cav14/pug/gpgpu-sim_ispass2009/DG/MaxwellsGPU_SURF_Kernel3D/../common.h", line 16: error: 
          this declaration has no storage class or type specifier
  texture<float, 1, cudaReadModeElementType> t_partQ;
  ^

"/artifact/datasets/gpuverify-cav14/pug/gpgpu-sim_ispass2009/DG/MaxwellsGPU_SURF_Kernel3D/../common.h", line 16: error: 
          expected a ";"
  texture<float, 1, cudaReadModeElementType> t_partQ;
         ^

"/artifact/datasets/gpuverify-cav14/pug/gpgpu-sim_ispass2009/DG/MaxwellsGPU_SURF_Kernel3D/../common.h", line 17: error: 
          this declaration has no storage class or type specifier
  texture<float, 1, cudaReadModeElementType> t_surfinfo;
  ^

"/artifact/datasets/gpuverify-cav14/pug/gpgpu-sim_ispass2009/DG/MaxwellsGPU_SURF_Kernel3D/../common.h", line 17: error: 
          expected a ";"
  texture<float, 1, cudaReadModeElementType> t_surfinfo;
         ^

"/artifact/datasets/gpuverify-cav14/pug/gpgpu-sim_ispass2009/DG/MaxwellsGPU_SURF_Kernel3D/kernel.c", line 103: warning: 
          type qualifier specified more than once
    __device__ __shared__ float s_fluxQ[p_Nfields*p_Nfp*p_Nfaces];
               ^

"/artifact/datasets/gpuverify-cav14/pug/gpgpu-sim_ispass2009/DG/MaxwellsGPU_SURF_Kernel3D/kernel.c", line 113: error: 
          identifier "t_surfinfo" is undefined
      const  int idM   = tex1Dfetch(t_surfinfo, m); m += p_Nfp*p_Nfaces;
                                    ^

"/artifact/datasets/gpuverify-cav14/pug/gpgpu-sim_ispass2009/DG/MaxwellsGPU_SURF_Kernel3D/kernel.c", line 126: error: 
          identifier "t_partQ" is undefined
        dHx = Fsc*(tex1Dfetch(t_partQ, idP+0) - tex1Dfetch(t_Q, idM+0*BSIZE));
                              ^

"/artifact/datasets/gpuverify-cav14/pug/gpgpu-sim_ispass2009/DG/MaxwellsGPU_SURF_Kernel3D/kernel.c", line 126: error: 
          identifier "t_Q" is undefined
        dHx = Fsc*(tex1Dfetch(t_partQ, idP+0) - tex1Dfetch(t_Q, idM+0*BSIZE));
                                                           ^

"/artifact/datasets/gpuverify-cav14/pug/gpgpu-sim_ispass2009/DG/MaxwellsGPU_SURF_Kernel3D/kernel.c", line 135: error: 
          identifier "t_Q" is undefined
        dHx = Fsc*(tex1Dfetch(t_Q, idP+0*BSIZE) - tex1Dfetch(t_Q, idM+0*BSIZE));
                              ^

"/artifact/datasets/gpuverify-cav14/pug/gpgpu-sim_ispass2009/DG/MaxwellsGPU_SURF_Kernel3D/kernel.c", line 168: error: 
          identifier "t_LIFT" is undefined
        const float4 L = tex1Dfetch(t_LIFT, sk); sk+=p_Np;
                                    ^

"/artifact/datasets/gpuverify-cav14/pug/gpgpu-sim_ispass2009/DG/MaxwellsGPU_SURF_Kernel3D/kernel.c", line 168: error: 
          a value of type "int" cannot be used to initialize an entity of type
          "const float4"
        const float4 L = tex1Dfetch(t_LIFT, sk); sk+=p_Np;
                         ^

"/artifact/datasets/gpuverify-cav14/pug/gpgpu-sim_ispass2009/DG/MaxwellsGPU_SURF_Kernel3D/kernel.c", line 85: warning: 
          function "kernel" was declared but never referenced
  __global__ void kernel (float* g_Q, float* g_rhsQ) {
                  ^

terminate called after throwing an instance of 'rose_exception'
  what():  Errors in Processing: (frontend_failed)
/artifact/tools/pug-v0.2_x64/pug: line 3: 53041 Aborted                 (core dumped) LD_LIBRARY_PATH="$PREFIX/lib" "$PREFIX/bin/pug" "$@"
