status,time,memory,filename,log
0,1.25,41.2734375,gklee/accs-1.cu,logs/simulee-accs-1.log
0,1.02,41.078125,gklee/accs-1.cu,logs/simulee-accs-2.log
0,1.05,41.22265625,gklee/accs-2.cu,logs/simulee-accs-3.log
0,1.05,41.08984375,gklee/accs-2.cu,logs/simulee-accs-4.log
0,1.06,41.08984375,gklee/accs-3.cu,logs/simulee-accs-5.log
0,1.02,41.2109375,gklee/accs-3.cu,logs/simulee-accs-6.log
0,1.02,41.08984375,gklee/accs-4.cu,logs/simulee-accs-7.log
0,1.05,41.25,gklee/accs-4.cu,logs/simulee-accs-8.log
0,1.03,41.25,gklee/accs-5.cu,logs/simulee-accs-9.log
0,1.02,41.16015625,gklee/accs-5.cu,logs/simulee-accs-10.log
0,1.04,41.25390625,gklee/accs-6.cu,logs/simulee-accs-11.log
0,1.02,41.25390625,gklee/accs-6.cu,logs/simulee-accs-12.log
0,1.0,41.0625,gklee/accs-7.cu,logs/simulee-accs-13.log
0,1.06,41.296875,gklee/accs-7.cu,logs/simulee-accs-14.log
0,1.06,41.12109375,gklee/accs-8.cu,logs/simulee-accs-15.log
0,1.05,41.29296875,gklee/accs-8.cu,logs/simulee-accs-16.log
0,1.05,41.0703125,gklee/accs-9.cu,logs/simulee-accs-17.log
0,1.04,41.3125,gklee/accs-9.cu,logs/simulee-accs-18.log
0,1.05,41.29296875,gklee/accs-10.cu,logs/simulee-accs-19.log
0,1.04,41.296875,gklee/accs-10.cu,logs/simulee-accs-20.log
0,1.05,41.19140625,gklee/accs-11.cu,logs/simulee-accs-21.log
0,1.04,41.30859375,gklee/accs-11.cu,logs/simulee-accs-22.log
0,1.05,41.22265625,gklee/accs-12.cu,logs/simulee-accs-23.log
0,1.05,41.2578125,gklee/accs-12.cu,logs/simulee-accs-24.log
0,1.05,41.30859375,gklee/accs-13.cu,logs/simulee-accs-25.log
0,1.06,41.29296875,gklee/accs-13.cu,logs/simulee-accs-26.log
0,1.06,41.26171875,gklee/accs-14.cu,logs/simulee-accs-27.log
0,1.07,41.28125,gklee/accs-14.cu,logs/simulee-accs-28.log
0,1.06,41.26953125,gklee/accs-15.cu,logs/simulee-accs-29.log
0,1.06,41.26953125,gklee/accs-15.cu,logs/simulee-accs-30.log
0,1.06,41.3203125,gklee/accs-16.cu,logs/simulee-accs-31.log
0,1.06,41.234375,gklee/accs-16.cu,logs/simulee-accs-32.log
0,1.03,41.1484375,gklee/accs-17.cu,logs/simulee-accs-33.log
0,1.05,41.2734375,gklee/accs-17.cu,logs/simulee-accs-34.log
0,1.05,41.28125,gklee/accs-18.cu,logs/simulee-accs-35.log
0,1.05,41.2890625,gklee/accs-18.cu,logs/simulee-accs-36.log
0,1.05,41.34765625,gklee/accs-19.cu,logs/simulee-accs-37.log
0,1.05,41.16796875,gklee/accs-19.cu,logs/simulee-accs-38.log
0,1.06,41.34375,gklee/accs-20.cu,logs/simulee-accs-39.log
0,1.06,41.359375,gklee/accs-20.cu,logs/simulee-accs-40.log
0,1.07,41.359375,gklee/accs-21.cu,logs/simulee-accs-41.log
0,1.04,41.3515625,gklee/accs-21.cu,logs/simulee-accs-42.log
0,1.06,41.1953125,gklee/accs-22.cu,logs/simulee-accs-43.log
0,1.05,41.28125,gklee/accs-22.cu,logs/simulee-accs-44.log
0,1.05,41.3359375,gklee/accs-23.cu,logs/simulee-accs-45.log
0,1.04,41.328125,gklee/accs-23.cu,logs/simulee-accs-46.log
0,1.08,41.203125,gklee/accs-24.cu,logs/simulee-accs-47.log
0,1.06,41.375,gklee/accs-24.cu,logs/simulee-accs-48.log
0,1.07,41.3984375,gklee/accs-25.cu,logs/simulee-accs-49.log
0,1.04,41.19140625,gklee/accs-25.cu,logs/simulee-accs-50.log
0,1.04,41.26171875,gklee/accs-26.cu,logs/simulee-accs-51.log
0,1.05,41.265625,gklee/accs-26.cu,logs/simulee-accs-52.log
0,1.06,41.38671875,gklee/accs-27.cu,logs/simulee-accs-53.log
0,1.09,41.296875,gklee/accs-27.cu,logs/simulee-accs-54.log
0,1.04,41.34765625,gklee/accs-28.cu,logs/simulee-accs-55.log
0,1.06,41.21875,gklee/accs-28.cu,logs/simulee-accs-56.log
0,1.06,41.2734375,gklee/accs-29.cu,logs/simulee-accs-57.log
0,1.06,41.33984375,gklee/accs-29.cu,logs/simulee-accs-58.log
0,1.06,41.23046875,gklee/accs-30.cu,logs/simulee-accs-59.log
0,1.05,41.30859375,gklee/accs-30.cu,logs/simulee-accs-60.log
0,1.07,41.41796875,gklee/accs-31.cu,logs/simulee-accs-61.log
0,1.04,41.3125,gklee/accs-31.cu,logs/simulee-accs-62.log
0,1.05,41.421875,gklee/accs-32.cu,logs/simulee-accs-63.log
0,1.05,41.30078125,gklee/accs-32.cu,logs/simulee-accs-64.log
0,1.06,41.2890625,gklee/accs-33.cu,logs/simulee-accs-65.log
0,1.06,41.38671875,gklee/accs-33.cu,logs/simulee-accs-66.log
0,1.06,41.4140625,gklee/accs-34.cu,logs/simulee-accs-67.log
0,1.07,41.2890625,gklee/accs-34.cu,logs/simulee-accs-68.log
0,1.05,41.37890625,gklee/accs-35.cu,logs/simulee-accs-69.log
0,1.06,41.41015625,gklee/accs-35.cu,logs/simulee-accs-70.log
0,1.05,41.24609375,gklee/accs-36.cu,logs/simulee-accs-71.log
0,1.05,41.390625,gklee/accs-36.cu,logs/simulee-accs-72.log
0,1.06,41.39453125,gklee/accs-37.cu,logs/simulee-accs-73.log
0,1.06,41.3125,gklee/accs-37.cu,logs/simulee-accs-74.log
0,1.06,41.4375,gklee/accs-38.cu,logs/simulee-accs-75.log
0,1.05,41.32421875,gklee/accs-38.cu,logs/simulee-accs-76.log
0,1.08,41.3046875,gklee/accs-39.cu,logs/simulee-accs-77.log
0,1.09,41.390625,gklee/accs-39.cu,logs/simulee-accs-78.log
0,1.08,41.3984375,gklee/accs-40.cu,logs/simulee-accs-79.log
0,1.07,41.35546875,gklee/accs-40.cu,logs/simulee-accs-80.log
0,1.08,41.4453125,gklee/accs-41.cu,logs/simulee-accs-81.log
0,1.07,41.38671875,gklee/accs-41.cu,logs/simulee-accs-82.log
0,1.07,41.4453125,gklee/accs-42.cu,logs/simulee-accs-83.log
0,1.08,41.39453125,gklee/accs-42.cu,logs/simulee-accs-84.log
0,1.09,41.44921875,gklee/accs-43.cu,logs/simulee-accs-85.log
0,1.08,41.44921875,gklee/accs-43.cu,logs/simulee-accs-86.log
0,1.07,41.4765625,gklee/accs-44.cu,logs/simulee-accs-87.log
0,1.08,41.328125,gklee/accs-44.cu,logs/simulee-accs-88.log
0,1.07,41.41796875,gklee/accs-45.cu,logs/simulee-accs-89.log
0,1.06,41.33203125,gklee/accs-45.cu,logs/simulee-accs-90.log
0,1.08,41.53125,gklee/accs-46.cu,logs/simulee-accs-91.log
0,1.07,41.53515625,gklee/accs-46.cu,logs/simulee-accs-92.log
0,1.08,41.4921875,gklee/accs-47.cu,logs/simulee-accs-93.log
0,1.08,41.33984375,gklee/accs-47.cu,logs/simulee-accs-94.log
0,1.08,41.4921875,gklee/accs-48.cu,logs/simulee-accs-95.log
0,1.07,41.53515625,gklee/accs-48.cu,logs/simulee-accs-96.log
0,1.09,41.46484375,gklee/accs-49.cu,logs/simulee-accs-97.log
0,1.07,41.46875,gklee/accs-49.cu,logs/simulee-accs-98.log
0,1.07,41.51953125,gklee/accs-50.cu,logs/simulee-accs-99.log
0,1.08,41.51953125,gklee/accs-50.cu,logs/simulee-accs-100.log
