"/artifact/datasets/gpuverify-cav14/pug/gpgpu-sim_ispass2009/RAY/common.h", line 26: error: 
          identifier "uint" is undefined
  	uint   fg, fd;
  	^

"/artifact/datasets/gpuverify-cav14/pug/gpgpu-sim_ispass2009/RAY/common.h", line 32: warning: 
          attribute "always_inline" ignored
  static __attribute__((always_inline)) __device__ float intersectionSphere(Rayon R, float3 C, float r)
                        ^

"/artifact/datasets/gpuverify-cav14/pug/gpgpu-sim_ispass2009/RAY/common.h", line 32: warning: 
          type qualifier on return type is meaningless
  static __attribute__((always_inline)) __device__ float intersectionSphere(Rayon R, float3 C, float r)
                                                         ^

"/artifact/datasets/gpuverify-cav14/pug/gpgpu-sim_ispass2009/RAY/common.h", line 34: error: 
          parameter "C" is not a type name
  	float3 L(C-R.A);
  	         ^

"/artifact/datasets/gpuverify-cav14/pug/gpgpu-sim_ispass2009/RAY/common.h", line 34: error: 
          expected a ")"
  	float3 L(C-R.A);
  	          ^

"/artifact/datasets/gpuverify-cav14/pug/gpgpu-sim_ispass2009/RAY/common.h", line 35: error: 
          identifier "dot" is undefined
  	float d(dot(L,R.u)), l2(dot(L,L)), r2(r*r), m2, q, res;
  	        ^

"/artifact/datasets/gpuverify-cav14/pug/gpgpu-sim_ispass2009/RAY/common.h", line 35: error: 
          expected a ")"
  	float d(dot(L,R.u)), l2(dot(L,L)), r2(r*r), m2, q, res;
  	             ^

"/artifact/datasets/gpuverify-cav14/pug/gpgpu-sim_ispass2009/RAY/common.h", line 35: error: 
          parameter "R" is not a type name
  	float d(dot(L,R.u)), l2(dot(L,L)), r2(r*r), m2, q, res;
  	              ^

"/artifact/datasets/gpuverify-cav14/pug/gpgpu-sim_ispass2009/RAY/common.h", line 35: error: 
          expected a ")"
  	float d(dot(L,R.u)), l2(dot(L,L)), r2(r*r), m2, q, res;
  	               ^

"/artifact/datasets/gpuverify-cav14/pug/gpgpu-sim_ispass2009/RAY/common.h", line 35: error: 
          expected a ";"
  	float d(dot(L,R.u)), l2(dot(L,L)), r2(r*r), m2, q, res;
  	                  ^

"/artifact/datasets/gpuverify-cav14/pug/gpgpu-sim_ispass2009/RAY/common.h", line 37: error: 
          operand types are incompatible (
          "float (*)(<error-type>, <error-type>)" and "float")
  	if( d < 0.0f && l2 > r2 ) {
  	      ^

"/artifact/datasets/gpuverify-cav14/pug/gpgpu-sim_ispass2009/RAY/common.h", line 37: error: 
          identifier "l2" is undefined
  	if( d < 0.0f && l2 > r2 ) {
  	                ^

"/artifact/datasets/gpuverify-cav14/pug/gpgpu-sim_ispass2009/RAY/common.h", line 37: error: 
          identifier "r2" is undefined
  	if( d < 0.0f && l2 > r2 ) {
  	                     ^

"/artifact/datasets/gpuverify-cav14/pug/gpgpu-sim_ispass2009/RAY/common.h", line 38: error: 
          identifier "res" is undefined
  		res = 0.0f;
  		^

"/artifact/datasets/gpuverify-cav14/pug/gpgpu-sim_ispass2009/RAY/common.h", line 42: error: 
          identifier "m2" is undefined
  		m2 = l2 - d*d;
  		^

"/artifact/datasets/gpuverify-cav14/pug/gpgpu-sim_ispass2009/RAY/common.h", line 42: error: 
          expression must have arithmetic type
  		m2 = l2 - d*d;
  		          ^

"/artifact/datasets/gpuverify-cav14/pug/gpgpu-sim_ispass2009/RAY/common.h", line 42: error: 
          expression must have arithmetic type
  		m2 = l2 - d*d;
  		            ^

"/artifact/datasets/gpuverify-cav14/pug/gpgpu-sim_ispass2009/RAY/common.h", line 44: error: 
          identifier "res" is undefined
  			res = 0.0f;
  			^

"/artifact/datasets/gpuverify-cav14/pug/gpgpu-sim_ispass2009/RAY/common.h", line 48: error: 
          identifier "q" is undefined
  			q = sqrt(r2-m2);
  			^

"/artifact/datasets/gpuverify-cav14/pug/gpgpu-sim_ispass2009/RAY/common.h", line 49: error: 
          identifier "res" is undefined
  			if( l2 > r2 ) res = d - q;
  			              ^

"/artifact/datasets/gpuverify-cav14/pug/gpgpu-sim_ispass2009/RAY/common.h", line 50: error: 
          identifier "res" is undefined
  			else res = d + q;
  			     ^

"/artifact/datasets/gpuverify-cav14/pug/gpgpu-sim_ispass2009/RAY/common.h", line 54: error: 
          identifier "res" is undefined
  	return res;
  	       ^

"/artifact/datasets/gpuverify-cav14/pug/gpgpu-sim_ispass2009/RAY/common.h", line 57: warning: 
          attribute "always_inline" ignored
  static __attribute__((always_inline)) __device__ float intersectionPlan( Rayon R, float3 C, float3 N2 )
                        ^

"/artifact/datasets/gpuverify-cav14/pug/gpgpu-sim_ispass2009/RAY/common.h", line 57: warning: 
          type qualifier on return type is meaningless
  static __attribute__((always_inline)) __device__ float intersectionPlan( Rayon R, float3 C, float3 N2 )
                                                         ^

"/artifact/datasets/gpuverify-cav14/pug/gpgpu-sim_ispass2009/RAY/common.h", line 60: error: 
          a value of type "int" cannot be used to initialize an entity of type
          "float3"
    float3 N = normalize(make_float3(0.0f,1.0f,0.0f));
               ^

"/artifact/datasets/gpuverify-cav14/pug/gpgpu-sim_ispass2009/RAY/common.h", line 61: error: 
          identifier "dot" is undefined
    float m(dot(N,R.u)), d, t;
            ^

"/artifact/datasets/gpuverify-cav14/pug/gpgpu-sim_ispass2009/RAY/common.h", line 61: error: 
          expected a ")"
    float m(dot(N,R.u)), d, t;
                 ^

"/artifact/datasets/gpuverify-cav14/pug/gpgpu-sim_ispass2009/RAY/common.h", line 61: error: 
          parameter "R" is not a type name
    float m(dot(N,R.u)), d, t;
                  ^

"/artifact/datasets/gpuverify-cav14/pug/gpgpu-sim_ispass2009/RAY/common.h", line 61: error: 
          expected a ")"
    float m(dot(N,R.u)), d, t;
                   ^

"/artifact/datasets/gpuverify-cav14/pug/gpgpu-sim_ispass2009/RAY/common.h", line 61: error: 
          expected a ";"
    float m(dot(N,R.u)), d, t;
                      ^

"/artifact/datasets/gpuverify-cav14/pug/gpgpu-sim_ispass2009/RAY/common.h", line 68: error: 
          expression must have arithmetic or pointer type
      L = R.A - C;
          ^

"/artifact/datasets/gpuverify-cav14/pug/gpgpu-sim_ispass2009/RAY/common.h", line 69: warning: 
          using out-of-scope declaration of function "d" (declared at line 35)
      d = dot(N,L);
      ^

"/artifact/datasets/gpuverify-cav14/pug/gpgpu-sim_ispass2009/RAY/common.h", line 69: error: 
          expression must be a modifiable lvalue
      d = dot(N,L);
      ^

"/artifact/datasets/gpuverify-cav14/pug/gpgpu-sim_ispass2009/RAY/common.h", line 70: error: 
          identifier "t" is undefined
      t = -d/m;
      ^

"/artifact/datasets/gpuverify-cav14/pug/gpgpu-sim_ispass2009/RAY/common.h", line 70: error: 
          expression must have arithmetic type
      t = -d/m;
           ^

"/artifact/datasets/gpuverify-cav14/pug/gpgpu-sim_ispass2009/RAY/common.h", line 70: error: 
          expression must have arithmetic type
      t = -d/m;
             ^

"/artifact/datasets/gpuverify-cav14/pug/gpgpu-sim_ispass2009/RAY/common.h", line 82: warning: 
          attribute "always_inline" ignored
  static __attribute__((always_inline)) __device__ float3 getNormale(float3 P, float3 C)
                        ^

"/artifact/datasets/gpuverify-cav14/pug/gpgpu-sim_ispass2009/RAY/common.h", line 82: warning: 
          type qualifier on return type is meaningless
  static __attribute__((always_inline)) __device__ float3 getNormale(float3 P, float3 C)
                                                          ^

"/artifact/datasets/gpuverify-cav14/pug/gpgpu-sim_ispass2009/RAY/common.h", line 84: error: 
          expression must have arithmetic or pointer type
    return normalize(P-C);
                     ^

"/artifact/datasets/gpuverify-cav14/pug/gpgpu-sim_ispass2009/RAY/common.h", line 84: error: 
          return value type does not match the function type
    return normalize(P-C);
           ^

"/artifact/datasets/gpuverify-cav14/pug/gpgpu-sim_ispass2009/RAY/common.h", line 87: warning: 
          attribute "always_inline" ignored
  static __attribute__((always_inline)) __device__ float3 getNormaleP(float3 P)
                        ^

"/artifact/datasets/gpuverify-cav14/pug/gpgpu-sim_ispass2009/RAY/common.h", line 87: warning: 
          type qualifier on return type is meaningless
  static __attribute__((always_inline)) __device__ float3 getNormaleP(float3 P)
                                                          ^

"/artifact/datasets/gpuverify-cav14/pug/gpgpu-sim_ispass2009/RAY/common.h", line 89: error: 
          return value type does not match the function type
    return normalize(make_float3(0.0f,1.0f,0.0f));
           ^

"/artifact/datasets/gpuverify-cav14/pug/gpgpu-sim_ispass2009/RAY/common.h", line 93: warning: 
          attribute "always_inline" ignored
  static __attribute__((always_inline)) __device__ float3 mul(matrice3x4 M, float3 v)
                        ^

"/artifact/datasets/gpuverify-cav14/pug/gpgpu-sim_ispass2009/RAY/common.h", line 93: warning: 
          type qualifier on return type is meaningless
  static __attribute__((always_inline)) __device__ float3 mul(matrice3x4 M, float3 v)
                                                          ^

"/artifact/datasets/gpuverify-cav14/pug/gpgpu-sim_ispass2009/RAY/common.h", line 103: warning: 
          attribute "always_inline" ignored
  static __attribute__((always_inline)) __device__ float4 mul(matrice3x4 M, float4 v)
                        ^

"/artifact/datasets/gpuverify-cav14/pug/gpgpu-sim_ispass2009/RAY/common.h", line 103: warning: 
          type qualifier on return type is meaningless
  static __attribute__((always_inline)) __device__ float4 mul(matrice3x4 M, float4 v)
                                                          ^

"/artifact/datasets/gpuverify-cav14/pug/gpgpu-sim_ispass2009/RAY/common.h", line 103: error: 
          function "mul" has already been defined
  static __attribute__((always_inline)) __device__ float4 mul(matrice3x4 M, float4 v)
                                                          ^

"/artifact/datasets/gpuverify-cav14/pug/gpgpu-sim_ispass2009/RAY/common.h", line 113: warning: 
          attribute "always_inline" ignored
  static __attribute__((always_inline)) __device__ uint rgbaFloatToInt(float4 rgba)
                        ^

"/artifact/datasets/gpuverify-cav14/pug/gpgpu-sim_ispass2009/RAY/common.h", line 113: error: 
          identifier "uint" is undefined
  static __attribute__((always_inline)) __device__ uint rgbaFloatToInt(float4 rgba)
                                                   ^

"/artifact/datasets/gpuverify-cav14/pug/gpgpu-sim_ispass2009/RAY/common.h", line 113: warning: 
          type qualifier on return type is meaningless
  static __attribute__((always_inline)) __device__ uint rgbaFloatToInt(float4 rgba)
                                                        ^

"/artifact/datasets/gpuverify-cav14/pug/gpgpu-sim_ispass2009/RAY/common.h", line 125: warning: 
          attribute "always_inline" ignored
  static __attribute__((always_inline)) __device__ bool notShadowRay( Node * node, float3 A, float3 u, float pas ) {
                        ^

"/artifact/datasets/gpuverify-cav14/pug/gpgpu-sim_ispass2009/RAY/common.h", line 125: error: 
          identifier "bool" is undefined
  static __attribute__((always_inline)) __device__ bool notShadowRay( Node * node, float3 A, float3 u, float pas ) {
                                                   ^

"/artifact/datasets/gpuverify-cav14/pug/gpgpu-sim_ispass2009/RAY/common.h", line 125: warning: 
          type qualifier on return type is meaningless
  static __attribute__((always_inline)) __device__ bool notShadowRay( Node * node, float3 A, float3 u, float pas ) {
                                                        ^

"/artifact/datasets/gpuverify-cav14/pug/gpgpu-sim_ispass2009/RAY/common.h", line 126: error: 
          expected a type specifier
     float t(0.0f);
             ^

"/artifact/datasets/gpuverify-cav14/pug/gpgpu-sim_ispass2009/RAY/common.h", line 129: error: 
          identifier "make_float3" is undefined
  	float3 L(make_float3(10.0f,10.0f,10.0f)), tmp;
  	         ^

"/artifact/datasets/gpuverify-cav14/pug/gpgpu-sim_ispass2009/RAY/common.h", line 129: error: 
          expected a ")"
  	float3 L(make_float3(10.0f,10.0f,10.0f)), tmp;
  	                     ^

"/artifact/datasets/gpuverify-cav14/pug/gpgpu-sim_ispass2009/RAY/common.h", line 129: error: 
          expected a type specifier
  	float3 L(make_float3(10.0f,10.0f,10.0f)), tmp;
  	                           ^

"/artifact/datasets/gpuverify-cav14/pug/gpgpu-sim_ispass2009/RAY/common.h", line 129: error: 
          expected a type specifier
  	float3 L(make_float3(10.0f,10.0f,10.0f)), tmp;
  	                                 ^

"/artifact/datasets/gpuverify-cav14/pug/gpgpu-sim_ispass2009/RAY/common.h", line 129: error: 
          declaration is incompatible with previous "L" (declared at line 34)
  	float3 L(make_float3(10.0f,10.0f,10.0f)), tmp;
  	       ^

"/artifact/datasets/gpuverify-cav14/pug/gpgpu-sim_ispass2009/RAY/common.h", line 129: error: 
          expected a ";"
  	float3 L(make_float3(10.0f,10.0f,10.0f)), tmp;
  	                                       ^

"/artifact/datasets/gpuverify-cav14/pug/gpgpu-sim_ispass2009/RAY/common.h", line 130: error: 
          identifier "dot" is undefined
  	float dst(dot(tmp=(L-A),tmp));
  	          ^

"/artifact/datasets/gpuverify-cav14/pug/gpgpu-sim_ispass2009/RAY/common.h", line 130: error: 
          expected a ")"
  	float dst(dot(tmp=(L-A),tmp));
  	                 ^

"/artifact/datasets/gpuverify-cav14/pug/gpgpu-sim_ispass2009/RAY/common.h", line 130: error: 
          expected a ")"
  	float dst(dot(tmp=(L-A),tmp));
  	                 ^

"/artifact/datasets/gpuverify-cav14/pug/gpgpu-sim_ispass2009/RAY/common.h", line 130: error: 
          expected a ";"
  	float dst(dot(tmp=(L-A),tmp));
  	                            ^

"/artifact/datasets/gpuverify-cav14/pug/gpgpu-sim_ispass2009/RAY/common.h", line 131: error: 
          expression must have arithmetic type
  	ray.A = A+u*0.0001f;
  	          ^

"/artifact/datasets/gpuverify-cav14/pug/gpgpu-sim_ispass2009/RAY/common.h", line 131: error: 
          expression must have arithmetic or pointer type
  	ray.A = A+u*0.0001f;
  	        ^

"/artifact/datasets/gpuverify-cav14/pug/gpgpu-sim_ispass2009/RAY/common.h", line 133: error: 
          expected a type specifier
  	for( int j(0); j < numObj && !t; j++ ) {
  	           ^

"/artifact/datasets/gpuverify-cav14/pug/gpgpu-sim_ispass2009/RAY/common.h", line 133: warning: 
          operand types are incompatible ("int (*)(<error-type>)" and "int")
  	for( int j(0); j < numObj && !t; j++ ) {
  	                 ^

"/artifact/datasets/gpuverify-cav14/pug/gpgpu-sim_ispass2009/RAY/common.h", line 133: warning: 
          conversion of nonzero integer to pointer
  	for( int j(0); j < numObj && !t; j++ ) {
  	                   ^

"/artifact/datasets/gpuverify-cav14/pug/gpgpu-sim_ispass2009/RAY/common.h", line 133: warning: 
          arithmetic on pointer to void or function type
  	for( int j(0); j < numObj && !t; j++ ) {
  	                                  ^

"/artifact/datasets/gpuverify-cav14/pug/gpgpu-sim_ispass2009/RAY/common.h", line 133: error: 
          expression must be a modifiable lvalue
  	for( int j(0); j < numObj && !t; j++ ) {
  	                                 ^

"/artifact/datasets/gpuverify-cav14/pug/gpgpu-sim_ispass2009/RAY/common.h", line 134: error: 
          expression must have integral type
  		n = cnode[j];
  		          ^

"/artifact/datasets/gpuverify-cav14/pug/gpgpu-sim_ispass2009/RAY/common.h", line 137: error: 
          expression must be a modifiable lvalue
           t = intersectionPlan(ray,n.s.C,n.s.C);
           ^

"/artifact/datasets/gpuverify-cav14/pug/gpgpu-sim_ispass2009/RAY/common.h", line 140: error: 
          expression must be a modifiable lvalue
           t = intersectionSphere(ray,n.s.C,n.s.r);
           ^

"/artifact/datasets/gpuverify-cav14/pug/gpgpu-sim_ispass2009/RAY/common.h", line 142: error: 
          operand types are incompatible ("float (*)(<error-type>)" and "float"
          )
  		if( t > 0.0f && dot(tmp=(A+u*t),tmp) > dst ){
  		      ^

"/artifact/datasets/gpuverify-cav14/pug/gpgpu-sim_ispass2009/RAY/common.h", line 142: error: 
          identifier "tmp" is undefined
  		if( t > 0.0f && dot(tmp=(A+u*t),tmp) > dst ){
  		                    ^

"/artifact/datasets/gpuverify-cav14/pug/gpgpu-sim_ispass2009/RAY/common.h", line 142: error: 
          expression must have arithmetic type
  		if( t > 0.0f && dot(tmp=(A+u*t),tmp) > dst ){
  		                           ^

"/artifact/datasets/gpuverify-cav14/pug/gpgpu-sim_ispass2009/RAY/common.h", line 142: error: 
          expression must have arithmetic type
  		if( t > 0.0f && dot(tmp=(A+u*t),tmp) > dst ){
  		                             ^

"/artifact/datasets/gpuverify-cav14/pug/gpgpu-sim_ispass2009/RAY/common.h", line 142: error: 
          expression must have arithmetic or pointer type
  		if( t > 0.0f && dot(tmp=(A+u*t),tmp) > dst ){
  		                         ^

"/artifact/datasets/gpuverify-cav14/pug/gpgpu-sim_ispass2009/RAY/common.h", line 142: warning: 
          operand types are incompatible ("int" and "float (*)(<error-type>)")
  		if( t > 0.0f && dot(tmp=(A+u*t),tmp) > dst ){
  		                                     ^

"/artifact/datasets/gpuverify-cav14/pug/gpgpu-sim_ispass2009/RAY/common.h", line 143: error: 
          expression must be a modifiable lvalue
           t = 0.0f;
           ^

"/artifact/datasets/gpuverify-cav14/pug/gpgpu-sim_ispass2009/RAY/common.h", line 146: error: 
          operand types are incompatible ("float (*)(<error-type>)" and "float"
          )
  	return t == 0.0f;
  	         ^

"/artifact/datasets/gpuverify-cav14/pug/gpgpu-sim_ispass2009/RAY/common.h", line 149: warning: 
          attribute "always_inline" ignored
  static __attribute__((always_inline)) __device__ float float2int_pow20(float a)
                        ^

"/artifact/datasets/gpuverify-cav14/pug/gpgpu-sim_ispass2009/RAY/common.h", line 149: warning: 
          type qualifier on return type is meaningless
  static __attribute__((always_inline)) __device__ float float2int_pow20(float a)
                                                         ^

"/artifact/datasets/gpuverify-cav14/pug/gpgpu-sim_ispass2009/RAY/common.h", line 155: warning: 
          attribute "always_inline" ignored
  static __attribute__((always_inline)) __device__ float float2int_pow50(float a)
                        ^

"/artifact/datasets/gpuverify-cav14/pug/gpgpu-sim_ispass2009/RAY/common.h", line 155: warning: 
          type qualifier on return type is meaningless
  static __attribute__((always_inline)) __device__ float float2int_pow50(float a)
                                                         ^

"/artifact/datasets/gpuverify-cav14/pug/gpgpu-sim_ispass2009/RAY/renderPixel.c", line 85: error: 
          identifier "uint" is undefined
  __global__ void kernel (uint* result, Node* dnode, uint imageW,uint imageH,float pas,float df) {
                          ^

"/artifact/datasets/gpuverify-cav14/pug/gpgpu-sim_ispass2009/RAY/renderPixel.c", line 85: error: 
          identifier "uint" is undefined
  __global__ void kernel (uint* result, Node* dnode, uint imageW,uint imageH,float pas,float df) {
                                                     ^

"/artifact/datasets/gpuverify-cav14/pug/gpgpu-sim_ispass2009/RAY/renderPixel.c", line 85: error: 
          identifier "uint" is undefined
  __global__ void kernel (uint* result, Node* dnode, uint imageW,uint imageH,float pas,float df) {
                                                                 ^

"/artifact/datasets/gpuverify-cav14/pug/gpgpu-sim_ispass2009/RAY/renderPixel.c", line 104: error: 
          identifier "uint" is undefined
  	uint id(blockIdx.x + __umul24(blockIdx.y, imageW));
  	^

"/artifact/datasets/gpuverify-cav14/pug/gpgpu-sim_ispass2009/RAY/renderPixel.c", line 104: error: 
          variable "blockIdx" is not a type name
  	uint id(blockIdx.x + __umul24(blockIdx.y, imageW));
  	        ^

"/artifact/datasets/gpuverify-cav14/pug/gpgpu-sim_ispass2009/RAY/renderPixel.c", line 104: error: 
          expected a ")"
  	uint id(blockIdx.x + __umul24(blockIdx.y, imageW));
  	                ^

"/artifact/datasets/gpuverify-cav14/pug/gpgpu-sim_ispass2009/RAY/renderPixel.c", line 105: error: 
          identifier "uint" is undefined
  	uint tid(threadIdx.x), x(blockIdx.x), y(blockIdx.y);
  	^

"/artifact/datasets/gpuverify-cav14/pug/gpgpu-sim_ispass2009/RAY/renderPixel.c", line 105: error: 
          variable "threadIdx" is not a type name
  	uint tid(threadIdx.x), x(blockIdx.x), y(blockIdx.y);
  	         ^

"/artifact/datasets/gpuverify-cav14/pug/gpgpu-sim_ispass2009/RAY/renderPixel.c", line 105: error: 
          expected a ")"
  	uint tid(threadIdx.x), x(blockIdx.x), y(blockIdx.y);
  	                  ^

"/artifact/datasets/gpuverify-cav14/pug/gpgpu-sim_ispass2009/RAY/renderPixel.c", line 105: error: 
          variable "blockIdx" is not a type name
  	uint tid(threadIdx.x), x(blockIdx.x), y(blockIdx.y);
  	                         ^

"/artifact/datasets/gpuverify-cav14/pug/gpgpu-sim_ispass2009/RAY/renderPixel.c", line 105: error: 
          expected a ")"
  	uint tid(threadIdx.x), x(blockIdx.x), y(blockIdx.y);
  	                                 ^

"/artifact/datasets/gpuverify-cav14/pug/gpgpu-sim_ispass2009/RAY/renderPixel.c", line 105: error: 
          variable "blockIdx" is not a type name
  	uint tid(threadIdx.x), x(blockIdx.x), y(blockIdx.y);
  	                                        ^

"/artifact/datasets/gpuverify-cav14/pug/gpgpu-sim_ispass2009/RAY/renderPixel.c", line 105: error: 
          expected a ")"
  	uint tid(threadIdx.x), x(blockIdx.x), y(blockIdx.y);
  	                                                ^

"/artifact/datasets/gpuverify-cav14/pug/gpgpu-sim_ispass2009/RAY/renderPixel.c", line 108: warning: 
          operand types are incompatible ("<error-type> (*)(<error-type>)" and
          "int")
      __requires(tid < numObj);
      ^

"/artifact/datasets/gpuverify-cav14/pug/gpgpu-sim_ispass2009/RAY/renderPixel.c", line 108: warning: 
          conversion of nonzero integer to pointer
      __requires(tid < numObj);
      ^

"/artifact/datasets/gpuverify-cav14/pug/gpgpu-sim_ispass2009/RAY/renderPixel.c", line 111: error: 
          expected a type specifier
  	float t(0.0f), tPixel;
  	        ^

"/artifact/datasets/gpuverify-cav14/pug/gpgpu-sim_ispass2009/RAY/renderPixel.c", line 112: error: 
          identifier "make_float4" is undefined
  	float4 Color(make_float4(0.0f,0.0f,0.0f,1.0f));
  	             ^

"/artifact/datasets/gpuverify-cav14/pug/gpgpu-sim_ispass2009/RAY/renderPixel.c", line 112: error: 
          expected a ")"
  	float4 Color(make_float4(0.0f,0.0f,0.0f,1.0f));
  	                         ^

"/artifact/datasets/gpuverify-cav14/pug/gpgpu-sim_ispass2009/RAY/renderPixel.c", line 112: error: 
          expected a type specifier
  	float4 Color(make_float4(0.0f,0.0f,0.0f,1.0f));
  	                              ^

"/artifact/datasets/gpuverify-cav14/pug/gpgpu-sim_ispass2009/RAY/renderPixel.c", line 112: error: 
          expected a type specifier
  	float4 Color(make_float4(0.0f,0.0f,0.0f,1.0f));
  	                                   ^

"/artifact/datasets/gpuverify-cav14/pug/gpgpu-sim_ispass2009/RAY/renderPixel.c", line 112: error: 
          expected a type specifier
  	float4 Color(make_float4(0.0f,0.0f,0.0f,1.0f));
  	                                        ^

"/artifact/datasets/gpuverify-cav14/pug/gpgpu-sim_ispass2009/RAY/renderPixel.c", line 112: error: 
          expected a ";"
  	float4 Color(make_float4(0.0f,0.0f,0.0f,1.0f));
  	                                             ^

"/artifact/datasets/gpuverify-cav14/pug/gpgpu-sim_ispass2009/RAY/renderPixel.c", line 113: warning: 
          identifier-list parameters may only be used in a function definition
  	matrice3x4 M(MView);
  	           ^

"/artifact/datasets/gpuverify-cav14/pug/gpgpu-sim_ispass2009/RAY/renderPixel.c", line 117: error: 
          identifier "uint" is undefined
  	__shared__ uint Obj;
  	           ^

"/artifact/datasets/gpuverify-cav14/pug/gpgpu-sim_ispass2009/RAY/renderPixel.c", line 119: error: 
          expression must have integral type
  	T[tid] = 10000.0f;
  	  ^

"/artifact/datasets/gpuverify-cav14/pug/gpgpu-sim_ispass2009/RAY/renderPixel.c", line 120: error: 
          expression must have integral type
      node = dnode[tid];
                   ^

"/artifact/datasets/gpuverify-cav14/pug/gpgpu-sim_ispass2009/RAY/renderPixel.c", line 121: error: 
          expression must have integral type
      if( tid == 0 ) result[id] = 0;
                            ^

"/artifact/datasets/gpuverify-cav14/pug/gpgpu-sim_ispass2009/RAY/renderPixel.c", line 122: error: 
          expected an expression
      tPixel = 2.0f/float(min(imageW,imageH));
                    ^

"/artifact/datasets/gpuverify-cav14/pug/gpgpu-sim_ispass2009/RAY/renderPixel.c", line 123: error: 
          expression must have struct or union type
      R.A = make_float3(M.m[0].w,M.m[1].w,M.m[2].w);
                        ^

"/artifact/datasets/gpuverify-cav14/pug/gpgpu-sim_ispass2009/RAY/renderPixel.c", line 123: error: 
          expression must have struct or union type
      R.A = make_float3(M.m[0].w,M.m[1].w,M.m[2].w);
                                 ^

"/artifact/datasets/gpuverify-cav14/pug/gpgpu-sim_ispass2009/RAY/renderPixel.c", line 123: error: 
          expression must have struct or union type
      R.A = make_float3(M.m[0].w,M.m[1].w,M.m[2].w);
                                          ^

"/artifact/datasets/gpuverify-cav14/pug/gpgpu-sim_ispass2009/RAY/renderPixel.c", line 123: error: 
          a value of type "int" cannot be assigned to an entity of type
          "float3"
      R.A = make_float3(M.m[0].w,M.m[1].w,M.m[2].w);
          ^

"/artifact/datasets/gpuverify-cav14/pug/gpgpu-sim_ispass2009/RAY/renderPixel.c", line 124: error: 
          expression must have struct or union type
      R.u = make_float3(M.m[0])*df
                        ^

"/artifact/datasets/gpuverify-cav14/pug/gpgpu-sim_ispass2009/RAY/renderPixel.c", line 125: error: 
          expression must have struct or union type
          + make_float3(M.m[2])*(float(x)-float(imageW)*0.5f)*tPixel
                        ^

"/artifact/datasets/gpuverify-cav14/pug/gpgpu-sim_ispass2009/RAY/renderPixel.c", line 125: error: 
          expected a ")"
          + make_float3(M.m[2])*(float(x)-float(imageW)*0.5f)*tPixel
                                       ^

"/artifact/datasets/gpuverify-cav14/pug/gpgpu-sim_ispass2009/RAY/renderPixel.c", line 125: error: 
          expected a ")"
          + make_float3(M.m[2])*(float(x)-float(imageW)*0.5f)*tPixel
                                         ^

"/artifact/datasets/gpuverify-cav14/pug/gpgpu-sim_ispass2009/RAY/renderPixel.c", line 125: error: 
          operand of "*" must be a pointer
          + make_float3(M.m[2])*(float(x)-float(imageW)*0.5f)*tPixel
                                                              ^

"/artifact/datasets/gpuverify-cav14/pug/gpgpu-sim_ispass2009/RAY/renderPixel.c", line 126: error: 
          expression must have struct or union type
          + make_float3(M.m[1])*(float(y)-float(imageH)*0.5f)*tPixel;
                        ^

"/artifact/datasets/gpuverify-cav14/pug/gpgpu-sim_ispass2009/RAY/renderPixel.c", line 126: error: 
          expected a ")"
          + make_float3(M.m[1])*(float(y)-float(imageH)*0.5f)*tPixel;
                                       ^

"/artifact/datasets/gpuverify-cav14/pug/gpgpu-sim_ispass2009/RAY/renderPixel.c", line 126: error: 
          expected a ")"
          + make_float3(M.m[1])*(float(y)-float(imageH)*0.5f)*tPixel;
                                         ^

"/artifact/datasets/gpuverify-cav14/pug/gpgpu-sim_ispass2009/RAY/renderPixel.c", line 126: error: 
          operand of "*" must be a pointer
          + make_float3(M.m[1])*(float(y)-float(imageH)*0.5f)*tPixel;
                                                              ^

Error limit reached.
100 errors detected in the compilation of "/artifact/datasets/gpuverify-cav14/pug/gpgpu-sim_ispass2009/RAY/renderPixel.c".
Compilation terminated.
/artifact/tools/pug-v0.2_x64/pug: line 3: 58691 Aborted                 (core dumped) LD_LIBRARY_PATH="$PREFIX/lib" "$PREFIX/bin/pug" "$@"
