"/artifact/datasets/gpuverify-cav14/pug/C++AMP/MatrixMultiplication/mxm_amp_tiled/kernel.c", line 116: warning: 
          function "kernel" was declared but never referenced
  __global__ void kernel (_type* va, _type* vb, _type* vresult) {
                  ^

>>>> start analysis ... 


-------------------------------------------------------
Invalid OVERFLOW_PROTECTION flag in config.txt!
Setting OVERFLOW_PROTECTION flag to on
-------------------------------------------------------

-------------------------------------------------------
Invalid NBITS value in config.txt!
Setting NBITS value to 10
-------------------------------------------------------

-------------------------------------------------------
Invalid USE_INCRSMT flag in config.txt!
Setting USE_INCRSMT flag to false
-------------------------------------------------------


-------------------------------------------------------
Invalid USE_LOOP_REFINEMENT flag in config.txt!
Setting USE_LOOP_REFINEMENT flag to true
-------------------------------------------------------


-------------------------------------------------------
Invalid SLICE_ARRAYS flag in config.txt!
Setting SLICE_ARRAYS flag to true
-------------------------------------------------------


-------------------------------------------------------
Invalid USE_ASSUMES flag in config.txt!
Setting USE_ASSUMES flag to true
-------------------------------------------------------


-------------------------------------------------------
Invalid CHK_BANK_CONFLICTS option in config.txt!
Setting CHK_BANK_CONFLICTS option to false
-------------------------------------------------------

Debug level (verbosity) set to 0


Processing function: kernel

FunctionCall: assume(((blockDim.x) ==(16)))
Assuming bdim.x == 16

FunctionCall: assume(((blockDim.y) ==(16)))
Assuming bdim.y == 16

FunctionCall: assume(((gridDim.x) ==(16)))
Assuming gdim.x == 16
containBarrierFlag = 1
incrExpr = i += 16
rhs = 16SgIntVal
------------- Linear incrExpr
var = !1^i0; lb = 0; ub = (256 - 1); stride = 16
rangeExpr = ((0 <= (256 - 1)) && ((!1^i0 >= 0) && (!1^i0 <= (((256 - 1) - 0) >> 4)))); substExpr = !1^i1 == ((!1^i0 << 4) + 0)

Binary OP: (localA[localIdxY])[localIdxX] =(va[((globalIdxY * 256) + i) + localIdxX])

Binary OP: (localB[localIdxY])[localIdxX] =(vb[((i + localIdxY) * 256) + globalIdxX])

FunctionCall: __syncthreads()
unsatisfiable
containBarrierFlag = 0
incrExpr = k++
------------- Already normalized 
rangeExpr = ((!2^k0 >= 0) && (!2^k0 <= (16 - 1))); substExpr = 

Binary OP: temp_c +=(((localA[localIdxY])[k]) *((localB[k])[localIdxX]))
Found loop carrying expression, try refinement!
refined exp: temp_c2 == (temp_c1 + ((!2^k0 - 0) * (localA1[localIdxY1][!2^k0] * localB1[!2^k0][localIdxX1])))

FunctionCall: __syncthreads()

Binary OP: vresult[(globalIdxY * 256) + globalIdxX] = temp_c

Reaching the end of the kernel
satisfiable
(= bid.x 0b0000000000)
(= bdim.x 0b0000010000)
(= t1.x 0b0000000000)
(= bid.y 0b0000001001)
(= bdim.y 0b0000010000)
(= t1.y 0b0000000100)
(= !1^i0 0b0000000000)
(= t2.x 0b0000000000)
(= t2.y 0b0000000000)
(= localIdxY1@t1 0b0000000100)
(= !2^k0@t1 0b0000001111)
(= localIdxX1@t1 0b0000000000)
(= temp_c1@t1 0b0000000000)
(= localIdxY1@t2 0b0000000000)
(= !2^k0@t2 0b0000001111)
(= localIdxX1@t2 0b0000000000)
(= temp_c1@t2 0b0000000000)
(= globalIdxY1@t1 0b0010010100)
(= globalIdxX1@t1 0b0000000000)
(= globalIdxY1@t2 0b0010010000)
(= globalIdxX1@t2 0b0000000000)
(= gdim.x 0b0000010000)
(= !1^i1 0b0000000000)
(= temp_c2@t1 0b0000000000)
(= temp_c2@t2 0b0000000000)
(= (localA1 0b0000000100 0b0000001111) 0b0000000000)
(= (localB1 0b0000001111 0b0000000000) 0b0000011111)
(= (localA1 0b0000000000 0b0000001111) 0b0000000000)

!!!!!!! Found conflict: 
Found Races
solving time = 0.002134s
