WARNING: rewriting function call to 'tex1Dfetch' into 0
WARNING: rewriting function call to 'tex1Dfetch' into 0
WARNING: rewriting function call to 'tex1Dfetch' into 0
WARNING: rewriting function call to 'tex1Dfetch' into 0
WARNING: rewriting function call to 'tex1Dfetch' into 0
WARNING: rewriting function call to 'tex1Dfetch' into 0
WARNING: rewriting function call to 'tex1Dfetch' into 0
WARNING: rewriting function call to 'tex1Dfetch' into 0
WARNING: rewriting function call to 'tex1Dfetch' into 0
WARNING: rewriting function call to 'tex1Dfetch' into 0
WARNING: rewriting function call to 'tex1Dfetch' into 0
WARNING: rewriting function call to 'tex1Dfetch' into 0
WARNING: rewriting function call to 'tex1Dfetch' into 0
WARNING: rewriting function call to 'tex1Dfetch' into 0
WARNING: rewriting function call to 'tex1Dfetch' into 0
Program is data-race free!
