WARNING: rewriting function call to 'getSampleCount' into 0
WARNING: rewriting function call to 'getSampleCount' into 0
WARNING: rewriting function call to 'binarySearchExclusive' into 0
WARNING: rewriting function call to 'binarySearchInclusive' into 0
WARNING: operator '&' unsupported; converting to '+'. Use bit-vector integers instead
WARNING: operator '&' unsupported; converting to '+'. Use bit-vector integers instead
WARNING: operator '&' unsupported; converting to '+'. Use bit-vector integers instead
WARNING: operator '&' unsupported; converting to '+'. Use bit-vector integers instead
WARNING: operator '&' unsupported; converting to '+'. Use bit-vector integers instead
WARNING: operator '&' unsupported; converting to '+'. Use bit-vector integers instead
WARNING: operator '&' unsupported; converting to '+'. Use bit-vector integers instead
WARNING: operator '&' unsupported; converting to '+'. Use bit-vector integers instead
WARNING: operator '&' unsupported; converting to '+'. Use bit-vector integers instead
WARNING: operator '&' unsupported; converting to '+'. Use bit-vector integers instead
WARNING: operator '&' unsupported; converting to '+'. Use bit-vector integers instead
WARNING: operator '&' unsupported; converting to '+'. Use bit-vector integers instead
WARNING: operator '&' unsupported; converting to '+'. Use bit-vector integers instead
WARNING: operator '&' unsupported; converting to '+'. Use bit-vector integers instead
WARNING: operator '&' unsupported; converting to '+'. Use bit-vector integers instead
WARNING: operator '&' unsupported; converting to '+'. Use bit-vector integers instead
WARNING: operator '&' unsupported; converting to '+'. Use bit-vector integers instead
WARNING: operator '&' unsupported; converting to '+'. Use bit-vector integers instead
WARNING: operator '&' unsupported; converting to '+'. Use bit-vector integers instead
WARNING: operator '&' unsupported; converting to '+'. Use bit-vector integers instead
WARNING: operator '&' unsupported; converting to '+'. Use bit-vector integers instead
WARNING: operator '&' unsupported; converting to '+'. Use bit-vector integers instead
WARNING: operator '&' unsupported; converting to '+'. Use bit-vector integers instead
WARNING: operator '&' unsupported; converting to '+'. Use bit-vector integers instead
WARNING: operator '&' unsupported; converting to '+'. Use bit-vector integers instead
WARNING: operator '&' unsupported; converting to '+'. Use bit-vector integers instead
WARNING: operator '&' unsupported; converting to '+'. Use bit-vector integers instead
WARNING: operator '&' unsupported; converting to '+'. Use bit-vector integers instead
WARNING: operator '&' unsupported; converting to '+'. Use bit-vector integers instead
WARNING: operator '&' unsupported; converting to '+'. Use bit-vector integers instead
WARNING: operator '&' unsupported; converting to '+'. Use bit-vector integers instead
WARNING: operator '&' unsupported; converting to '+'. Use bit-vector integers instead
Program is data-race free!
