"/artifact/datasets/gpuverify-cav14/pug/CUDA50/0_Simple/simpleMultiGPU/simpleMultiGPU.c", line 84: warning: 
          function "kernel" was declared but never referenced
  __global__ void kernel (float* d_Result, float* d_Input, int N) {
                  ^

>>>> start analysis ... 


-------------------------------------------------------
Invalid OVERFLOW_PROTECTION flag in config.txt!
Setting OVERFLOW_PROTECTION flag to on
-------------------------------------------------------

-------------------------------------------------------
Invalid NBITS value in config.txt!
Setting NBITS value to 10
-------------------------------------------------------

-------------------------------------------------------
Invalid USE_INCRSMT flag in config.txt!
Setting USE_INCRSMT flag to false
-------------------------------------------------------


-------------------------------------------------------
Invalid USE_LOOP_REFINEMENT flag in config.txt!
Setting USE_LOOP_REFINEMENT flag to true
-------------------------------------------------------


-------------------------------------------------------
Invalid SLICE_ARRAYS flag in config.txt!
Setting SLICE_ARRAYS flag to true
-------------------------------------------------------


-------------------------------------------------------
Invalid USE_ASSUMES flag in config.txt!
Setting USE_ASSUMES flag to true
-------------------------------------------------------


-------------------------------------------------------
Invalid CHK_BANK_CONFLICTS option in config.txt!
Setting CHK_BANK_CONFLICTS option to false
-------------------------------------------------------

Debug level (verbosity) set to 0


Processing function: kernel

FunctionCall: assume(((blockDim.x) ==(256)))
Assuming bdim.x == 256

FunctionCall: assume(((gridDim.x) ==(32)))
Assuming gdim.x == 32
containBarrierFlag = 0
incrExpr = pos += threadN
rhs = threadNSgVarRefExp
------------- Linear incrExpr
var = !1^pos0; lb = tid1; ub = (N0 - 1); stride = threadN1
rangeExpr = ((tid1 <= (N0 - 1)) && ((!1^pos0 >= 0) && (!1^pos0 <= (((N0 - 1) - tid1) / threadN1)))); substExpr = !1^pos1 == ((!1^pos0 * threadN1) + tid1)

Binary OP: sum +=(d_Input[pos])
Found loop carrying expression, try refinement!

Binary OP: d_Result[tid] = sum

Reaching the end of the kernel
Equation: (= (bv-sub (bv-sub N0 0b0000000001) tid1@t1)
   (bv-add (bv-mul threadN1@t1 v#1) v#0))
Equation: (= (bv-sub (bv-sub N0 0b0000000001) tid1@t2)
   (bv-add (bv-mul threadN1@t2 v#3) v#2))
unsatisfiable


#####################################################################

No races or synchronization errors were found.

Max instance solving time = 0.000709s
Total solving time = 0.000709s

#####################################################################

