Configuration: concurrency bug checking level is: 2
KLEE: output directory = "klee-out-0"
KLEE: WARNING: undefined reference to function: __clear_device
KLEE: WARNING: undefined reference to function: __clear_host
KLEE: WARNING: undefined reference to function: __set_CUDAConfig
KLEE: WARNING: undefined reference to function: __set_device
KLEE: WARNING: undefined reference to function: __set_host
KLEE: WARNING: undefined reference to variable: threadIdx

[GKLEE]: The configuration, Grid: <1, 1, 1>, Block: <64, 1, 1>

[GKLEE]: Start executing a GPU kernel 

[GKLEE]: 'True' path flow feasible !
[GKLEE]: 'Else' path flow feasible !
[GKLEE]: create new parametric flow: 2
[GKLEE]: 'True' path flow infeasible !
[GKLEE]: 'Else' path flow feasible !
[GKLEE]: keep using the current flow: 0
[GKLEE]: 'True' path flow infeasible !
[GKLEE]: 'Else' path flow feasible !
[GKLEE]: keep using the current flow: 0
[GKLEE]: 'True' path flow infeasible !
[GKLEE]: 'Else' path flow feasible !
[GKLEE]: keep using the current flow: 0
[GKLEE]: 'True' path flow infeasible !
[GKLEE]: 'Else' path flow feasible !
[GKLEE]: keep using the current flow: 0
[GKLEE]: 'True' path flow infeasible !
[GKLEE]: 'Else' path flow feasible !
[GKLEE]: keep using the current flow: 0
[GKLEE]: 'True' path flow infeasible !
[GKLEE]: 'Else' path flow feasible !
[GKLEE]: keep using the current flow: 0
[GKLEE]: 'True' path flow infeasible !
[GKLEE]: 'Else' path flow feasible !
[GKLEE]: keep using the current flow: 0
[GKLEE]: 'True' path flow infeasible !
[GKLEE]: 'Else' path flow feasible !
[GKLEE]: keep using the current flow: 0
[GKLEE]: 'True' path flow infeasible !
[GKLEE]: 'Else' path flow feasible !
[GKLEE]: keep using the current flow: 0
[GKLEE]: 'True' path flow infeasible !
[GKLEE]: 'Else' path flow feasible !
[GKLEE]: keep using the current flow: 0
[GKLEE]: 'True' path flow infeasible !
[GKLEE]: 'Else' path flow feasible !
[GKLEE]: keep using the current flow: 0
[GKLEE]: 'True' path flow infeasible !
[GKLEE]: 'Else' path flow feasible !
[GKLEE]: keep using the current flow: 0
[GKLEE]: 'True' path flow infeasible !
[GKLEE]: 'Else' path flow feasible !
[GKLEE]: keep using the current flow: 0
[GKLEE]: 'True' path flow infeasible !
[GKLEE]: 'Else' path flow feasible !
[GKLEE]: keep using the current flow: 0
[GKLEE]: 'True' path flow infeasible !
[GKLEE]: 'Else' path flow feasible !
[GKLEE]: keep using the current flow: 0
[GKLEE]: 'True' path flow infeasible !
[GKLEE]: 'Else' path flow feasible !
[GKLEE]: keep using the current flow: 0
[GKLEE]: 'True' path flow infeasible !
[GKLEE]: 'Else' path flow feasible !
[GKLEE]: keep using the current flow: 0
[GKLEE]: 'True' path flow infeasible !
[GKLEE]: 'Else' path flow feasible !
[GKLEE]: keep using the current flow: 0
[GKLEE]: 'True' path flow infeasible !
[GKLEE]: 'Else' path flow feasible !
[GKLEE]: keep using the current flow: 0
[GKLEE]: 'True' path flow infeasible !
[GKLEE]: 'Else' path flow feasible !
[GKLEE]: keep using the current flow: 0
[GKLEE]: 'True' path flow infeasible !
[GKLEE]: 'Else' path flow feasible !
[GKLEE]: keep using the current flow: 0
[GKLEE]: 'True' path flow infeasible !
[GKLEE]: 'Else' path flow feasible !
[GKLEE]: keep using the current flow: 0
[GKLEE]: 'True' path flow infeasible !
[GKLEE]: 'Else' path flow feasible !
[GKLEE]: keep using the current flow: 0
[GKLEE]: 'True' path flow infeasible !
[GKLEE]: 'Else' path flow feasible !
[GKLEE]: keep using the current flow: 0
Thread 0 reaches a barrier: moving to the next thread.
[GKLEE]: 'True' path flow feasible !
[GKLEE]: 'Else' path flow feasible !
[GKLEE]: create new parametric flow: 3
[GKLEE]: 'True' path flow infeasible !
[GKLEE]: 'Else' path flow feasible !
[GKLEE]: keep using the current flow: 2
[GKLEE]: 'True' path flow infeasible !
[GKLEE]: 'Else' path flow feasible !
[GKLEE]: keep using the current flow: 2
[GKLEE]: 'True' path flow infeasible !
[GKLEE]: 'Else' path flow feasible !
[GKLEE]: keep using the current flow: 2
[GKLEE]: 'True' path flow infeasible !
[GKLEE]: 'Else' path flow feasible !
[GKLEE]: keep using the current flow: 2
[GKLEE]: 'True' path flow infeasible !
[GKLEE]: 'Else' path flow feasible !
[GKLEE]: keep using the current flow: 2
[GKLEE]: 'True' path flow infeasible !
[GKLEE]: 'Else' path flow feasible !
[GKLEE]: keep using the current flow: 2
[GKLEE]: 'True' path flow infeasible !
[GKLEE]: 'Else' path flow feasible !
[GKLEE]: keep using the current flow: 2
[GKLEE]: 'True' path flow infeasible !
[GKLEE]: 'Else' path flow feasible !
[GKLEE]: keep using the current flow: 2
[GKLEE]: 'True' path flow infeasible !
[GKLEE]: 'Else' path flow feasible !
[GKLEE]: keep using the current flow: 2
[GKLEE]: 'True' path flow infeasible !
[GKLEE]: 'Else' path flow feasible !
[GKLEE]: keep using the current flow: 2
[GKLEE]: 'True' path flow infeasible !
[GKLEE]: 'Else' path flow feasible !
[GKLEE]: keep using the current flow: 2
[GKLEE]: 'True' path flow infeasible !
[GKLEE]: 'Else' path flow feasible !
[GKLEE]: keep using the current flow: 2
[GKLEE]: 'True' path flow infeasible !
[GKLEE]: 'Else' path flow feasible !
[GKLEE]: keep using the current flow: 2
[GKLEE]: 'True' path flow infeasible !
[GKLEE]: 'Else' path flow feasible !
[GKLEE]: keep using the current flow: 2
[GKLEE]: 'True' path flow infeasible !
[GKLEE]: 'Else' path flow feasible !
[GKLEE]: keep using the current flow: 2
[GKLEE]: 'True' path flow infeasible !
[GKLEE]: 'Else' path flow feasible !
[GKLEE]: keep using the current flow: 2
[GKLEE]: 'True' path flow infeasible !
[GKLEE]: 'Else' path flow feasible !
[GKLEE]: keep using the current flow: 2
[GKLEE]: 'True' path flow infeasible !
[GKLEE]: 'Else' path flow feasible !
[GKLEE]: keep using the current flow: 2
[GKLEE]: 'True' path flow infeasible !
[GKLEE]: 'Else' path flow feasible !
[GKLEE]: keep using the current flow: 2
[GKLEE]: 'True' path flow infeasible !
[GKLEE]: 'Else' path flow feasible !
[GKLEE]: keep using the current flow: 2
[GKLEE]: 'True' path flow infeasible !
[GKLEE]: 'Else' path flow feasible !
[GKLEE]: keep using the current flow: 2
[GKLEE]: 'True' path flow infeasible !
[GKLEE]: 'Else' path flow feasible !
[GKLEE]: keep using the current flow: 2
[GKLEE]: 'True' path flow infeasible !
[GKLEE]: 'Else' path flow feasible !
[GKLEE]: keep using the current flow: 2
Thread 2 reaches a barrier: moving to the next thread.
[GKLEE]: 'True' path flow feasible !
[GKLEE]: 'Else' path flow feasible !
[GKLEE]: create new parametric flow: 4
[GKLEE]: 'True' path flow infeasible !
[GKLEE]: 'Else' path flow feasible !
[GKLEE]: keep using the current flow: 3
[GKLEE]: 'True' path flow infeasible !
[GKLEE]: 'Else' path flow feasible !
[GKLEE]: keep using the current flow: 3
[GKLEE]: 'True' path flow infeasible !
[GKLEE]: 'Else' path flow feasible !
[GKLEE]: keep using the current flow: 3
[GKLEE]: 'True' path flow infeasible !
[GKLEE]: 'Else' path flow feasible !
[GKLEE]: keep using the current flow: 3
[GKLEE]: 'True' path flow infeasible !
[GKLEE]: 'Else' path flow feasible !
[GKLEE]: keep using the current flow: 3
[GKLEE]: 'True' path flow infeasible !
[GKLEE]: 'Else' path flow feasible !
[GKLEE]: keep using the current flow: 3
[GKLEE]: 'True' path flow infeasible !
[GKLEE]: 'Else' path flow feasible !
[GKLEE]: keep using the current flow: 3
[GKLEE]: 'True' path flow infeasible !
[GKLEE]: 'Else' path flow feasible !
[GKLEE]: keep using the current flow: 3
[GKLEE]: 'True' path flow infeasible !
[GKLEE]: 'Else' path flow feasible !
[GKLEE]: keep using the current flow: 3
[GKLEE]: 'True' path flow infeasible !
[GKLEE]: 'Else' path flow feasible !
[GKLEE]: keep using the current flow: 3
[GKLEE]: 'True' path flow infeasible !
[GKLEE]: 'Else' path flow feasible !
[GKLEE]: keep using the current flow: 3
[GKLEE]: 'True' path flow infeasible !
[GKLEE]: 'Else' path flow feasible !
[GKLEE]: keep using the current flow: 3
[GKLEE]: 'True' path flow infeasible !
[GKLEE]: 'Else' path flow feasible !
[GKLEE]: keep using the current flow: 3
[GKLEE]: 'True' path flow infeasible !
[GKLEE]: 'Else' path flow feasible !
[GKLEE]: keep using the current flow: 3
[GKLEE]: 'True' path flow infeasible !
[GKLEE]: 'Else' path flow feasible !
[GKLEE]: keep using the current flow: 3
[GKLEE]: 'True' path flow infeasible !
[GKLEE]: 'Else' path flow feasible !
[GKLEE]: keep using the current flow: 3
[GKLEE]: 'True' path flow infeasible !
[GKLEE]: 'Else' path flow feasible !
[GKLEE]: keep using the current flow: 3
[GKLEE]: 'True' path flow infeasible !
[GKLEE]: 'Else' path flow feasible !
[GKLEE]: keep using the current flow: 3
[GKLEE]: 'True' path flow infeasible !
[GKLEE]: 'Else' path flow feasible !
[GKLEE]: keep using the current flow: 3
[GKLEE]: 'True' path flow infeasible !
[GKLEE]: 'Else' path flow feasible !
[GKLEE]: keep using the current flow: 3
[GKLEE]: 'True' path flow infeasible !
[GKLEE]: 'Else' path flow feasible !
[GKLEE]: keep using the current flow: 3
[GKLEE]: 'True' path flow infeasible !
[GKLEE]: 'Else' path flow feasible !
[GKLEE]: keep using the current flow: 3
Thread 3 reaches a barrier: moving to the next thread.
[GKLEE]: 'True' path flow feasible !
[GKLEE]: 'Else' path flow feasible !
[GKLEE]: create new parametric flow: 5
[GKLEE]: 'True' path flow infeasible !
[GKLEE]: 'Else' path flow feasible !
[GKLEE]: keep using the current flow: 4
[GKLEE]: 'True' path flow infeasible !
[GKLEE]: 'Else' path flow feasible !
[GKLEE]: keep using the current flow: 4
[GKLEE]: 'True' path flow infeasible !
[GKLEE]: 'Else' path flow feasible !
[GKLEE]: keep using the current flow: 4
[GKLEE]: 'True' path flow infeasible !
[GKLEE]: 'Else' path flow feasible !
[GKLEE]: keep using the current flow: 4
[GKLEE]: 'True' path flow infeasible !
[GKLEE]: 'Else' path flow feasible !
[GKLEE]: keep using the current flow: 4
[GKLEE]: 'True' path flow infeasible !
[GKLEE]: 'Else' path flow feasible !
[GKLEE]: keep using the current flow: 4
[GKLEE]: 'True' path flow infeasible !
[GKLEE]: 'Else' path flow feasible !
[GKLEE]: keep using the current flow: 4
[GKLEE]: 'True' path flow infeasible !
[GKLEE]: 'Else' path flow feasible !
[GKLEE]: keep using the current flow: 4
[GKLEE]: 'True' path flow infeasible !
[GKLEE]: 'Else' path flow feasible !
[GKLEE]: keep using the current flow: 4
[GKLEE]: 'True' path flow infeasible !
[GKLEE]: 'Else' path flow feasible !
[GKLEE]: keep using the current flow: 4
[GKLEE]: 'True' path flow infeasible !
[GKLEE]: 'Else' path flow feasible !
[GKLEE]: keep using the current flow: 4
[GKLEE]: 'True' path flow infeasible !
[GKLEE]: 'Else' path flow feasible !
[GKLEE]: keep using the current flow: 4
[GKLEE]: 'True' path flow infeasible !
[GKLEE]: 'Else' path flow feasible !
[GKLEE]: keep using the current flow: 4
[GKLEE]: 'True' path flow infeasible !
[GKLEE]: 'Else' path flow feasible !
[GKLEE]: keep using the current flow: 4
[GKLEE]: 'True' path flow infeasible !
[GKLEE]: 'Else' path flow feasible !
[GKLEE]: keep using the current flow: 4
[GKLEE]: 'True' path flow infeasible !
[GKLEE]: 'Else' path flow feasible !
[GKLEE]: keep using the current flow: 4
[GKLEE]: 'True' path flow infeasible !
[GKLEE]: 'Else' path flow feasible !
[GKLEE]: keep using the current flow: 4
[GKLEE]: 'True' path flow infeasible !
[GKLEE]: 'Else' path flow feasible !
[GKLEE]: keep using the current flow: 4
[GKLEE]: 'True' path flow infeasible !
[GKLEE]: 'Else' path flow feasible !
[GKLEE]: keep using the current flow: 4
[GKLEE]: 'True' path flow infeasible !
[GKLEE]: 'Else' path flow feasible !
[GKLEE]: keep using the current flow: 4
[GKLEE]: 'True' path flow infeasible !
[GKLEE]: 'Else' path flow feasible !
[GKLEE]: keep using the current flow: 4
Thread 4 reaches a barrier: moving to the next thread.
[GKLEE]: 'True' path flow feasible !
[GKLEE]: 'Else' path flow feasible !
[GKLEE]: create new parametric flow: 6
[GKLEE]: 'True' path flow infeasible !
[GKLEE]: 'Else' path flow feasible !
[GKLEE]: keep using the current flow: 5
[GKLEE]: 'True' path flow infeasible !
[GKLEE]: 'Else' path flow feasible !
[GKLEE]: keep using the current flow: 5
[GKLEE]: 'True' path flow infeasible !
[GKLEE]: 'Else' path flow feasible !
[GKLEE]: keep using the current flow: 5
[GKLEE]: 'True' path flow infeasible !
[GKLEE]: 'Else' path flow feasible !
[GKLEE]: keep using the current flow: 5
[GKLEE]: 'True' path flow infeasible !
[GKLEE]: 'Else' path flow feasible !
[GKLEE]: keep using the current flow: 5
[GKLEE]: 'True' path flow infeasible !
[GKLEE]: 'Else' path flow feasible !
[GKLEE]: keep using the current flow: 5
[GKLEE]: 'True' path flow infeasible !
[GKLEE]: 'Else' path flow feasible !
[GKLEE]: keep using the current flow: 5
[GKLEE]: 'True' path flow infeasible !
[GKLEE]: 'Else' path flow feasible !
[GKLEE]: keep using the current flow: 5
[GKLEE]: 'True' path flow infeasible !
[GKLEE]: 'Else' path flow feasible !
[GKLEE]: keep using the current flow: 5
[GKLEE]: 'True' path flow infeasible !
[GKLEE]: 'Else' path flow feasible !
[GKLEE]: keep using the current flow: 5
[GKLEE]: 'True' path flow infeasible !
[GKLEE]: 'Else' path flow feasible !
[GKLEE]: keep using the current flow: 5
[GKLEE]: 'True' path flow infeasible !
[GKLEE]: 'Else' path flow feasible !
[GKLEE]: keep using the current flow: 5
[GKLEE]: 'True' path flow infeasible !
[GKLEE]: 'Else' path flow feasible !
[GKLEE]: keep using the current flow: 5
[GKLEE]: 'True' path flow infeasible !
[GKLEE]: 'Else' path flow feasible !
[GKLEE]: keep using the current flow: 5
[GKLEE]: 'True' path flow infeasible !
[GKLEE]: 'Else' path flow feasible !
[GKLEE]: keep using the current flow: 5
[GKLEE]: 'True' path flow infeasible !
[GKLEE]: 'Else' path flow feasible !
[GKLEE]: keep using the current flow: 5
[GKLEE]: 'True' path flow infeasible !
[GKLEE]: 'Else' path flow feasible !
[GKLEE]: keep using the current flow: 5
[GKLEE]: 'True' path flow infeasible !
[GKLEE]: 'Else' path flow feasible !
[GKLEE]: keep using the current flow: 5
[GKLEE]: 'True' path flow infeasible !
[GKLEE]: 'Else' path flow feasible !
[GKLEE]: keep using the current flow: 5
[GKLEE]: 'True' path flow infeasible !
[GKLEE]: 'Else' path flow feasible !
[GKLEE]: keep using the current flow: 5
Thread 5 reaches a barrier: moving to the next thread.
[GKLEE]: 'True' path flow feasible !
[GKLEE]: 'Else' path flow feasible !
[GKLEE]: create new parametric flow: 7
[GKLEE]: 'True' path flow infeasible !
[GKLEE]: 'Else' path flow feasible !
[GKLEE]: keep using the current flow: 6
[GKLEE]: 'True' path flow infeasible !
[GKLEE]: 'Else' path flow feasible !
[GKLEE]: keep using the current flow: 6
[GKLEE]: 'True' path flow infeasible !
[GKLEE]: 'Else' path flow feasible !
[GKLEE]: keep using the current flow: 6
[GKLEE]: 'True' path flow infeasible !
[GKLEE]: 'Else' path flow feasible !
[GKLEE]: keep using the current flow: 6
[GKLEE]: 'True' path flow infeasible !
[GKLEE]: 'Else' path flow feasible !
[GKLEE]: keep using the current flow: 6
[GKLEE]: 'True' path flow infeasible !
[GKLEE]: 'Else' path flow feasible !
[GKLEE]: keep using the current flow: 6
[GKLEE]: 'True' path flow infeasible !
[GKLEE]: 'Else' path flow feasible !
[GKLEE]: keep using the current flow: 6
[GKLEE]: 'True' path flow infeasible !
[GKLEE]: 'Else' path flow feasible !
[GKLEE]: keep using the current flow: 6
[GKLEE]: 'True' path flow infeasible !
[GKLEE]: 'Else' path flow feasible !
[GKLEE]: keep using the current flow: 6
[GKLEE]: 'True' path flow infeasible !
[GKLEE]: 'Else' path flow feasible !
[GKLEE]: keep using the current flow: 6
[GKLEE]: 'True' path flow infeasible !
[GKLEE]: 'Else' path flow feasible !
[GKLEE]: keep using the current flow: 6
[GKLEE]: 'True' path flow infeasible !
[GKLEE]: 'Else' path flow feasible !
[GKLEE]: keep using the current flow: 6
[GKLEE]: 'True' path flow infeasible !
[GKLEE]: 'Else' path flow feasible !
[GKLEE]: keep using the current flow: 6
[GKLEE]: 'True' path flow infeasible !
[GKLEE]: 'Else' path flow feasible !
[GKLEE]: keep using the current flow: 6
[GKLEE]: 'True' path flow infeasible !
[GKLEE]: 'Else' path flow feasible !
[GKLEE]: keep using the current flow: 6
[GKLEE]: 'True' path flow infeasible !
[GKLEE]: 'Else' path flow feasible !
[GKLEE]: keep using the current flow: 6
[GKLEE]: 'True' path flow infeasible !
[GKLEE]: 'Else' path flow feasible !
[GKLEE]: keep using the current flow: 6
[GKLEE]: 'True' path flow infeasible !
[GKLEE]: 'Else' path flow feasible !
[GKLEE]: keep using the current flow: 6
[GKLEE]: 'True' path flow infeasible !
[GKLEE]: 'Else' path flow feasible !
[GKLEE]: keep using the current flow: 6
Thread 6 reaches a barrier: moving to the next thread.
[GKLEE]: 'True' path flow feasible !
[GKLEE]: 'Else' path flow feasible !
[GKLEE]: create new parametric flow: 8
[GKLEE]: 'True' path flow infeasible !
[GKLEE]: 'Else' path flow feasible !
[GKLEE]: keep using the current flow: 7
[GKLEE]: 'True' path flow infeasible !
[GKLEE]: 'Else' path flow feasible !
[GKLEE]: keep using the current flow: 7
[GKLEE]: 'True' path flow infeasible !
[GKLEE]: 'Else' path flow feasible !
[GKLEE]: keep using the current flow: 7
[GKLEE]: 'True' path flow infeasible !
[GKLEE]: 'Else' path flow feasible !
[GKLEE]: keep using the current flow: 7
[GKLEE]: 'True' path flow infeasible !
[GKLEE]: 'Else' path flow feasible !
[GKLEE]: keep using the current flow: 7
[GKLEE]: 'True' path flow infeasible !
[GKLEE]: 'Else' path flow feasible !
[GKLEE]: keep using the current flow: 7
[GKLEE]: 'True' path flow infeasible !
[GKLEE]: 'Else' path flow feasible !
[GKLEE]: keep using the current flow: 7
[GKLEE]: 'True' path flow infeasible !
[GKLEE]: 'Else' path flow feasible !
[GKLEE]: keep using the current flow: 7
[GKLEE]: 'True' path flow infeasible !
[GKLEE]: 'Else' path flow feasible !
[GKLEE]: keep using the current flow: 7
[GKLEE]: 'True' path flow infeasible !
[GKLEE]: 'Else' path flow feasible !
[GKLEE]: keep using the current flow: 7
[GKLEE]: 'True' path flow infeasible !
[GKLEE]: 'Else' path flow feasible !
[GKLEE]: keep using the current flow: 7
[GKLEE]: 'True' path flow infeasible !
[GKLEE]: 'Else' path flow feasible !
[GKLEE]: keep using the current flow: 7
[GKLEE]: 'True' path flow infeasible !
[GKLEE]: 'Else' path flow feasible !
[GKLEE]: keep using the current flow: 7
[GKLEE]: 'True' path flow infeasible !
[GKLEE]: 'Else' path flow feasible !
[GKLEE]: keep using the current flow: 7
[GKLEE]: 'True' path flow infeasible !
[GKLEE]: 'Else' path flow feasible !
[GKLEE]: keep using the current flow: 7
[GKLEE]: 'True' path flow infeasible !
[GKLEE]: 'Else' path flow feasible !
[GKLEE]: keep using the current flow: 7
[GKLEE]: 'True' path flow infeasible !
[GKLEE]: 'Else' path flow feasible !
[GKLEE]: keep using the current flow: 7
[GKLEE]: 'True' path flow infeasible !
[GKLEE]: 'Else' path flow feasible !
[GKLEE]: keep using the current flow: 7
Thread 7 reaches a barrier: moving to the next thread.
[GKLEE]: 'True' path flow feasible !
[GKLEE]: 'Else' path flow feasible !
[GKLEE]: create new parametric flow: 9
[GKLEE]: 'True' path flow infeasible !
[GKLEE]: 'Else' path flow feasible !
[GKLEE]: keep using the current flow: 8
[GKLEE]: 'True' path flow infeasible !
[GKLEE]: 'Else' path flow feasible !
[GKLEE]: keep using the current flow: 8
[GKLEE]: 'True' path flow infeasible !
[GKLEE]: 'Else' path flow feasible !
[GKLEE]: keep using the current flow: 8
[GKLEE]: 'True' path flow infeasible !
[GKLEE]: 'Else' path flow feasible !
[GKLEE]: keep using the current flow: 8
[GKLEE]: 'True' path flow infeasible !
[GKLEE]: 'Else' path flow feasible !
[GKLEE]: keep using the current flow: 8
[GKLEE]: 'True' path flow infeasible !
[GKLEE]: 'Else' path flow feasible !
[GKLEE]: keep using the current flow: 8
[GKLEE]: 'True' path flow infeasible !
[GKLEE]: 'Else' path flow feasible !
[GKLEE]: keep using the current flow: 8
[GKLEE]: 'True' path flow infeasible !
[GKLEE]: 'Else' path flow feasible !
[GKLEE]: keep using the current flow: 8
[GKLEE]: 'True' path flow infeasible !
[GKLEE]: 'Else' path flow feasible !
[GKLEE]: keep using the current flow: 8
[GKLEE]: 'True' path flow infeasible !
[GKLEE]: 'Else' path flow feasible !
[GKLEE]: keep using the current flow: 8
[GKLEE]: 'True' path flow infeasible !
[GKLEE]: 'Else' path flow feasible !
[GKLEE]: keep using the current flow: 8
[GKLEE]: 'True' path flow infeasible !
[GKLEE]: 'Else' path flow feasible !
[GKLEE]: keep using the current flow: 8
[GKLEE]: 'True' path flow infeasible !
[GKLEE]: 'Else' path flow feasible !
[GKLEE]: keep using the current flow: 8
[GKLEE]: 'True' path flow infeasible !
[GKLEE]: 'Else' path flow feasible !
[GKLEE]: keep using the current flow: 8
[GKLEE]: 'True' path flow infeasible !
[GKLEE]: 'Else' path flow feasible !
[GKLEE]: keep using the current flow: 8
[GKLEE]: 'True' path flow infeasible !
[GKLEE]: 'Else' path flow feasible !
[GKLEE]: keep using the current flow: 8
[GKLEE]: 'True' path flow infeasible !
[GKLEE]: 'Else' path flow feasible !
[GKLEE]: keep using the current flow: 8
Thread 8 reaches a barrier: moving to the next thread.
[GKLEE]: 'True' path flow feasible !
[GKLEE]: 'Else' path flow feasible !
[GKLEE]: create new parametric flow: 10
[GKLEE]: 'True' path flow infeasible !
[GKLEE]: 'Else' path flow feasible !
[GKLEE]: keep using the current flow: 9
[GKLEE]: 'True' path flow infeasible !
[GKLEE]: 'Else' path flow feasible !
[GKLEE]: keep using the current flow: 9
[GKLEE]: 'True' path flow infeasible !
[GKLEE]: 'Else' path flow feasible !
[GKLEE]: keep using the current flow: 9
[GKLEE]: 'True' path flow infeasible !
[GKLEE]: 'Else' path flow feasible !
[GKLEE]: keep using the current flow: 9
[GKLEE]: 'True' path flow infeasible !
[GKLEE]: 'Else' path flow feasible !
[GKLEE]: keep using the current flow: 9
[GKLEE]: 'True' path flow infeasible !
[GKLEE]: 'Else' path flow feasible !
[GKLEE]: keep using the current flow: 9
[GKLEE]: 'True' path flow infeasible !
[GKLEE]: 'Else' path flow feasible !
[GKLEE]: keep using the current flow: 9
[GKLEE]: 'True' path flow infeasible !
[GKLEE]: 'Else' path flow feasible !
[GKLEE]: keep using the current flow: 9
[GKLEE]: 'True' path flow infeasible !
[GKLEE]: 'Else' path flow feasible !
[GKLEE]: keep using the current flow: 9
[GKLEE]: 'True' path flow infeasible !
[GKLEE]: 'Else' path flow feasible !
[GKLEE]: keep using the current flow: 9
[GKLEE]: 'True' path flow infeasible !
[GKLEE]: 'Else' path flow feasible !
[GKLEE]: keep using the current flow: 9
[GKLEE]: 'True' path flow infeasible !
[GKLEE]: 'Else' path flow feasible !
[GKLEE]: keep using the current flow: 9
[GKLEE]: 'True' path flow infeasible !
[GKLEE]: 'Else' path flow feasible !
[GKLEE]: keep using the current flow: 9
[GKLEE]: 'True' path flow infeasible !
[GKLEE]: 'Else' path flow feasible !
[GKLEE]: keep using the current flow: 9
[GKLEE]: 'True' path flow infeasible !
[GKLEE]: 'Else' path flow feasible !
[GKLEE]: keep using the current flow: 9
[GKLEE]: 'True' path flow infeasible !
[GKLEE]: 'Else' path flow feasible !
[GKLEE]: keep using the current flow: 9
Thread 9 reaches a barrier: moving to the next thread.
[GKLEE]: 'True' path flow feasible !
[GKLEE]: 'Else' path flow feasible !
[GKLEE]: create new parametric flow: 11
[GKLEE]: 'True' path flow infeasible !
[GKLEE]: 'Else' path flow feasible !
[GKLEE]: keep using the current flow: 10
[GKLEE]: 'True' path flow infeasible !
[GKLEE]: 'Else' path flow feasible !
[GKLEE]: keep using the current flow: 10
[GKLEE]: 'True' path flow infeasible !
[GKLEE]: 'Else' path flow feasible !
[GKLEE]: keep using the current flow: 10
[GKLEE]: 'True' path flow infeasible !
[GKLEE]: 'Else' path flow feasible !
[GKLEE]: keep using the current flow: 10
[GKLEE]: 'True' path flow infeasible !
[GKLEE]: 'Else' path flow feasible !
[GKLEE]: keep using the current flow: 10
[GKLEE]: 'True' path flow infeasible !
[GKLEE]: 'Else' path flow feasible !
[GKLEE]: keep using the current flow: 10
[GKLEE]: 'True' path flow infeasible !
[GKLEE]: 'Else' path flow feasible !
[GKLEE]: keep using the current flow: 10
[GKLEE]: 'True' path flow infeasible !
[GKLEE]: 'Else' path flow feasible !
[GKLEE]: keep using the current flow: 10
[GKLEE]: 'True' path flow infeasible !
[GKLEE]: 'Else' path flow feasible !
[GKLEE]: keep using the current flow: 10
[GKLEE]: 'True' path flow infeasible !
[GKLEE]: 'Else' path flow feasible !
[GKLEE]: keep using the current flow: 10
[GKLEE]: 'True' path flow infeasible !
[GKLEE]: 'Else' path flow feasible !
[GKLEE]: keep using the current flow: 10
[GKLEE]: 'True' path flow infeasible !
[GKLEE]: 'Else' path flow feasible !
[GKLEE]: keep using the current flow: 10
[GKLEE]: 'True' path flow infeasible !
[GKLEE]: 'Else' path flow feasible !
[GKLEE]: keep using the current flow: 10
[GKLEE]: 'True' path flow infeasible !
[GKLEE]: 'Else' path flow feasible !
[GKLEE]: keep using the current flow: 10
[GKLEE]: 'True' path flow infeasible !
[GKLEE]: 'Else' path flow feasible !
[GKLEE]: keep using the current flow: 10
Thread 10 reaches a barrier: moving to the next thread.
[GKLEE]: 'True' path flow feasible !
[GKLEE]: 'Else' path flow feasible !
[GKLEE]: create new parametric flow: 12
[GKLEE]: 'True' path flow infeasible !
[GKLEE]: 'Else' path flow feasible !
[GKLEE]: keep using the current flow: 11
[GKLEE]: 'True' path flow infeasible !
[GKLEE]: 'Else' path flow feasible !
[GKLEE]: keep using the current flow: 11
[GKLEE]: 'True' path flow infeasible !
[GKLEE]: 'Else' path flow feasible !
[GKLEE]: keep using the current flow: 11
[GKLEE]: 'True' path flow infeasible !
[GKLEE]: 'Else' path flow feasible !
[GKLEE]: keep using the current flow: 11
[GKLEE]: 'True' path flow infeasible !
[GKLEE]: 'Else' path flow feasible !
[GKLEE]: keep using the current flow: 11
[GKLEE]: 'True' path flow infeasible !
[GKLEE]: 'Else' path flow feasible !
[GKLEE]: keep using the current flow: 11
[GKLEE]: 'True' path flow infeasible !
[GKLEE]: 'Else' path flow feasible !
[GKLEE]: keep using the current flow: 11
[GKLEE]: 'True' path flow infeasible !
[GKLEE]: 'Else' path flow feasible !
[GKLEE]: keep using the current flow: 11
[GKLEE]: 'True' path flow infeasible !
[GKLEE]: 'Else' path flow feasible !
[GKLEE]: keep using the current flow: 11
[GKLEE]: 'True' path flow infeasible !
[GKLEE]: 'Else' path flow feasible !
[GKLEE]: keep using the current flow: 11
[GKLEE]: 'True' path flow infeasible !
[GKLEE]: 'Else' path flow feasible !
[GKLEE]: keep using the current flow: 11
[GKLEE]: 'True' path flow infeasible !
[GKLEE]: 'Else' path flow feasible !
[GKLEE]: keep using the current flow: 11
[GKLEE]: 'True' path flow infeasible !
[GKLEE]: 'Else' path flow feasible !
[GKLEE]: keep using the current flow: 11
[GKLEE]: 'True' path flow infeasible !
[GKLEE]: 'Else' path flow feasible !
[GKLEE]: keep using the current flow: 11
Thread 11 reaches a barrier: moving to the next thread.
[GKLEE]: 'True' path flow feasible !
[GKLEE]: 'Else' path flow feasible !
[GKLEE]: create new parametric flow: 13
[GKLEE]: 'True' path flow infeasible !
[GKLEE]: 'Else' path flow feasible !
[GKLEE]: keep using the current flow: 12
[GKLEE]: 'True' path flow infeasible !
[GKLEE]: 'Else' path flow feasible !
[GKLEE]: keep using the current flow: 12
[GKLEE]: 'True' path flow infeasible !
[GKLEE]: 'Else' path flow feasible !
[GKLEE]: keep using the current flow: 12
[GKLEE]: 'True' path flow infeasible !
[GKLEE]: 'Else' path flow feasible !
[GKLEE]: keep using the current flow: 12
[GKLEE]: 'True' path flow infeasible !
[GKLEE]: 'Else' path flow feasible !
[GKLEE]: keep using the current flow: 12
[GKLEE]: 'True' path flow infeasible !
[GKLEE]: 'Else' path flow feasible !
[GKLEE]: keep using the current flow: 12
[GKLEE]: 'True' path flow infeasible !
[GKLEE]: 'Else' path flow feasible !
[GKLEE]: keep using the current flow: 12
[GKLEE]: 'True' path flow infeasible !
[GKLEE]: 'Else' path flow feasible !
[GKLEE]: keep using the current flow: 12
[GKLEE]: 'True' path flow infeasible !
[GKLEE]: 'Else' path flow feasible !
[GKLEE]: keep using the current flow: 12
[GKLEE]: 'True' path flow infeasible !
[GKLEE]: 'Else' path flow feasible !
[GKLEE]: keep using the current flow: 12
[GKLEE]: 'True' path flow infeasible !
[GKLEE]: 'Else' path flow feasible !
[GKLEE]: keep using the current flow: 12
[GKLEE]: 'True' path flow infeasible !
[GKLEE]: 'Else' path flow feasible !
[GKLEE]: keep using the current flow: 12
[GKLEE]: 'True' path flow infeasible !
[GKLEE]: 'Else' path flow feasible !
[GKLEE]: keep using the current flow: 12
Thread 12 reaches a barrier: moving to the next thread.
[GKLEE]: 'True' path flow feasible !
[GKLEE]: 'Else' path flow feasible !
[GKLEE]: create new parametric flow: 14
[GKLEE]: 'True' path flow infeasible !
[GKLEE]: 'Else' path flow feasible !
[GKLEE]: keep using the current flow: 13
[GKLEE]: 'True' path flow infeasible !
[GKLEE]: 'Else' path flow feasible !
[GKLEE]: keep using the current flow: 13
[GKLEE]: 'True' path flow infeasible !
[GKLEE]: 'Else' path flow feasible !
[GKLEE]: keep using the current flow: 13
[GKLEE]: 'True' path flow infeasible !
[GKLEE]: 'Else' path flow feasible !
[GKLEE]: keep using the current flow: 13
[GKLEE]: 'True' path flow infeasible !
[GKLEE]: 'Else' path flow feasible !
[GKLEE]: keep using the current flow: 13
[GKLEE]: 'True' path flow infeasible !
[GKLEE]: 'Else' path flow feasible !
[GKLEE]: keep using the current flow: 13
[GKLEE]: 'True' path flow infeasible !
[GKLEE]: 'Else' path flow feasible !
[GKLEE]: keep using the current flow: 13
[GKLEE]: 'True' path flow infeasible !
[GKLEE]: 'Else' path flow feasible !
[GKLEE]: keep using the current flow: 13
[GKLEE]: 'True' path flow infeasible !
[GKLEE]: 'Else' path flow feasible !
[GKLEE]: keep using the current flow: 13
[GKLEE]: 'True' path flow infeasible !
[GKLEE]: 'Else' path flow feasible !
[GKLEE]: keep using the current flow: 13
[GKLEE]: 'True' path flow infeasible !
[GKLEE]: 'Else' path flow feasible !
[GKLEE]: keep using the current flow: 13
[GKLEE]: 'True' path flow infeasible !
[GKLEE]: 'Else' path flow feasible !
[GKLEE]: keep using the current flow: 13
Thread 13 reaches a barrier: moving to the next thread.
[GKLEE]: 'True' path flow feasible !
[GKLEE]: 'Else' path flow feasible !
[GKLEE]: create new parametric flow: 15
[GKLEE]: 'True' path flow infeasible !
[GKLEE]: 'Else' path flow feasible !
[GKLEE]: keep using the current flow: 14
[GKLEE]: 'True' path flow infeasible !
[GKLEE]: 'Else' path flow feasible !
[GKLEE]: keep using the current flow: 14
[GKLEE]: 'True' path flow infeasible !
[GKLEE]: 'Else' path flow feasible !
[GKLEE]: keep using the current flow: 14
[GKLEE]: 'True' path flow infeasible !
[GKLEE]: 'Else' path flow feasible !
[GKLEE]: keep using the current flow: 14
[GKLEE]: 'True' path flow infeasible !
[GKLEE]: 'Else' path flow feasible !
[GKLEE]: keep using the current flow: 14
[GKLEE]: 'True' path flow infeasible !
[GKLEE]: 'Else' path flow feasible !
[GKLEE]: keep using the current flow: 14
[GKLEE]: 'True' path flow infeasible !
[GKLEE]: 'Else' path flow feasible !
[GKLEE]: keep using the current flow: 14
[GKLEE]: 'True' path flow infeasible !
[GKLEE]: 'Else' path flow feasible !
[GKLEE]: keep using the current flow: 14
[GKLEE]: 'True' path flow infeasible !
[GKLEE]: 'Else' path flow feasible !
[GKLEE]: keep using the current flow: 14
[GKLEE]: 'True' path flow infeasible !
[GKLEE]: 'Else' path flow feasible !
[GKLEE]: keep using the current flow: 14
[GKLEE]: 'True' path flow infeasible !
[GKLEE]: 'Else' path flow feasible !
[GKLEE]: keep using the current flow: 14
Thread 14 reaches a barrier: moving to the next thread.
[GKLEE]: 'True' path flow feasible !
[GKLEE]: 'Else' path flow feasible !
[GKLEE]: create new parametric flow: 16
[GKLEE]: 'True' path flow infeasible !
[GKLEE]: 'Else' path flow feasible !
[GKLEE]: keep using the current flow: 15
[GKLEE]: 'True' path flow infeasible !
[GKLEE]: 'Else' path flow feasible !
[GKLEE]: keep using the current flow: 15
[GKLEE]: 'True' path flow infeasible !
[GKLEE]: 'Else' path flow feasible !
[GKLEE]: keep using the current flow: 15
[GKLEE]: 'True' path flow infeasible !
[GKLEE]: 'Else' path flow feasible !
[GKLEE]: keep using the current flow: 15
[GKLEE]: 'True' path flow infeasible !
[GKLEE]: 'Else' path flow feasible !
[GKLEE]: keep using the current flow: 15
[GKLEE]: 'True' path flow infeasible !
[GKLEE]: 'Else' path flow feasible !
[GKLEE]: keep using the current flow: 15
[GKLEE]: 'True' path flow infeasible !
[GKLEE]: 'Else' path flow feasible !
[GKLEE]: keep using the current flow: 15
[GKLEE]: 'True' path flow infeasible !
[GKLEE]: 'Else' path flow feasible !
[GKLEE]: keep using the current flow: 15
[GKLEE]: 'True' path flow infeasible !
[GKLEE]: 'Else' path flow feasible !
[GKLEE]: keep using the current flow: 15
[GKLEE]: 'True' path flow infeasible !
[GKLEE]: 'Else' path flow feasible !
[GKLEE]: keep using the current flow: 15
Thread 15 reaches a barrier: moving to the next thread.
[GKLEE]: 'True' path flow feasible !
[GKLEE]: 'Else' path flow feasible !
[GKLEE]: create new parametric flow: 17
[GKLEE]: 'True' path flow infeasible !
[GKLEE]: 'Else' path flow feasible !
[GKLEE]: keep using the current flow: 16
[GKLEE]: 'True' path flow infeasible !
[GKLEE]: 'Else' path flow feasible !
[GKLEE]: keep using the current flow: 16
[GKLEE]: 'True' path flow infeasible !
[GKLEE]: 'Else' path flow feasible !
[GKLEE]: keep using the current flow: 16
[GKLEE]: 'True' path flow infeasible !
[GKLEE]: 'Else' path flow feasible !
[GKLEE]: keep using the current flow: 16
[GKLEE]: 'True' path flow infeasible !
[GKLEE]: 'Else' path flow feasible !
[GKLEE]: keep using the current flow: 16
[GKLEE]: 'True' path flow infeasible !
[GKLEE]: 'Else' path flow feasible !
[GKLEE]: keep using the current flow: 16
[GKLEE]: 'True' path flow infeasible !
[GKLEE]: 'Else' path flow feasible !
[GKLEE]: keep using the current flow: 16
[GKLEE]: 'True' path flow infeasible !
[GKLEE]: 'Else' path flow feasible !
[GKLEE]: keep using the current flow: 16
[GKLEE]: 'True' path flow infeasible !
[GKLEE]: 'Else' path flow feasible !
[GKLEE]: keep using the current flow: 16
Thread 16 reaches a barrier: moving to the next thread.
[GKLEE]: 'True' path flow feasible !
[GKLEE]: 'Else' path flow feasible !
[GKLEE]: create new parametric flow: 18
[GKLEE]: 'True' path flow infeasible !
[GKLEE]: 'Else' path flow feasible !
[GKLEE]: keep using the current flow: 17
[GKLEE]: 'True' path flow infeasible !
[GKLEE]: 'Else' path flow feasible !
[GKLEE]: keep using the current flow: 17
[GKLEE]: 'True' path flow infeasible !
[GKLEE]: 'Else' path flow feasible !
[GKLEE]: keep using the current flow: 17
[GKLEE]: 'True' path flow infeasible !
[GKLEE]: 'Else' path flow feasible !
[GKLEE]: keep using the current flow: 17
[GKLEE]: 'True' path flow infeasible !
[GKLEE]: 'Else' path flow feasible !
[GKLEE]: keep using the current flow: 17
[GKLEE]: 'True' path flow infeasible !
[GKLEE]: 'Else' path flow feasible !
[GKLEE]: keep using the current flow: 17
[GKLEE]: 'True' path flow infeasible !
[GKLEE]: 'Else' path flow feasible !
[GKLEE]: keep using the current flow: 17
[GKLEE]: 'True' path flow infeasible !
[GKLEE]: 'Else' path flow feasible !
[GKLEE]: keep using the current flow: 17
Thread 17 reaches a barrier: moving to the next thread.
[GKLEE]: 'True' path flow feasible !
[GKLEE]: 'Else' path flow feasible !
[GKLEE]: create new parametric flow: 19
[GKLEE]: 'True' path flow infeasible !
[GKLEE]: 'Else' path flow feasible !
[GKLEE]: keep using the current flow: 18
[GKLEE]: 'True' path flow infeasible !
[GKLEE]: 'Else' path flow feasible !
[GKLEE]: keep using the current flow: 18
[GKLEE]: 'True' path flow infeasible !
[GKLEE]: 'Else' path flow feasible !
[GKLEE]: keep using the current flow: 18
[GKLEE]: 'True' path flow infeasible !
[GKLEE]: 'Else' path flow feasible !
[GKLEE]: keep using the current flow: 18
[GKLEE]: 'True' path flow infeasible !
[GKLEE]: 'Else' path flow feasible !
[GKLEE]: keep using the current flow: 18
[GKLEE]: 'True' path flow infeasible !
[GKLEE]: 'Else' path flow feasible !
[GKLEE]: keep using the current flow: 18
[GKLEE]: 'True' path flow infeasible !
[GKLEE]: 'Else' path flow feasible !
[GKLEE]: keep using the current flow: 18
Thread 18 reaches a barrier: moving to the next thread.
[GKLEE]: 'True' path flow feasible !
[GKLEE]: 'Else' path flow feasible !
[GKLEE]: create new parametric flow: 20
[GKLEE]: 'True' path flow infeasible !
[GKLEE]: 'Else' path flow feasible !
[GKLEE]: keep using the current flow: 19
[GKLEE]: 'True' path flow infeasible !
[GKLEE]: 'Else' path flow feasible !
[GKLEE]: keep using the current flow: 19
[GKLEE]: 'True' path flow infeasible !
[GKLEE]: 'Else' path flow feasible !
[GKLEE]: keep using the current flow: 19
[GKLEE]: 'True' path flow infeasible !
[GKLEE]: 'Else' path flow feasible !
[GKLEE]: keep using the current flow: 19
[GKLEE]: 'True' path flow infeasible !
[GKLEE]: 'Else' path flow feasible !
[GKLEE]: keep using the current flow: 19
[GKLEE]: 'True' path flow infeasible !
[GKLEE]: 'Else' path flow feasible !
[GKLEE]: keep using the current flow: 19
Thread 19 reaches a barrier: moving to the next thread.
[GKLEE]: 'True' path flow feasible !
[GKLEE]: 'Else' path flow feasible !
[GKLEE]: create new parametric flow: 21
[GKLEE]: 'True' path flow infeasible !
[GKLEE]: 'Else' path flow feasible !
[GKLEE]: keep using the current flow: 20
[GKLEE]: 'True' path flow infeasible !
[GKLEE]: 'Else' path flow feasible !
[GKLEE]: keep using the current flow: 20
[GKLEE]: 'True' path flow infeasible !
[GKLEE]: 'Else' path flow feasible !
[GKLEE]: keep using the current flow: 20
[GKLEE]: 'True' path flow infeasible !
[GKLEE]: 'Else' path flow feasible !
[GKLEE]: keep using the current flow: 20
[GKLEE]: 'True' path flow infeasible !
[GKLEE]: 'Else' path flow feasible !
[GKLEE]: keep using the current flow: 20
Thread 20 reaches a barrier: moving to the next thread.
[GKLEE]: 'True' path flow feasible !
[GKLEE]: 'Else' path flow feasible !
[GKLEE]: create new parametric flow: 22
[GKLEE]: 'True' path flow infeasible !
[GKLEE]: 'Else' path flow feasible !
[GKLEE]: keep using the current flow: 21
[GKLEE]: 'True' path flow infeasible !
[GKLEE]: 'Else' path flow feasible !
[GKLEE]: keep using the current flow: 21
[GKLEE]: 'True' path flow infeasible !
[GKLEE]: 'Else' path flow feasible !
[GKLEE]: keep using the current flow: 21
[GKLEE]: 'True' path flow infeasible !
[GKLEE]: 'Else' path flow feasible !
[GKLEE]: keep using the current flow: 21
Thread 21 reaches a barrier: moving to the next thread.
[GKLEE]: 'True' path flow feasible !
[GKLEE]: 'Else' path flow feasible !
[GKLEE]: create new parametric flow: 23
[GKLEE]: 'True' path flow infeasible !
[GKLEE]: 'Else' path flow feasible !
[GKLEE]: keep using the current flow: 22
[GKLEE]: 'True' path flow infeasible !
[GKLEE]: 'Else' path flow feasible !
[GKLEE]: keep using the current flow: 22
[GKLEE]: 'True' path flow infeasible !
[GKLEE]: 'Else' path flow feasible !
[GKLEE]: keep using the current flow: 22
Thread 22 reaches a barrier: moving to the next thread.
[GKLEE]: 'True' path flow feasible !
[GKLEE]: 'Else' path flow feasible !
[GKLEE]: create new parametric flow: 24
[GKLEE]: 'True' path flow infeasible !
[GKLEE]: 'Else' path flow feasible !
[GKLEE]: keep using the current flow: 23
[GKLEE]: 'True' path flow infeasible !
[GKLEE]: 'Else' path flow feasible !
[GKLEE]: keep using the current flow: 23
Thread 23 reaches a barrier: moving to the next thread.
[GKLEE]: 'True' path flow feasible !
[GKLEE]: 'Else' path flow feasible !
[GKLEE]: create new parametric flow: 25
[GKLEE]: 'True' path flow infeasible !
[GKLEE]: 'Else' path flow feasible !
[GKLEE]: keep using the current flow: 24
Thread 24 reaches a barrier: moving to the next thread.
[GKLEE]: 'True' path flow feasible !
[GKLEE]: 'Else' path flow feasible !
[GKLEE]: create new parametric flow: 26
Thread 25 reaches a barrier: moving to the next thread.
Thread 26 reaches a barrier: moving to the next thread.

[GKLEE]: ********** (Symbolic Configuration) Start checking bank conflicts at SharedMemory  **********
[GKLEE]: The read set is empty in bank conflict checking for capability 2.x
[GKLEE]: The write set is empty in bank conflict checking for capability 2.x
[GKLEE]: ********** No Bank Conflict found at this SharedMemory **********

[GKLEE]: ********** (Symbolic Configuration) Start checking coalesced device memory access at capability: 2.x **********
[GKLEE]: ********** All memory accesses are coalesced at capability: 2.x **********

[GKLEE]: ********** (Symbolic Configuration) Start checking warp divergence  **********
[GKLEE]: ********** Warp Divergence found for this kernel **********

[GKLEE]: ********** (Symbolic Config) Start checking missed volatile at SharedMemory  ********** 
[GKLEE]: ********** No 'Volatile' Qualifier Missed at this SharedMemory **********

[GKLEE]: ********** (Symbolic Config) Start checking races at SharedMemory  **********
[GKLEE]: ++++++++++ Read-Write race checking (Pure Canonical Schedule) ++++++++++
[GKLEE]: ++++++++++ Write-Write race checking (Pure Canonical Schedule) ++++++++++
[GKLEE]: ********** no races found at SharedMemory ***********

[GKLEE]: ********** (Symbolic Config) Start checking races at DeviceMemory (Within Same Block)  **********
[GKLEE]: ++++++++++ Read-Write race checking (Pure Canonical Schedule) ++++++++++
[GKLEE]: ++++++++++ Write-Write race checking (Pure Canonical Schedule) ++++++++++

[GKLEE]: ********** (Symbolic Config) Checking races at DeviceMemory (Across Blocks) not allowed (number of block > 1)  **********
[GKLEE]: ********* no races found at DeviceMemory **********
[GKLEE]: Within the current Barrier Interval, 26 flows are used to represent all threads !

[GKLEE]: Finish executing a GPU kernel 

[GKLEE]: GPU Execution time: 3.22042s
[GKLEE]: In Barrier Interval 1, Elapsed time for symbolic configuration (Parametric Flow): 3.20782

[GKLEE]: Finishing the program!
 path num explored here (symbolic config): 1
<BI: 1, Time: 3.20782>
Under symbolic configuration, Across 1 BIs, Total Time: 3.20782
After exploring 1 paths, the average exploration time (symbolic) is 3.20782s, the total execution time: 3.20782s
********** No Bank Conflict found **********
********** Memory Coalescing found **********
********** Warp Divergence found **********
********** No Volatile Missed found *********
********** No Race found **********

KLEE: done: total instructions = 1975
KLEE: done: completed paths = 1
KLEE: done: generated tests = 1
RUN /artifact/tools/gklee-f77577/gklee-nvcc gklee/ifs-25.cu -o gklee/ifs-25.bc
RUN /artifact/tools/gklee-f77577/gklee-bin --symbolic-config gklee/ifs-25.bc
DEL gklee/ifs-25.bc
DEL /artifact/datasets/micro-benchmarks/ifs-25.cpp
DEL /artifact/datasets/micro-benchmarks/ifs-25.kernelSet.txt
DEL flowsGraph.dot
DEL gklee/klee-last
DEL gklee/klee-out-0
