nested-loops-17.cpp:74:31: error: indirection requires pointer operand ('unsigned long' invalid)
    cudaMalloc((void**)&out,  * sizeof(float));
                              ^ ~~~~~~~~~~~~~
nested-loops-17.cpp:78:29: error: indirection requires pointer operand ('unsigned long' invalid)
    cudaMalloc((void**)&a,  * sizeof(float));
                            ^ ~~~~~~~~~~~~~
nested-loops-17.cpp:82:29: error: indirection requires pointer operand ('unsigned long' invalid)
    cudaMalloc((void**)&b,  * sizeof(float));
                            ^ ~~~~~~~~~~~~~
3 errors generated.
Configuration: concurrency bug checking level is: 2
KLEE: ERROR: error loading program 'gklee/nested-loops-17.bc': No such file or directory
RUN /opt/gklee/gklee-nvcc gklee/nested-loops-17.cu -o gklee/nested-loops-17.bc
RUN /opt/gklee/gklee --symbolic-config gklee/nested-loops-17.bc
DEL /home/verify/datasets/micro-benchmarks/nested-loops-17.cpp
DEL /home/verify/datasets/micro-benchmarks/nested-loops-17.kernelSet.txt
DEL flowsGraph.dot
