Configuration: concurrency bug checking level is: 2
KLEE: output directory = "klee-out-180"
KLEE: WARNING: undefined reference to function: __clear_device
KLEE: WARNING: undefined reference to function: __clear_host
KLEE: WARNING: undefined reference to function: __set_CUDAConfig
KLEE: WARNING: undefined reference to function: __set_device
KLEE: WARNING: undefined reference to function: __set_host
KLEE: WARNING: undefined reference to variable: threadIdx

[GKLEE]: The configuration, Grid: <1, 1, 1>, Block: <64, 1, 1>

[GKLEE]: Start executing a GPU kernel 

[GKLEE]: 
********** Start checking bank conflicts at SharedMemory 0 **********
[GKLEE]: The read set is empty in bank conflict checking for capability 2.x
[GKLEE]: The write set is empty in bank conflict checking for capability 2.x
[GKLEE]: 
********** Start checking memory coalescing at DeviceMemory at capability: 2.x **********

[GKLEE]: ********** CAPACITY 2.x Inst By Whole Warp ( 1 ) **********
[GKLEE]: The word size accessed by threads: 4, the 1th request over total 1 requests

[GKLEE]: +++++++++++++++++++++++++++++++++++++++++++++++++++++
[GKLEE]: This request is coalesced into one memory segment (128 Bytes) accessed by 1 threads

[GKLEE]: +++++++++++++++++++++++++++++++++++++++++++++++++++++

[GKLEE]: ********** CAPACITY 2.x Inst By Whole Warp ( 2 ) **********
[GKLEE]: The word size accessed by threads: 4, the 1th request over total 1 requests

[GKLEE]: +++++++++++++++++++++++++++++++++++++++++++++++++++++
[GKLEE]: This request is coalesced into one memory segment (128 Bytes) accessed by 1 threads

[GKLEE]: +++++++++++++++++++++++++++++++++++++++++++++++++++++

[GKLEE]: ********** CAPACITY 2.x Inst By Whole Warp ( 3 ) **********
[GKLEE]: The word size accessed by threads: 4, the 1th request over total 1 requests

[GKLEE]: +++++++++++++++++++++++++++++++++++++++++++++++++++++
[GKLEE]: This request is coalesced into one memory segment (128 Bytes) accessed by 1 threads

[GKLEE]: +++++++++++++++++++++++++++++++++++++++++++++++++++++

[GKLEE]: ********** CAPACITY 2.x Inst By Whole Warp ( 4 ) **********
[GKLEE]: The word size accessed by threads: 4, the 1th request over total 1 requests

[GKLEE]: +++++++++++++++++++++++++++++++++++++++++++++++++++++
[GKLEE]: This request is coalesced into one memory segment (128 Bytes) accessed by 1 threads

[GKLEE]: +++++++++++++++++++++++++++++++++++++++++++++++++++++

[GKLEE]: ********** CAPACITY 2.x Inst By Whole Warp ( 5 ) **********
[GKLEE]: The word size accessed by threads: 4, the 1th request over total 1 requests

[GKLEE]: +++++++++++++++++++++++++++++++++++++++++++++++++++++
[GKLEE]: This request is coalesced into one memory segment (128 Bytes) accessed by 1 threads

[GKLEE]: +++++++++++++++++++++++++++++++++++++++++++++++++++++

[GKLEE]: ********** CAPACITY 2.x Inst By Whole Warp ( 6 ) **********
[GKLEE]: The word size accessed by threads: 4, the 1th request over total 1 requests

[GKLEE]: +++++++++++++++++++++++++++++++++++++++++++++++++++++
[GKLEE]: This request is coalesced into one memory segment (128 Bytes) accessed by 1 threads

[GKLEE]: +++++++++++++++++++++++++++++++++++++++++++++++++++++

[GKLEE]: ********** CAPACITY 2.x Inst By Whole Warp ( 1 ) **********
[GKLEE]: The word size accessed by threads: 4, the 1th request over total 1 requests

[GKLEE]: +++++++++++++++++++++++++++++++++++++++++++++++++++++
[GKLEE]: This request is coalesced into one memory segment (128 Bytes) accessed by 1 threads

[GKLEE]: +++++++++++++++++++++++++++++++++++++++++++++++++++++

[GKLEE]: ********** CAPACITY 2.x Inst By Whole Warp ( 2 ) **********
[GKLEE]: The word size accessed by threads: 4, the 1th request over total 1 requests

[GKLEE]: +++++++++++++++++++++++++++++++++++++++++++++++++++++
[GKLEE]: This request is coalesced into one memory segment (128 Bytes) accessed by 1 threads

[GKLEE]: +++++++++++++++++++++++++++++++++++++++++++++++++++++

[GKLEE]: ********** CAPACITY 2.x Inst By Whole Warp ( 3 ) **********
[GKLEE]: The word size accessed by threads: 4, the 1th request over total 1 requests

[GKLEE]: +++++++++++++++++++++++++++++++++++++++++++++++++++++
[GKLEE]: This request is coalesced into one memory segment (128 Bytes) accessed by 1 threads

[GKLEE]: +++++++++++++++++++++++++++++++++++++++++++++++++++++
[GKLEE]: 
********** Start checking warp divergence **********
[GKLEE]: In warp 0, threads are diverged into following sub-sets: 
[GKLEE]: Set 0:
[GKLEE]: Threads: 0
[GKLEE]: Set 1:
[GKLEE]: Threads: 1
[GKLEE]: Set 2:
[GKLEE]: Threads: 2
[GKLEE]: Set 3:
[GKLEE]: Threads: 3, 4, 5, 6, 7, 8, 9, 10, 11, 12, 13, 14, 15, 16, 17, 18, 19, 20, 21, 22, 23, 24, 25, 26, 27, 28, 29, 30, 31
[GKLEE]: In warp 1, threads are diverged into following sub-sets: 
[GKLEE]: Set 0:
[GKLEE]: Threads: 32, 33, 34, 35, 36, 37, 38, 39, 40, 41, 42, 43, 44, 45, 46, 47, 48, 49, 50, 51, 52, 53, 54, 55, 56, 57, 58, 59, 60, 61, 62, 63

[GKLEE]: *****************************************************
[GKLEE]: 
********** Start checking volatile missing at SharedMemory 0 ********** 
[GKLEE]: 
********** Start checking races at SharedMemory 0 **********
[GKLEE]: 
********** Start checking races at Device Memory ********** 

[GKLEE]: Finish executing a GPU kernel 

[GKLEE]: GPU Execution time: 0.053333s

[GKLEE]: Finishing the program!
 path num explored here: 1
+++++++++++++++++ Bank Conflict Rate: +++++++++++++++++
[GKLEE]: Across 0 BIs, the total num of instructions with BC: 0, the total num of instructions: 0
[GKLEE]: Across 0 BIs, the total num of warps with BC: 0, the total num of warps: 0
+++++++++++++++++ end +++++++++++++++++
+++++++++++++++++ Memory Coalescing Rate: +++++++++++++++++
[GKLEE]: Across 1 BIs, the total num of read instructions with MC: 6, the total number of read instructions: 6
[GKLEE]: Across 1 BIs, the total num of write instructions with MC: 3, the total number of write instructions: 3
[GKLEE]: Across 1 BIs, the total num of warps with MC: 1, the total num of warps: 1
[GKLEE]: num of BIs with MC: 1, num of BIs: 1

[GKLEE]: The Average 'Warp' Memory Coalescing Rate at path 1 : 100%, <avgMCWarp, avgWarp> : <1, 1>

[GKLEE]: The Average 'BI' Memory Coalescing Rate at path 1 : 100%, <avgMCBI, avgBI> : <1, 1>
+++++++++++++++++ end +++++++++++++++++
+++++++++++++++++ Warp Divergence Rate: +++++++++++++++++
[GKLEE]: Across 1 BIs, the total num of warps with WD: 1, the total num of warps: 2
[GKLEE]: Num of BIs with WD: 1, num of BIs: 1

[GKLEE]: The Average 'Warp' Warp Divergence Rate at path 1 : 50%, <avgWDWarp, avgWarp> : <1, 2>

[GKLEE]: The Average 'BI' Warp Divergence Rate at path 1 : 100%, <avgWDBI, avgBI> : <1, 1>
+++++++++++++++++ end +++++++++++++++++
Under concrete configuration, Acorss 0 BIs, Total Time: 0
After exploring 1 paths, the average exploration time (concrete) is 0

KLEE: done: total instructions = 1427
KLEE: done: completed paths = 1
KLEE: done: generated tests = 1
RUN /opt/gklee/gklee-nvcc gklee/ifs-3.cu -o gklee/ifs-3.bc
RUN /opt/gklee/gklee gklee/ifs-3.bc
DEL gklee/ifs-3.bc
DEL flowsGraph.dot
