nested-loops-sync-37.cpp:171:31: error: indirection requires pointer operand ('unsigned long' invalid)
    cudaMalloc((void**)&out,  * sizeof(float));
                              ^ ~~~~~~~~~~~~~
nested-loops-sync-37.cpp:175:29: error: indirection requires pointer operand ('unsigned long' invalid)
    cudaMalloc((void**)&a,  * sizeof(float));
                            ^ ~~~~~~~~~~~~~
nested-loops-sync-37.cpp:179:29: error: indirection requires pointer operand ('unsigned long' invalid)
    cudaMalloc((void**)&b,  * sizeof(float));
                            ^ ~~~~~~~~~~~~~
3 errors generated.
opt: gklee/nested-loops-sync-37.bc: error: Could not open input file: No such file or directory
RUN /opt/gklee/gklee-nvcc gklee/nested-loops-sync-37.cu -o gklee/nested-loops-sync-37.bc
RUN /opt/gklee/sesa gklee/nested-loops-sync-37.bc -o gklee/nested-loops-sync-37.sesa
DEL /home/verify/datasets/micro-benchmarks/nested-loops-sync-37.cpp
DEL /home/verify/datasets/micro-benchmarks/nested-loops-sync-37.kernelSet.txt
