Configuration: concurrency bug checking level is: 2
KLEE: output directory = "klee-out-0"
KLEE: WARNING: undefined reference to function: __clear_device
KLEE: WARNING: undefined reference to function: __clear_host
KLEE: WARNING: undefined reference to function: __set_CUDAConfig
KLEE: WARNING: undefined reference to function: __set_device
KLEE: WARNING: undefined reference to function: __set_host
KLEE: WARNING: undefined reference to variable: threadIdx

[GKLEE]: The configuration, Grid: <1, 1, 1>, Block: <64, 1, 1>

[GKLEE]: Start executing a GPU kernel 

[GKLEE]: create new parametric flow: 2
[GKLEE]: keep using the current flow: 0
[GKLEE]: keep using the current flow: 0
[GKLEE]: keep using the current flow: 0
[GKLEE]: keep using the current flow: 0
[GKLEE]: keep using the current flow: 0
[GKLEE]: keep using the current flow: 0
[GKLEE]: keep using the current flow: 0
[GKLEE]: keep using the current flow: 0
[GKLEE]: keep using the current flow: 0
Thread 0 reaches a barrier: moving to the next thread.
[GKLEE]: create new parametric flow: 3
[GKLEE]: keep using the current flow: 2
[GKLEE]: keep using the current flow: 2
[GKLEE]: keep using the current flow: 2
[GKLEE]: keep using the current flow: 2
[GKLEE]: keep using the current flow: 2
[GKLEE]: keep using the current flow: 2
[GKLEE]: keep using the current flow: 2
[GKLEE]: keep using the current flow: 2
Thread 2 reaches a barrier: moving to the next thread.
[GKLEE]: create new parametric flow: 4
[GKLEE]: keep using the current flow: 3
[GKLEE]: keep using the current flow: 3
[GKLEE]: keep using the current flow: 3
[GKLEE]: keep using the current flow: 3
[GKLEE]: keep using the current flow: 3
[GKLEE]: keep using the current flow: 3
[GKLEE]: keep using the current flow: 3
Thread 3 reaches a barrier: moving to the next thread.
[GKLEE]: create new parametric flow: 5
[GKLEE]: keep using the current flow: 4
[GKLEE]: keep using the current flow: 4
[GKLEE]: keep using the current flow: 4
[GKLEE]: keep using the current flow: 4
[GKLEE]: keep using the current flow: 4
[GKLEE]: keep using the current flow: 4
Thread 4 reaches a barrier: moving to the next thread.
[GKLEE]: create new parametric flow: 6
[GKLEE]: keep using the current flow: 5
[GKLEE]: keep using the current flow: 5
[GKLEE]: keep using the current flow: 5
[GKLEE]: keep using the current flow: 5
[GKLEE]: keep using the current flow: 5
Thread 5 reaches a barrier: moving to the next thread.
[GKLEE]: create new parametric flow: 7
[GKLEE]: keep using the current flow: 6
[GKLEE]: keep using the current flow: 6
[GKLEE]: keep using the current flow: 6
[GKLEE]: keep using the current flow: 6
Thread 6 reaches a barrier: moving to the next thread.
[GKLEE]: create new parametric flow: 8
[GKLEE]: keep using the current flow: 7
[GKLEE]: keep using the current flow: 7
[GKLEE]: keep using the current flow: 7
Thread 7 reaches a barrier: moving to the next thread.
[GKLEE]: create new parametric flow: 9
[GKLEE]: keep using the current flow: 8
[GKLEE]: keep using the current flow: 8
Thread 8 reaches a barrier: moving to the next thread.
[GKLEE]: create new parametric flow: 10
[GKLEE]: keep using the current flow: 9
Thread 9 reaches a barrier: moving to the next thread.
[GKLEE]: create new parametric flow: 11
Thread 10 reaches a barrier: moving to the next thread.
Thread 11 reaches a barrier: moving to the next thread.

[GKLEE]: ********** (Symbolic Configuration) Start checking bank conflicts at SharedMemory  **********
[GKLEE]: The read set is empty in bank conflict checking for capability 2.x
[GKLEE]: The write set is empty in bank conflict checking for capability 2.x
[GKLEE]: ********** No Bank Conflict found at this SharedMemory **********

[GKLEE]: ********** (Symbolic Configuration) Start checking coalesced device memory access at capability: 2.x **********
[GKLEE]: ********** All memory accesses are coalesced at capability: 2.x **********

[GKLEE]: ********** (Symbolic Configuration) Start checking warp divergence  **********
[GKLEE]: ********** Warp Divergence found for this kernel **********

[GKLEE]: ********** (Symbolic Config) Start checking missed volatile at SharedMemory  ********** 
[GKLEE]: ********** No 'Volatile' Qualifier Missed at this SharedMemory **********

[GKLEE]: ********** (Symbolic Config) Start checking races at SharedMemory  **********
[GKLEE]: ++++++++++ Read-Write race checking (Pure Canonical Schedule) ++++++++++
[GKLEE]: ++++++++++ Write-Write race checking (Pure Canonical Schedule) ++++++++++
[GKLEE]: ********** no races found at SharedMemory ***********

[GKLEE]: ********** (Symbolic Config) Start checking races at DeviceMemory (Within Same Block)  **********
[GKLEE]: ++++++++++ Read-Write race checking (Pure Canonical Schedule) ++++++++++
[GKLEE]: ++++++++++ Write-Write race checking (Pure Canonical Schedule) ++++++++++

[GKLEE]: ********** (Symbolic Config) Checking races at DeviceMemory (Across Blocks) not allowed (number of block > 1)  **********
[GKLEE]: ********* no races found at DeviceMemory **********
[GKLEE]: Within the current Barrier Interval, 11 flows are used to represent all threads !

[GKLEE]: Finish executing a GPU kernel 

[GKLEE]: GPU Execution time: 0.378715s
[GKLEE]: In Barrier Interval 1, Elapsed time for symbolic configuration (Parametric Flow): 0.364906

[GKLEE]: Finishing the program!
 path num explored here (symbolic config): 1
<BI: 1, Time: 0.364906>
Under symbolic configuration, Across 1 BIs, Total Time: 0.364906
After exploring 1 paths, the average exploration time (symbolic) is 0.364906s, the total execution time: 0.364906s
********** No Bank Conflict found **********
********** Memory Coalescing found **********
********** Warp Divergence found **********
********** No Volatile Missed found *********
********** No Race found **********

KLEE: done: total instructions = 964
KLEE: done: completed paths = 1
KLEE: done: generated tests = 1
RUN /opt/gklee/gklee-nvcc gklee/ifs-10.cu -o gklee/ifs-10.bc
RUN /opt/gklee/sesa gklee/ifs-10.bc -o gklee/ifs-10.sesa
RUN /opt/gklee/gklee --symbolic-config --race-prune gklee/ifs-10.sesa
DEL gklee/ifs-10.bc
DEL gklee/ifs-10.sesa
DEL /home/verify/datasets/micro-benchmarks/ifs-10.cpp
DEL /home/verify/datasets/micro-benchmarks/ifs-10.kernelSet.txt
DEL /home/verify/datasets/micro-benchmarks/flowsGraph.dot
DEL gklee/klee-last
DEL /home/verify/datasets/micro-benchmarks/summary.txt
DEL gklee/klee-out-0
