nqueen.opt.bc: warning: Assuming the arguments 'total_masks', 'total_l_masks', 'total_r_masks', 'results' of 'kernel' on line 23 of nqueen.cu to be non-aliased; please consider adding a restrict qualifier to these arguments

nqueen.cu: error: possible write-read race on mask[218][7]:

Read by thread 64 in thread block 16 (global id 1600), nqueen.cu:62:30:
  mask[tid][i + 1] = mask[tid][i] | index;

Write by thread 0 in thread block 16 (global id 1536), nqueen.cu:62:28:
  mask[tid][i + 1] = mask[tid][i] | index;

Bitwise values of parameters of 'kernel':
 n = 21
 mark = 0
 total_conditions = 1665


nqueen.cu: error: possible read-write race on mask[218][4]:

Write by thread 64 in thread block 16 (global id 1600), nqueen.cu:62:28:
  mask[tid][i + 1] = mask[tid][i] | index;

Read by thread 0 in thread block 16 (global id 1536), possible sources are:
nqueen.cu:62:30:
  mask[tid][i + 1] = mask[tid][i] | index;

nqueen.cu:65:28:
  m[tid][i + 1] = (mask[tid][i + 1] | l_mask[tid][i + 1] | r_mask[tid][i + 1]);


Bitwise values of parameters of 'kernel':
 n = 21
 mark = 0
 total_conditions = 1665


nqueen.cu: error: possible write-write race on mask[218][4]:

Write by thread 64 in thread block 16 (global id 1600), nqueen.cu:62:28:
  mask[tid][i + 1] = mask[tid][i] | index;

Write by thread 0 in thread block 16 (global id 1536), nqueen.cu:62:28:
  mask[tid][i + 1] = mask[tid][i] | index;

Bitwise values of parameters of 'kernel':
 n = 21
 mark = 0
 total_conditions = 1665


nqueen.cu: error: possible read-write race on r_mask[218][4]:

Write by thread 64 in thread block 16 (global id 1600), nqueen.cu:64:30:
  r_mask[tid][i + 1] = (r_mask[tid][i] | index) >> 1;

Read by thread 0 in thread block 16 (global id 1536), possible sources are:
nqueen.cu:64:33:
  r_mask[tid][i + 1] = (r_mask[tid][i] | index) >> 1;

nqueen.cu:65:68:
  m[tid][i + 1] = (mask[tid][i + 1] | l_mask[tid][i + 1] | r_mask[tid][i + 1]);


Bitwise values of parameters of 'kernel':
 n = 21
 mark = 0
 total_conditions = 1665


nqueen.cu: error: possible write-write race on r_mask[218][4]:

Write by thread 64 in thread block 16 (global id 1600), nqueen.cu:64:30:
  r_mask[tid][i + 1] = (r_mask[tid][i] | index) >> 1;

Write by thread 0 in thread block 16 (global id 1536), nqueen.cu:64:30:
  r_mask[tid][i + 1] = (r_mask[tid][i] | index) >> 1;

Bitwise values of parameters of 'kernel':
 n = 21
 mark = 0
 total_conditions = 1665

GPUVerify kernel analyser finished with 0 verified, 5 errors
