"/artifact/datasets/gpuverify-cav14/pug/CUDA50/3_Imaging/HSOpticalFlow/derivativesKernel.c", line 79: error: 
          this declaration has no storage class or type specifier
  texture<float, 2, cudaReadModeElementType> texSource;
  ^

"/artifact/datasets/gpuverify-cav14/pug/CUDA50/3_Imaging/HSOpticalFlow/derivativesKernel.c", line 79: error: 
          expected a ";"
  texture<float, 2, cudaReadModeElementType> texSource;
         ^

"/artifact/datasets/gpuverify-cav14/pug/CUDA50/3_Imaging/HSOpticalFlow/derivativesKernel.c", line 80: error: 
          this declaration has no storage class or type specifier
  texture<float, 2, cudaReadModeElementType> texTarget;
  ^

"/artifact/datasets/gpuverify-cav14/pug/CUDA50/3_Imaging/HSOpticalFlow/derivativesKernel.c", line 80: error: 
          expected a ";"
  texture<float, 2, cudaReadModeElementType> texTarget;
         ^

"/artifact/datasets/gpuverify-cav14/pug/CUDA50/3_Imaging/HSOpticalFlow/derivativesKernel.c", line 131: error: 
          identifier "texSource" is undefined
      t0  = tex2D(texSource, x - 2.0f * dx, y);
                  ^

"/artifact/datasets/gpuverify-cav14/pug/CUDA50/3_Imaging/HSOpticalFlow/derivativesKernel.c", line 137: error: 
          identifier "texTarget" is undefined
      t1  = tex2D(texTarget, x - 2.0f * dx, y);
                  ^

"/artifact/datasets/gpuverify-cav14/pug/CUDA50/3_Imaging/HSOpticalFlow/derivativesKernel.c", line 86: warning: 
          function "kernel" was declared but never referenced
  __global__ void kernel (float* Ix, float* Iy, float* Iz, int width,int height,int stride) {
                  ^

terminate called after throwing an instance of 'rose_exception'
  what():  Errors in Processing: (frontend_failed)
/artifact/tools/pug-v0.2_x64/pug: line 3: 47269 Aborted                 (core dumped) LD_LIBRARY_PATH="$PREFIX/lib" "$PREFIX/bin/pug" "$@"
