status,time,memory,filename,log,data_races
124,103.25,41.09765625,gklee/real-world/transposeDiagonal.cu,gklee/real-world/transposeDiagonal-1.log,timeout
124,90.01,41.17578125,gklee/real-world/transposeDiagonal-drf.cu,gklee/real-world/transposeDiagonal-drf-1.log,timeout
124,90.0,41.01171875,gklee/synthetic/first-iter.cu,gklee/synthetic/first-iter-1.log,timeout
124,90.0,41.0234375,gklee/synthetic/first-iter-drf.cu,gklee/synthetic/first-iter-drf-1.log,timeout
124,90.0,41.03515625,gklee/synthetic/last-iter.cu,gklee/synthetic/last-iter-1.log,timeout
124,90.0,41.265625,gklee/synthetic/last-iter-drf.cu,gklee/synthetic/last-iter-drf-1.log,timeout
124,97.37,41.28125,gklee/synthetic/last-iter-first-iter.cu,gklee/synthetic/last-iter-first-iter-1.log,timeout
124,90.01,40.99609375,gklee/synthetic/last-iter-first-iter-drf.cu,gklee/synthetic/last-iter-first-iter-drf-1.log,timeout
0,2.27,46.2265625,gklee/synthetic/read-index-racy.cu,gklee/synthetic/read-index-racy-1.log,no race alarms
0,1.31,46.25,gklee/synthetic/read-index.cu,gklee/synthetic/read-index-1.log,no race alarms
