RUN /home/hkz/research/drf-benchmark/tools/gklee-f77577/gklee-nvcc read-index-racy.cu -o read-index-racy.bc
RUN /home/hkz/research/drf-benchmark/tools/gklee-f77577/gklee --symbolic-config read-index-racy.bc
Configuration: concurrency bug checking level is: 2
KLEE: output directory = "klee-out-6"
KLEE: WARNING: undefined reference to function: __clear_device
KLEE: WARNING: undefined reference to function: __clear_host
KLEE: WARNING: undefined reference to function: __set_CUDAConfig
KLEE: WARNING: undefined reference to function: __set_device
KLEE: WARNING: undefined reference to function: __set_host
KLEE: WARNING: undefined reference to variable: threadIdx

[GKLEE]: The configuration, Grid: <1, 1, 1>, Block: <64, 1, 1>

[GKLEE]: Start executing a GPU kernel 

Thread 0 reaches a barrier: moving to the next thread.

[GKLEE]: ********** (Symbolic Configuration) Start checking bank conflicts at SharedMemory  **********
[GKLEE]: The read set is empty in bank conflict checking for capability 2.x
[GKLEE]: The write set is empty in bank conflict checking for capability 2.x
[GKLEE]: ********** No Bank Conflict found at this SharedMemory **********

[GKLEE]: ********** (Symbolic Configuration) Start checking coalesced device memory access at capability: 2.x **********
No Prefer Cex
[GKLEE]: ++++++++++ Non Memory Coalescing at capabiity 2.x++++++++++
[GKLEE]: Access1 in Non Memory Coalescing: 
[GKLEE] Inst: 
Instruction Line: 16, In File: read-index-racy.cpp, With Dir Path: /home/hkz/research/drf-benchmark/datasets/correctness/gklee/synthetic
[File: /home/hkz/research/drf-benchmark/datasets/correctness/gklee/synthetic/read-index-racy.cpp, Line: 16, Inst: x[z + 1] = 0;]
  store i32 0, i32* %16, align 4, !dbg !718
<W: 23360384, 8:0> 
[GKLEE]: Access2 in Non Memory Coalescing: 
[GKLEE] Inst: 
Instruction Line: 16, In File: read-index-racy.cpp, With Dir Path: /home/hkz/research/drf-benchmark/datasets/correctness/gklee/synthetic
[File: /home/hkz/research/drf-benchmark/datasets/correctness/gklee/synthetic/read-index-racy.cpp, Line: 16, Inst: x[z + 1] = 0;]
  store i32 0, i32* %16, align 4, !dbg !718
<W: 23360384, 45002416:0> 
[GKLEE]: Thread 1 : { <0, 0, 0>, <1, 0, 0> } and Thread 2 : { <0, 0, 0>, <0, 0, 0> } incur the non-coalesced memory access!
[GKLEE]: Thread 1's concretized offset: 
8
[GKLEE]: Thread 2's concretized offset: 
45002416
[GKLEE]: ++++++++++
[GKLEE]: ********** Non coalesced memory accesses found at capability: 2.x **********

[GKLEE]: ********** (Symbolic Configuration) Start checking warp divergence  **********
[GKLEE]: ********** Warp Divergence not found for this kernel **********

[GKLEE]: ********** (Symbolic Config) Start checking missed volatile at SharedMemory  ********** 
[GKLEE]: ********** No 'Volatile' Qualifier Missed at this SharedMemory **********

[GKLEE]: ********** (Symbolic Config) Start checking races at SharedMemory  **********
[GKLEE]: ++++++++++ Read-Write race checking (Pure Canonical Schedule) ++++++++++
[GKLEE]: ++++++++++ Write-Write race checking (Pure Canonical Schedule) ++++++++++
[GKLEE]: ********** no races found at SharedMemory ***********

[GKLEE]: ********** (Symbolic Config) Start checking races at DeviceMemory (Within Same Block)  **********
[GKLEE]: ++++++++++ Read-Write race checking (Pure Canonical Schedule) ++++++++++
[GKLEE]: ++++++++++ Write-Write race checking (Pure Canonical Schedule) ++++++++++

[GKLEE]: ********** (Symbolic Config) Checking races at DeviceMemory (Across Blocks) not allowed (number of block > 1)  **********
[GKLEE]: ********* no races found at DeviceMemory **********
[GKLEE]: Within the current Barrier Interval, 1 flows are used to represent all threads !

[GKLEE]: Finish executing a GPU kernel 

[GKLEE]: GPU Execution time: 0.833008s
[GKLEE]: In Barrier Interval 1, Elapsed time for symbolic configuration (Parametric Flow): 0.816195

[GKLEE]: Finishing the program!
 path num explored here (symbolic config): 1
<BI: 1, Time: 0.816195>
Under symbolic configuration, Across 1 BIs, Total Time: 0.816195
After exploring 1 paths, the average exploration time (symbolic) is 0.816195s, the total execution time: 0.816195s
********** No Bank Conflict found **********
********** No Memory Coalescing found **********
********** No Warp Divergence found **********
********** No Volatile Missed found *********
********** No Race found **********

KLEE: done: total instructions = 622
KLEE: done: completed paths = 1
KLEE: done: generated tests = 1
DEL read-index-racy.bc
DEL /home/hkz/research/drf-benchmark/datasets/correctness/gklee/synthetic/read-index-racy.cpp
DEL /home/hkz/research/drf-benchmark/datasets/correctness/gklee/synthetic/read-index-racy.kernelSet.txt
DEL flowsGraph.dot
DEL klee-last
DEL klee-out-2
DEL klee-out-3
DEL klee-out-4
DEL klee-out-1
DEL klee-out-0
DEL klee-out-6
DEL klee-out-5
