"/artifact/datasets/gpuverify-cav14/pug/C++AMP/BitonicSort/bitonic_sort_kernel/kernel.c", line 147: error: 
          identifier "bool" is undefined
          _type result = ((sh_data[local_idx & ~j] <= sh_data[local_idx | j]) == (bool)(ulevelmask & global_idx)) ? sh_data[local_idx ^ j] : sh_data[local_idx];
                                                                                  ^

"/artifact/datasets/gpuverify-cav14/pug/C++AMP/BitonicSort/bitonic_sort_kernel/kernel.c", line 111: warning: 
          function "kernel" was declared but never referenced
  __global__ void kernel (_type* data, unsigned ulevel,unsigned ulevelmask) {
                  ^

terminate called after throwing an instance of 'rose_exception'
  what():  Errors in Processing: (frontend_failed)
/artifact/tools/pug-v0.2_x64/pug: line 3:  5927 Aborted                 (core dumped) LD_LIBRARY_PATH="$PREFIX/lib" "$PREFIX/bin/pug" "$@"
