makeNewEdges.opt.bc: warning: Assuming the arguments 'survivedEdgesIDs', 'verticesMapping', 'edges', 'weights', 'newEdges', 'newWeights' of 'kernel' on line 12 of makeNewEdges.cu to be non-aliased; please consider adding a restrict qualifier to these arguments
GPUVerify kernel analyser finished with 1 verified, 0 errors
Verified: makeNewEdges.cu
- no data races within thread blocks
- no barrier divergence
- no assertion failures
(but absolutely no warranty provided)
