"/artifact/datasets/gpuverify-cav14/pug/CUDA50/6_Advanced/sortingNetworks/common.h", line 6: warning: 
          attribute "always_inline" ignored
  __device__ static __attribute__((always_inline)) void Comparator(
                                   ^

"/artifact/datasets/gpuverify-cav14/pug/CUDA50/6_Advanced/sortingNetworks/common.h", line 7: error: 
          expected a ")"
      uint &keyA,
           ^

"/artifact/datasets/gpuverify-cav14/pug/CUDA50/6_Advanced/sortingNetworks/common.h", line 12: warning: 
          parsing restarts here after previous syntax error
  )
  ^

"/artifact/datasets/gpuverify-cav14/pug/CUDA50/6_Advanced/sortingNetworks/common.h", line 6: error: 
          unnamed prototyped parameters not allowed when body is present
  __device__ static __attribute__((always_inline)) void Comparator(
                                                        ^

"/artifact/datasets/gpuverify-cav14/pug/CUDA50/6_Advanced/sortingNetworks/common.h", line 16: error: 
          identifier "keyA" is undefined
      if ((keyA > keyB) == dir)
           ^

"/artifact/datasets/gpuverify-cav14/pug/CUDA50/6_Advanced/sortingNetworks/common.h", line 16: error: 
          identifier "keyB" is undefined
      if ((keyA > keyB) == dir)
                  ^

"/artifact/datasets/gpuverify-cav14/pug/CUDA50/6_Advanced/sortingNetworks/common.h", line 16: error: 
          identifier "dir" is undefined
      if ((keyA > keyB) == dir)
                           ^

"/artifact/datasets/gpuverify-cav14/pug/CUDA50/6_Advanced/sortingNetworks/common.h", line 21: error: 
          identifier "valA" is undefined
          t = valA;
              ^

"/artifact/datasets/gpuverify-cav14/pug/CUDA50/6_Advanced/sortingNetworks/common.h", line 22: error: 
          identifier "valB" is undefined
          valA = valB;
                 ^

"/artifact/datasets/gpuverify-cav14/pug/CUDA50/6_Advanced/sortingNetworks/bitonicSortShared1.c", line 126: error: 
          too many arguments in function call
                  s_key[pos +      0], s_val[pos +      0],
                                       ^

"/artifact/datasets/gpuverify-cav14/pug/CUDA50/6_Advanced/sortingNetworks/bitonicSortShared1.c", line 142: error: 
          too many arguments in function call
                  s_key[pos +      0], s_val[pos +      0],
                                       ^

"/artifact/datasets/gpuverify-cav14/pug/CUDA50/6_Advanced/sortingNetworks/bitonicSortShared1.c", line 85: warning: 
          function "kernel" was declared but never referenced
  __global__ void kernel (uint* d_DstKey, uint* d_DstVal, uint* d_SrcKey, uint* d_SrcVal) {
                  ^

terminate called after throwing an instance of 'rose_exception'
  what():  Errors in Processing: (frontend_failed)
/artifact/tools/pug-v0.2_x64/pug: line 3: 28393 Aborted                 (core dumped) LD_LIBRARY_PATH="$PREFIX/lib" "$PREFIX/bin/pug" "$@"
