In file included from spPreprocess2D_kernel.cu:5:
./common.h:16:55: warning: unused function 'mulAndScale' [-Wunused-function]
__device__ static __attribute__((always_inline)) void mulAndScale(fComplex &a, const fComplex &b, const float &c)
                                                      ^
./common.h:42:55: warning: unused function 'spPostprocessC2C' [-Wunused-function]
__device__ static __attribute__((always_inline)) void spPostprocessC2C(fComplex &D1, fComplex &D2, const fComplex &twiddle)
                                                      ^
2 warnings generated when compiling for sm_35.
spPreprocess2D_kernel.opt.bc: warning: Assuming the arguments 'd_Dst', 'd_Src' of 'kernel' on line 12 of spPreprocess2D_kernel.cu to be non-aliased; please consider adding a restrict qualifier to these arguments
GPUVerify kernel analyser finished with 1 verified, 0 errors
Verified: spPreprocess2D_kernel.cu
- no data races within thread blocks
- no barrier divergence
- no assertion failures
(but absolutely no warranty provided)
