status,time,memory,filename,log,data_races
0,0.06,50.46484375,pug/C++AMP/DxInterOp/kernel.c,pug/C++AMP/DxInterOp/kernel-5.log,drf
0,0.06,50.65625,pug/C++AMP/HelloWorldCSharp/kernel.c,pug/C++AMP/HelloWorldCSharp/kernel-5.log,drf
0,0.1,52.92578125,pug/C++AMP/Convolution/convolution_simple/kernel.c,pug/C++AMP/Convolution/convolution_simple/kernel-5.log,drf
0,0.13,52.99609375,pug/C++AMP/Convolution/convolution_tiling/kernel.c,pug/C++AMP/Convolution/convolution_tiling/kernel-5.log,drf
134,0.13,38.3046875,pug/C++AMP/NBody_Simulation/tiling_implementation/kernel.c,pug/C++AMP/NBody_Simulation/tiling_implementation/kernel-5.log,error:parser
134,0.13,38.48828125,pug/C++AMP/NBody_Simulation/simple_implementation/kernel.c,pug/C++AMP/NBody_Simulation/simple_implementation/kernel-5.log,error:parser
0,0.31,53.37109375,pug/C++AMP/BinomialOptions/kernel.c,pug/C++AMP/BinomialOptions/kernel-5.log,drf
134,0.2,53.45703125,pug/C++AMP/MersenneTwister/rand_MT_kernel/kernel.c,pug/C++AMP/MersenneTwister/rand_MT_kernel/kernel-5.log,error:yices
134,0.17,50.91796875,pug/C++AMP/MersenneTwister/box_muller_kernel/kernel.c,pug/C++AMP/MersenneTwister/box_muller_kernel/kernel-5.log,error
0,0.28,52.875,pug/C++AMP/TransitiveClosure/stage2/kernel.c,pug/C++AMP/TransitiveClosure/stage2/kernel-5.log,drf
0,0.16,52.15625,pug/C++AMP/TransitiveClosure/stage1/kernel.c,pug/C++AMP/TransitiveClosure/stage1/kernel-5.log,drf
0,0.2,52.74609375,pug/C++AMP/TransitiveClosure/stage3/kernel.c,pug/C++AMP/TransitiveClosure/stage3/kernel-5.log,drf
0,0.09,52.515625,pug/C++AMP/3000.imgblur_grid_6662C876/imgblur_Beta/kernel.c,pug/C++AMP/3000.imgblur_grid_6662C876/imgblur_Beta/kernel-5.log,drf
0,0.09,52.453125,pug/C++AMP/3000.imgblur_grid_6662C876/imgblur_grid/kernel.c,pug/C++AMP/3000.imgblur_grid_6662C876/imgblur_grid/kernel-5.log,drf
134,0.26,53.58203125,pug/C++AMP/OceanCS/kernel.c,pug/C++AMP/OceanCS/kernel-5.log,error:yices
0,0.11,53.0234375,pug/C++AMP/MatrixMultiplication/mxm_amp_tiled/kernel.c,pug/C++AMP/MatrixMultiplication/mxm_amp_tiled/kernel-5.log,racy
0,0.09,53.31640625,pug/C++AMP/MatrixMultiplication/mxm_amp_simple/kernel.c,pug/C++AMP/MatrixMultiplication/mxm_amp_simple/kernel-5.log,drf
134,0.13,38.015625,pug/C++AMP/BitonicSort/bitonic_sort_kernel/kernel.c,pug/C++AMP/BitonicSort/bitonic_sort_kernel/kernel-5.log,error:parser
0,0.08,51.20703125,pug/C++AMP/BitonicSort/transpose_kernel/kernel.c,pug/C++AMP/BitonicSort/transpose_kernel/kernel-5.log,drf
0,0.11,52.4765625,pug/C++AMP/Histogram/histo_merge_kernel/kernel.c,pug/C++AMP/Histogram/histo_merge_kernel/kernel-5.log,drf
0,0.28,53.515625,pug/CUDA20/scan/workefficient/kernel.c,pug/CUDA20/scan/workefficient/kernel-5.log,drf
0,0.16,53.28125,pug/CUDA20/scan/naive/kernel.c,pug/CUDA20/scan/naive/kernel-5.log,drf
0,0.33,53.92578125,pug/CUDA20/scan/best/kernel.c,pug/CUDA20/scan/best/kernel-5.log,drf
0,0.44,54.2578125,pug/CUDA20/scanlarge/inline/kernel.c,pug/CUDA20/scanlarge/inline/kernel-5.log,drf
0,0.09,51.59375,pug/CUDA20/scanlarge/uniformAdd/kernel.c,pug/CUDA20/scanlarge/uniformAdd/kernel-5.log,drf
0,0.13,53.875,pug/CUDA20/histogram64/histogram64Kernel/kernel.c,pug/CUDA20/histogram64/histogram64Kernel/kernel-5.log,drf
0,0.11,52.734375,pug/CUDA20/histogram64/mergeHistogram64Kernel/kernel.c,pug/CUDA20/histogram64/mergeHistogram64Kernel/kernel-5.log,drf
0,0.52,52.78515625,pug/CUDA20/bitonicsort/kernel.c,pug/CUDA20/bitonicsort/kernel-5.log,drf
134,0.13,38.38671875,pug/CUDA50/7_CUDALibraries/MC_EstimatePiInlineP/computeValue.c,pug/CUDA50/7_CUDALibraries/MC_EstimatePiInlineP/computeValue-5.log,error:unsupported-api
134,0.13,38.25,pug/CUDA50/7_CUDALibraries/MC_EstimatePiInlineP/initRNG.c,pug/CUDA50/7_CUDALibraries/MC_EstimatePiInlineP/initRNG-5.log,error:unsupported-api
134,0.13,38.3046875,pug/CUDA50/7_CUDALibraries/MC_SingleAsianOptionP/generatePaths.c,pug/CUDA50/7_CUDALibraries/MC_SingleAsianOptionP/generatePaths-5.log,error:template
134,0.13,38.32421875,pug/CUDA50/7_CUDALibraries/MC_SingleAsianOptionP/computeValue.c,pug/CUDA50/7_CUDALibraries/MC_SingleAsianOptionP/computeValue-5.log,error:template
134,0.13,38.453125,pug/CUDA50/7_CUDALibraries/MC_SingleAsianOptionP/initRNG.c,pug/CUDA50/7_CUDALibraries/MC_SingleAsianOptionP/initRNG-5.log,error:unsupported-api
0,0.09,53.4296875,pug/CUDA50/4_Finance/quasirandomGenerator/quasirandomGeneratorKernel.c,pug/CUDA50/4_Finance/quasirandomGenerator/quasirandomGeneratorKernel-5.log,drf
134,0.13,38.16796875,pug/CUDA50/4_Finance/quasirandomGenerator/inverseCNDKernel.c,pug/CUDA50/4_Finance/quasirandomGenerator/inverseCNDKernel-5.log,error:parser
139,0.18,52.578125,pug/CUDA50/4_Finance/SobolQRNG/sobol.c,pug/CUDA50/4_Finance/SobolQRNG/sobol-5.log,error
134,0.18,52.56640625,pug/CUDA50/4_Finance/binomialOptions/binomialOptions.c,pug/CUDA50/4_Finance/binomialOptions/binomialOptions-5.log,error:yices
134,0.13,38.29296875,pug/CUDA50/4_Finance/MonteCarloMultiGPU/rngSetupStates.c,pug/CUDA50/4_Finance/MonteCarloMultiGPU/rngSetupStates-5.log,error:unsupported-api
134,0.13,38.51953125,pug/CUDA50/4_Finance/MonteCarloMultiGPU/MonteCarloOneBlockPerOption.c,pug/CUDA50/4_Finance/MonteCarloMultiGPU/MonteCarloOneBlockPerOption-5.log,error:template
0,0.11,53.70703125,pug/CUDA50/4_Finance/BlackScholes/BlackScholes.c,pug/CUDA50/4_Finance/BlackScholes/BlackScholes-5.log,drf
134,0.13,38.35546875,pug/CUDA50/5_Simulations/oceanFFT/generateSpectrumKernel.c,pug/CUDA50/5_Simulations/oceanFFT/generateSpectrumKernel-5.log,error:parser
0,0.08,51.55078125,pug/CUDA50/5_Simulations/oceanFFT/updateHeightmapKernel.c,pug/CUDA50/5_Simulations/oceanFFT/updateHeightmapKernel-5.log,drf
134,0.13,38.3125,pug/CUDA50/5_Simulations/oceanFFT/calculateSlopeKernel.c,pug/CUDA50/5_Simulations/oceanFFT/calculateSlopeKernel-5.log,error:parser
134,0.14,38.37890625,pug/CUDA50/5_Simulations/particles/calcHashD.c,pug/CUDA50/5_Simulations/particles/calcHashD-5.log,error:parser
134,0.13,38.21484375,pug/CUDA50/5_Simulations/particles/collideD.c,pug/CUDA50/5_Simulations/particles/collideD-5.log,error:parser
134,0.13,38.33984375,pug/CUDA50/5_Simulations/fluidsGL/advectVelocity_k.c,pug/CUDA50/5_Simulations/fluidsGL/advectVelocity_k-5.log,error:unsupported-api
134,0.18,51.16796875,pug/CUDA50/5_Simulations/fluidsGL/advectParticles_k.c,pug/CUDA50/5_Simulations/fluidsGL/advectParticles_k-5.log,error
0,0.06,50.53515625,pug/CUDA50/5_Simulations/fluidsGL/addForces_k.c,pug/CUDA50/5_Simulations/fluidsGL/addForces_k-5.log,drf
134,0.21,53.2109375,pug/CUDA50/5_Simulations/fluidsGL/diffuseProject_k.c,pug/CUDA50/5_Simulations/fluidsGL/diffuseProject_k-5.log,error:yices
0,0.06,51.1796875,pug/CUDA50/5_Simulations/fluidsGL/updateVelocity_k.c,pug/CUDA50/5_Simulations/fluidsGL/updateVelocity_k-5.log,drf
134,0.14,38.375,pug/CUDA50/5_Simulations/nbody/nbody.c,pug/CUDA50/5_Simulations/nbody/nbody-5.log,error:template
0,0.09,50.55859375,pug/CUDA50/0_Simple/template/template.c,pug/CUDA50/0_Simple/template/template-5.log,error:template
134,0.13,38.43359375,pug/CUDA50/0_Simple/simpleCubemapTexture/simpleCubemapTexture.c,pug/CUDA50/0_Simple/simpleCubemapTexture/simpleCubemapTexture-5.log,error:unsupported-api
0,0.07,51.484375,pug/CUDA50/0_Simple/template_runtime/template_runtime.c,pug/CUDA50/0_Simple/template_runtime/template_runtime-5.log,error:template
0,0.13,53.51953125,pug/CUDA50/0_Simple/matrixMul/matrixMul.c,pug/CUDA50/0_Simple/matrixMul/matrixMul-5.log,drf
0,0.07,51.06640625,pug/CUDA50/0_Simple/simpleZeroCopy/simpleZeroCopy.c,pug/CUDA50/0_Simple/simpleZeroCopy/simpleZeroCopy-5.log,drf
0,0.05,49.9921875,pug/CUDA50/0_Simple/simpleVoteIntrinsics/VoteAllKernel2.c,pug/CUDA50/0_Simple/simpleVoteIntrinsics/VoteAllKernel2-5.log,drf
134,0.13,38.109375,pug/CUDA50/0_Simple/simpleVoteIntrinsics/VoteAnyKernel3.c,pug/CUDA50/0_Simple/simpleVoteIntrinsics/VoteAnyKernel3-5.log,error:parser
0,0.06,49.79296875,pug/CUDA50/0_Simple/simpleVoteIntrinsics/VoteAnyKernel1.c,pug/CUDA50/0_Simple/simpleVoteIntrinsics/VoteAnyKernel1-5.log,drf
134,0.13,38.0546875,pug/CUDA50/0_Simple/simpleTexture/simpleTexture.c,pug/CUDA50/0_Simple/simpleTexture/simpleTexture-5.log,error:unsupported-api
0,0.07,51.875,pug/CUDA50/0_Simple/simpleMultiCopy/simpleMultiCopy.c,pug/CUDA50/0_Simple/simpleMultiCopy/simpleMultiCopy-5.log,drf
0,0.07,50.9453125,pug/CUDA50/0_Simple/vectorAdd/vectorAdd.c,pug/CUDA50/0_Simple/vectorAdd/vectorAdd-5.log,drf
0,0.06,50.69140625,pug/CUDA50/0_Simple/simpleP2P/simpleP2P.c,pug/CUDA50/0_Simple/simpleP2P/simpleP2P-5.log,drf
134,0.17,50.67578125,pug/CUDA50/0_Simple/simpleSeparateCompilation/simpleSeparateCompilation.c,pug/CUDA50/0_Simple/simpleSeparateCompilation/simpleSeparateCompilation-5.log,error
0,0.07,51.078125,pug/CUDA50/0_Simple/simpleCallback/simpleCallback.c,pug/CUDA50/0_Simple/simpleCallback/simpleCallback-5.log,drf
0,0.07,51.125,pug/CUDA50/0_Simple/cppIntegration/kernel.c,pug/CUDA50/0_Simple/cppIntegration/kernel-5.log,drf
0,0.07,50.4296875,pug/CUDA50/0_Simple/cppIntegration/kernel2.c,pug/CUDA50/0_Simple/cppIntegration/kernel2-5.log,drf
0,0.06,50.1171875,pug/CUDA50/0_Simple/simpleMPI/simpleMPI.c,pug/CUDA50/0_Simple/simpleMPI/simpleMPI-5.log,drf
0,0.06,50.5625,pug/CUDA50/0_Simple/cudaOpenMP/cudaOpenMP.c,pug/CUDA50/0_Simple/cudaOpenMP/cudaOpenMP-5.log,drf
0,0.07,50.484375,pug/CUDA50/0_Simple/asyncAPI/asyncAPI.c,pug/CUDA50/0_Simple/asyncAPI/asyncAPI-5.log,drf
134,0.13,38.03515625,pug/CUDA50/0_Simple/simpleAtomicIntrinsics/simpleAtomicIntrinsics.c,pug/CUDA50/0_Simple/simpleAtomicIntrinsics/simpleAtomicIntrinsics-5.log,error:parser
0,0.06,50.51953125,pug/CUDA50/0_Simple/simpleIPC/simpleIPC.c,pug/CUDA50/0_Simple/simpleIPC/simpleIPC-5.log,drf
134,0.13,38.27734375,pug/CUDA50/0_Simple/simplePitchLinearTexture/shiftArray.c,pug/CUDA50/0_Simple/simplePitchLinearTexture/shiftArray-5.log,error:unsupported-api
134,0.13,38.296875,pug/CUDA50/0_Simple/simplePitchLinearTexture/shiftPitchLinear.c,pug/CUDA50/0_Simple/simplePitchLinearTexture/shiftPitchLinear-5.log,error:unsupported-api
134,0.13,38.41015625,pug/CUDA50/0_Simple/simpleLayeredTexture/simpleLayeredTexture.c,pug/CUDA50/0_Simple/simpleLayeredTexture/simpleLayeredTexture-5.log,error:unsupported-api
0,0.08,51.921875,pug/CUDA50/0_Simple/simpleMultiGPU/simpleMultiGPU.c,pug/CUDA50/0_Simple/simpleMultiGPU/simpleMultiGPU-5.log,drf
0,0.07,51.4375,pug/CUDA50/0_Simple/simpleStreams/simpleStreams.c,pug/CUDA50/0_Simple/simpleStreams/simpleStreams-5.log,drf
134,0.14,38.375,pug/CUDA50/2_Graphics/volumeRender/volumeRender.c,pug/CUDA50/2_Graphics/volumeRender/volumeRender-5.log,error:unsupported-api
134,0.13,38.12109375,pug/CUDA50/2_Graphics/bindlessTexture/bindlessTexture.c,pug/CUDA50/2_Graphics/bindlessTexture/bindlessTexture-5.log,error:unsupported-api
134,0.14,38.5625,pug/CUDA50/2_Graphics/marchingCubes/classifyVoxel.c,pug/CUDA50/2_Graphics/marchingCubes/classifyVoxel-5.log,error:unsupported-api
134,0.14,38.46875,pug/CUDA50/2_Graphics/volumeFiltering/d_render_preint_off.c,pug/CUDA50/2_Graphics/volumeFiltering/d_render_preint_off-5.log,error:template
134,0.14,38.1328125,pug/CUDA50/2_Graphics/volumeFiltering/d_render_preint.c,pug/CUDA50/2_Graphics/volumeFiltering/d_render_preint-5.log,error:template
134,0.14,38.36328125,pug/CUDA50/2_Graphics/volumeFiltering/d_render_regular.c,pug/CUDA50/2_Graphics/volumeFiltering/d_render_regular-5.log,error:template
134,0.13,38.0390625,pug/CUDA50/2_Graphics/simpleTexture3D/simpleTexture3D_kernel.c,pug/CUDA50/2_Graphics/simpleTexture3D/simpleTexture3D_kernel-5.log,error:unsupported-api
134,0.13,38.28515625,pug/CUDA50/2_Graphics/simpleGL/simpleGL.c,pug/CUDA50/2_Graphics/simpleGL/simpleGL-5.log,error:parser
0,0.13,53.01953125,pug/CUDA50/6_Advanced/concurrentKernels/sum.c,pug/CUDA50/6_Advanced/concurrentKernels/sum-5.log,drf
0,0.12,52.11328125,pug/CUDA50/6_Advanced/reduction/reduce1.c,pug/CUDA50/6_Advanced/reduction/reduce1-5.log,drf
134,0.13,38.29296875,pug/CUDA50/6_Advanced/reduction/reduce5.c,pug/CUDA50/6_Advanced/reduction/reduce5-5.log,error:template
0,0.12,53.109375,pug/CUDA50/6_Advanced/reduction/reduce0.c,pug/CUDA50/6_Advanced/reduction/reduce0-5.log,drf
0,0.11,52.375,pug/CUDA50/6_Advanced/reduction/reduce2.c,pug/CUDA50/6_Advanced/reduction/reduce2-5.log,drf
0,0.15,52.40234375,pug/CUDA50/6_Advanced/reduction/reduce3.c,pug/CUDA50/6_Advanced/reduction/reduce3-5.log,drf
139,0.27,52.15625,pug/CUDA50/6_Advanced/reduction/reduce4.c,pug/CUDA50/6_Advanced/reduction/reduce4-5.log,error
134,0.13,38.43359375,pug/CUDA50/6_Advanced/reduction/reduce6.c,pug/CUDA50/6_Advanced/reduction/reduce6-5.log,error:parser
134,0.14,38.28515625,pug/CUDA50/6_Advanced/mergeSort/mergeElementaryIntervalsKernel.c,pug/CUDA50/6_Advanced/mergeSort/mergeElementaryIntervalsKernel-5.log,error:template
134,0.13,38.07421875,pug/CUDA50/6_Advanced/mergeSort/mergeRanksAndIndicesKernel.c,pug/CUDA50/6_Advanced/mergeSort/mergeRanksAndIndicesKernel-5.log,error:template
134,0.13,38.12109375,pug/CUDA50/6_Advanced/mergeSort/generateSampleRanksKernel.c,pug/CUDA50/6_Advanced/mergeSort/generateSampleRanksKernel-5.log,error:template
139,0.19,52.34375,pug/CUDA50/6_Advanced/mergeSort/bitonicSortSharedKernel.c,pug/CUDA50/6_Advanced/mergeSort/bitonicSortSharedKernel-5.log,error
134,0.13,38.1640625,pug/CUDA50/6_Advanced/mergeSort/bitonicMergeElementaryIntervalsKernel.c,pug/CUDA50/6_Advanced/mergeSort/bitonicMergeElementaryIntervalsKernel-5.log,error:parser
134,0.13,38.46875,pug/CUDA50/6_Advanced/sortingNetworks/oddEvenMergeSortShared.c,pug/CUDA50/6_Advanced/sortingNetworks/oddEvenMergeSortShared-5.log,error:parser
134,0.13,38.28125,pug/CUDA50/6_Advanced/sortingNetworks/bitonicMergeGlobal.c,pug/CUDA50/6_Advanced/sortingNetworks/bitonicMergeGlobal-5.log,error:parser
134,0.13,38.5078125,pug/CUDA50/6_Advanced/sortingNetworks/bitonicSortShared.c,pug/CUDA50/6_Advanced/sortingNetworks/bitonicSortShared-5.log,error:parser
134,0.13,38.31640625,pug/CUDA50/6_Advanced/sortingNetworks/bitonicSortShared1.c,pug/CUDA50/6_Advanced/sortingNetworks/bitonicSortShared1-5.log,error:parser
134,0.14,38.34765625,pug/CUDA50/6_Advanced/sortingNetworks/oddEvenMergeGlobal.c,pug/CUDA50/6_Advanced/sortingNetworks/oddEvenMergeGlobal-5.log,error:parser
134,0.13,38.4921875,pug/CUDA50/6_Advanced/sortingNetworks/bitonicMergeShared.c,pug/CUDA50/6_Advanced/sortingNetworks/bitonicMergeShared-5.log,error:parser
0,0.07,51.3359375,pug/CUDA50/6_Advanced/segmentationTreeThrust/markSegments.c,pug/CUDA50/6_Advanced/segmentationTreeThrust/markSegments-5.log,drf
0,0.07,51.51953125,pug/CUDA50/6_Advanced/segmentationTreeThrust/getRepresentatives.c,pug/CUDA50/6_Advanced/segmentationTreeThrust/getRepresentatives-5.log,drf
0,0.08,51.36328125,pug/CUDA50/6_Advanced/segmentationTreeThrust/calculateEdgesInfo.c,pug/CUDA50/6_Advanced/segmentationTreeThrust/calculateEdgesInfo-5.log,drf
0,0.08,51.0859375,pug/CUDA50/6_Advanced/segmentationTreeThrust/makeNewEdges.c,pug/CUDA50/6_Advanced/segmentationTreeThrust/makeNewEdges-5.log,drf
0,0.07,51.25390625,pug/CUDA50/6_Advanced/segmentationTreeThrust/getSuccessors.c,pug/CUDA50/6_Advanced/segmentationTreeThrust/getSuccessors-5.log,drf
0,0.07,50.91015625,pug/CUDA50/6_Advanced/segmentationTreeThrust/addScalar.c,pug/CUDA50/6_Advanced/segmentationTreeThrust/addScalar-5.log,drf
134,0.13,38.02734375,pug/CUDA50/6_Advanced/segmentationTreeThrust/invalidateLoops.c,pug/CUDA50/6_Advanced/segmentationTreeThrust/invalidateLoops-5.log,error:parser
134,0.13,38.56640625,pug/CUDA50/6_Advanced/FunctionPointers/SobelShared.c,pug/CUDA50/6_Advanced/FunctionPointers/SobelShared-5.log,error:unsupported-api
134,0.13,38.40234375,pug/CUDA50/6_Advanced/FunctionPointers/SobelTex.c,pug/CUDA50/6_Advanced/FunctionPointers/SobelTex-5.log,error:unsupported-api
134,0.13,38.35546875,pug/CUDA50/6_Advanced/FunctionPointers/SobelCopyImage.c,pug/CUDA50/6_Advanced/FunctionPointers/SobelCopyImage-5.log,error:unsupported-api
134,0.13,38.32421875,pug/CUDA50/6_Advanced/threadFenceReduction/reduceMultiPass.c,pug/CUDA50/6_Advanced/threadFenceReduction/reduceMultiPass-5.log,error:parser
0,0.25,53.359375,pug/CUDA50/6_Advanced/scan/scanExclusiveShared.c,pug/CUDA50/6_Advanced/scan/scanExclusiveShared-5.log,drf
0,0.12,51.5390625,pug/CUDA50/6_Advanced/scan/uniformUpdate.c,pug/CUDA50/6_Advanced/scan/uniformUpdate-5.log,drf
134,0.14,38.47265625,pug/CUDA50/6_Advanced/scan/scanExclusiveShared2.c,pug/CUDA50/6_Advanced/scan/scanExclusiveShared2-5.log,error:parser
134,0.14,38.49609375,pug/CUDA50/6_Advanced/lineOfSight/computeAngles.c,pug/CUDA50/6_Advanced/lineOfSight/computeAngles-5.log,error:unsupported-api
0,0.07,51.0078125,pug/CUDA50/6_Advanced/lineOfSight/computeVisibilities.c,pug/CUDA50/6_Advanced/lineOfSight/computeVisibilities-5.log,drf
0,0.07,52.2265625,pug/CUDA50/6_Advanced/alignedTypes/alignedTypes.c,pug/CUDA50/6_Advanced/alignedTypes/alignedTypes-5.log,drf
134,0.13,38.28515625,pug/CUDA50/6_Advanced/eigenvalues/bisect_kernel_large_onei.c,pug/CUDA50/6_Advanced/eigenvalues/bisect_kernel_large_onei-5.log,error:template
134,0.19,52.55078125,pug/CUDA50/6_Advanced/scalarProd/scalarProd.c,pug/CUDA50/6_Advanced/scalarProd/scalarProd-5.log,error:yices
134,0.19,53.0078125,pug/CUDA50/6_Advanced/scalarProd/scalarProdIntraGroup.c,pug/CUDA50/6_Advanced/scalarProd/scalarProdIntraGroup-5.log,error:yices
134,0.13,38.1015625,pug/CUDA50/6_Advanced/FDTD3d/kernel.c,pug/CUDA50/6_Advanced/FDTD3d/kernel-5.log,error:parser
0,0.13,53.31640625,pug/CUDA50/6_Advanced/simpleHyperQ/sum.c,pug/CUDA50/6_Advanced/simpleHyperQ/sum-5.log,drf
139,0.17,50.45703125,pug/CUDA50/6_Advanced/shfl_scan/uniform_add.c,pug/CUDA50/6_Advanced/shfl_scan/uniform_add-5.log,error
134,0.21,53.19921875,pug/CUDA50/6_Advanced/shfl_scan/shfl_intimage_rows.c,pug/CUDA50/6_Advanced/shfl_scan/shfl_intimage_rows-5.log,error
134,0.13,38.10546875,pug/CUDA50/6_Advanced/shfl_scan/shfl_scan_test.c,pug/CUDA50/6_Advanced/shfl_scan/shfl_scan_test-5.log,error:parser
0,0.19,54.74609375,pug/CUDA50/6_Advanced/shfl_scan/shfl_vertical_shfl.c,pug/CUDA50/6_Advanced/shfl_scan/shfl_vertical_shfl-5.log,drf
0,0.19,52.8984375,pug/CUDA50/6_Advanced/transpose/transposeCoalesced.c,pug/CUDA50/6_Advanced/transpose/transposeCoalesced-5.log,drf
0,0.13,52.94921875,pug/CUDA50/6_Advanced/transpose/transposeNoBankConflicts.c,pug/CUDA50/6_Advanced/transpose/transposeNoBankConflicts-5.log,racy
0,0.11,52.26953125,pug/CUDA50/6_Advanced/transpose/transposeFineGrained.c,pug/CUDA50/6_Advanced/transpose/transposeFineGrained-5.log,racy
0,0.13,52.359375,pug/CUDA50/6_Advanced/transpose/transposeCoarseGrained.c,pug/CUDA50/6_Advanced/transpose/transposeCoarseGrained-5.log,racy
0,0.1,52.234375,pug/CUDA50/6_Advanced/transpose/copySharedMemFixed.c,pug/CUDA50/6_Advanced/transpose/copySharedMemFixed-5.log,racy
0,0.13,52.37890625,pug/CUDA50/6_Advanced/transpose/copySharedMem.c,pug/CUDA50/6_Advanced/transpose/copySharedMem-5.log,drf
0,0.08,52.4765625,pug/CUDA50/6_Advanced/transpose/copy.c,pug/CUDA50/6_Advanced/transpose/copy-5.log,drf
0,0.17,54.65625,pug/CUDA50/6_Advanced/transpose/transposeDiagonal.c,pug/CUDA50/6_Advanced/transpose/transposeDiagonal-5.log,drf
0,0.08,51.78515625,pug/CUDA50/6_Advanced/transpose/transposeNaive.c,pug/CUDA50/6_Advanced/transpose/transposeNaive-5.log,racy
0,0.08,52.15625,pug/CUDA50/6_Advanced/fastWalshTransform/modulateKernel.c,pug/CUDA50/6_Advanced/fastWalshTransform/modulateKernel-5.log,drf
134,0.21,52.890625,pug/CUDA50/6_Advanced/fastWalshTransform/fwtBatch1Kernel.c,pug/CUDA50/6_Advanced/fastWalshTransform/fwtBatch1Kernel-5.log,error:yices
0,0.06,50.6328125,pug/CUDA50/6_Advanced/fastWalshTransform/fwtBatch2Kernel.c,pug/CUDA50/6_Advanced/fastWalshTransform/fwtBatch2Kernel-5.log,drf
134,0.14,38.5078125,pug/CUDA50/3_Imaging/convolutionFFT2D/padKernel_kernel.c,pug/CUDA50/3_Imaging/convolutionFFT2D/padKernel_kernel-5.log,error:unsupported-api
134,0.14,38.2109375,pug/CUDA50/3_Imaging/convolutionFFT2D/spPostprocess2D_kernel.c,pug/CUDA50/3_Imaging/convolutionFFT2D/spPostprocess2D_kernel-5.log,error:unsupported-api
134,0.14,38.48828125,pug/CUDA50/3_Imaging/convolutionFFT2D/modulateAndNormalize_kernel.c,pug/CUDA50/3_Imaging/convolutionFFT2D/modulateAndNormalize_kernel-5.log,error:unsupported-api
134,0.13,38.40625,pug/CUDA50/3_Imaging/convolutionFFT2D/spPreprocess2D_kernel.c,pug/CUDA50/3_Imaging/convolutionFFT2D/spPreprocess2D_kernel-5.log,error:unsupported-api
134,0.14,38.375,pug/CUDA50/3_Imaging/convolutionFFT2D/spProcess2D_kernel.c,pug/CUDA50/3_Imaging/convolutionFFT2D/spProcess2D_kernel-5.log,error:unsupported-api
134,0.14,38.14453125,pug/CUDA50/3_Imaging/convolutionFFT2D/padDataClampToBorder_kernel.c,pug/CUDA50/3_Imaging/convolutionFFT2D/padDataClampToBorder_kernel-5.log,error:unsupported-api
134,0.13,38.19921875,pug/CUDA50/3_Imaging/imageDenoising/imageDenoising_nlm2_kernel.c,pug/CUDA50/3_Imaging/imageDenoising/imageDenoising_nlm2_kernel-5.log,error:unsupported-api
134,0.13,38.40234375,pug/CUDA50/3_Imaging/imageDenoising/imageDenoising_knn_kernel.c,pug/CUDA50/3_Imaging/imageDenoising/imageDenoising_knn_kernel-5.log,error:unsupported-api
134,0.14,38.58984375,pug/CUDA50/3_Imaging/imageDenoising/imageDenoising_nlm_kernel.c,pug/CUDA50/3_Imaging/imageDenoising/imageDenoising_nlm_kernel-5.log,error:unsupported-api
134,0.13,38.4296875,pug/CUDA50/3_Imaging/imageDenoising/imageDenoising_copy_kernel.c,pug/CUDA50/3_Imaging/imageDenoising/imageDenoising_copy_kernel-5.log,error:unsupported-api
0,0.11,52.51171875,pug/CUDA50/3_Imaging/histogram/mergeHistogram64Kernel.c,pug/CUDA50/3_Imaging/histogram/mergeHistogram64Kernel-5.log,drf
134,0.18,52.4453125,pug/CUDA50/3_Imaging/histogram/histogram256.c,pug/CUDA50/3_Imaging/histogram/histogram256-5.log,error:yices
134,0.18,53.01171875,pug/CUDA50/3_Imaging/histogram/histogram64.c,pug/CUDA50/3_Imaging/histogram/histogram64-5.log,error
0,0.11,52.1328125,pug/CUDA50/3_Imaging/histogram/mergeHistogram256Kernel.c,pug/CUDA50/3_Imaging/histogram/mergeHistogram256Kernel-5.log,drf
134,0.14,38.34375,pug/CUDA50/3_Imaging/bicubicTexture/d_render.c,pug/CUDA50/3_Imaging/bicubicTexture/d_render-5.log,error:unsupported-api
134,0.14,38.53125,pug/CUDA50/3_Imaging/bicubicTexture/d_renderFastBicubic.c,pug/CUDA50/3_Imaging/bicubicTexture/d_renderFastBicubic-5.log,error:unsupported-api
134,0.14,38.3359375,pug/CUDA50/3_Imaging/bicubicTexture/d_renderCatRom.c,pug/CUDA50/3_Imaging/bicubicTexture/d_renderCatRom-5.log,error:unsupported-api
134,0.14,38.3515625,pug/CUDA50/3_Imaging/bicubicTexture/d_renderBicubic.c,pug/CUDA50/3_Imaging/bicubicTexture/d_renderBicubic-5.log,error:unsupported-api
134,0.13,38.4921875,pug/CUDA50/3_Imaging/postProcessGL/postProcessGL.c,pug/CUDA50/3_Imaging/postProcessGL/postProcessGL-5.log,error:unsupported-api
0,0.2,53.44140625,pug/CUDA50/3_Imaging/dwtHaar1D/dwtHaar1D.c,pug/CUDA50/3_Imaging/dwtHaar1D/dwtHaar1D-5.log,drf
0,0.07,51.0234375,pug/CUDA50/3_Imaging/dwtHaar1D/initValue.c,pug/CUDA50/3_Imaging/dwtHaar1D/initValue-5.log,drf
139,0.19,52.71875,pug/CUDA50/3_Imaging/convolutionSeparable/convolutionColumnsKernel.c,pug/CUDA50/3_Imaging/convolutionSeparable/convolutionColumnsKernel-5.log,error
139,0.19,52.95703125,pug/CUDA50/3_Imaging/convolutionSeparable/convolutionRowsKernel.c,pug/CUDA50/3_Imaging/convolutionSeparable/convolutionRowsKernel-5.log,error
134,0.13,38.1875,pug/CUDA50/3_Imaging/recursiveGaussian/d_recursiveGaussian_rgba.c,pug/CUDA50/3_Imaging/recursiveGaussian/d_recursiveGaussian_rgba-5.log,error:parser
134,0.13,38.4921875,pug/CUDA50/3_Imaging/recursiveGaussian/d_simpleRecursive_rgba.c,pug/CUDA50/3_Imaging/recursiveGaussian/d_simpleRecursive_rgba-5.log,error:parser
0,0.12,51.921875,pug/CUDA50/3_Imaging/recursiveGaussian/d_transpose.c,pug/CUDA50/3_Imaging/recursiveGaussian/d_transpose-5.log,drf
134,0.13,38.34765625,pug/CUDA50/3_Imaging/bilateralFilter/bilateralFilter.c,pug/CUDA50/3_Imaging/bilateralFilter/bilateralFilter-5.log,error:unsupported-api
134,0.13,38.07421875,pug/CUDA50/3_Imaging/HSOpticalFlow/downscaleKernel.c,pug/CUDA50/3_Imaging/HSOpticalFlow/downscaleKernel-5.log,error:unsupported-api
134,0.13,38.26171875,pug/CUDA50/3_Imaging/HSOpticalFlow/upscaleKernel.c,pug/CUDA50/3_Imaging/HSOpticalFlow/upscaleKernel-5.log,error:unsupported-api
134,0.13,38.10546875,pug/CUDA50/3_Imaging/HSOpticalFlow/derivativesKernel.c,pug/CUDA50/3_Imaging/HSOpticalFlow/derivativesKernel-5.log,error:unsupported-api
134,0.13,38.03125,pug/CUDA50/3_Imaging/HSOpticalFlow/warpingKernel.c,pug/CUDA50/3_Imaging/HSOpticalFlow/warpingKernel-5.log,error:unsupported-api
134,0.52,52.21484375,pug/CUDA50/3_Imaging/HSOpticalFlow/solverKernel.c,pug/CUDA50/3_Imaging/HSOpticalFlow/solverKernel-5.log,error:yices
139,0.17,50.30859375,pug/CUDA50/3_Imaging/HSOpticalFlow/addKernel.c,pug/CUDA50/3_Imaging/HSOpticalFlow/addKernel-5.log,error
134,0.13,38.3828125,pug/CUDA50/3_Imaging/convolutionTexture/convolutionColumnsKernel.c,pug/CUDA50/3_Imaging/convolutionTexture/convolutionColumnsKernel-5.log,error:unsupported-api
134,0.13,38.38671875,pug/CUDA50/3_Imaging/convolutionTexture/convolutionRowsKernel.c,pug/CUDA50/3_Imaging/convolutionTexture/convolutionRowsKernel-5.log,error:unsupported-api
134,0.13,38.19140625,pug/CUDA50/3_Imaging/boxFilter/d_boxfilter_rgba_y.c,pug/CUDA50/3_Imaging/boxFilter/d_boxfilter_rgba_y-5.log,error:unsupported-api
134,0.13,38.51171875,pug/CUDA50/3_Imaging/boxFilter/d_boxfilter_x_tex.c,pug/CUDA50/3_Imaging/boxFilter/d_boxfilter_x_tex-5.log,error:unsupported-api
0,0.17,55.30859375,pug/CUDA50/3_Imaging/boxFilter/d_boxfilter_x_global.c,pug/CUDA50/3_Imaging/boxFilter/d_boxfilter_x_global-5.log,drf
134,0.14,38.3515625,pug/CUDA50/3_Imaging/boxFilter/d_boxfilter_y_global.c,pug/CUDA50/3_Imaging/boxFilter/d_boxfilter_y_global-5.log,error:unsupported-api
134,0.13,38.58203125,pug/CUDA50/3_Imaging/boxFilter/d_boxfilter_y_tex.c,pug/CUDA50/3_Imaging/boxFilter/d_boxfilter_y_tex-5.log,error:unsupported-api
134,0.13,38.203125,pug/CUDA50/3_Imaging/boxFilter/d_boxfilter_rgba_x.c,pug/CUDA50/3_Imaging/boxFilter/d_boxfilter_rgba_x-5.log,error:unsupported-api
134,0.13,38.42578125,pug/CUDA50/3_Imaging/SobelFilter/SobelShared.c,pug/CUDA50/3_Imaging/SobelFilter/SobelShared-5.log,error:unsupported-api
134,0.13,38.3671875,pug/CUDA50/3_Imaging/SobelFilter/SobelTex.c,pug/CUDA50/3_Imaging/SobelFilter/SobelTex-5.log,error:unsupported-api
134,0.13,38.296875,pug/CUDA50/3_Imaging/SobelFilter/SobelCopyImage.c,pug/CUDA50/3_Imaging/SobelFilter/SobelCopyImage-5.log,error:unsupported-api
134,0.19,51.9765625,pug/CUDA50/3_Imaging/dct8x8/CUDAkernel2IDCT.c,pug/CUDA50/3_Imaging/dct8x8/CUDAkernel2IDCT-5.log,error
134,0.13,38.12109375,pug/CUDA50/3_Imaging/dct8x8/CUDAkernel1DCT.c,pug/CUDA50/3_Imaging/dct8x8/CUDAkernel1DCT-5.log,error:unsupported-api
134,0.13,38.7265625,pug/CUDA50/3_Imaging/dct8x8/CUDAkernelShortDCT.c,pug/CUDA50/3_Imaging/dct8x8/CUDAkernelShortDCT-5.log,error:parser
134,0.14,38.7421875,pug/CUDA50/3_Imaging/dct8x8/CUDAkernelShortIDCT.c,pug/CUDA50/3_Imaging/dct8x8/CUDAkernelShortIDCT-5.log,error:parser
134,0.19,52.0234375,pug/CUDA50/3_Imaging/dct8x8/CUDAkernel2DCT.c,pug/CUDA50/3_Imaging/dct8x8/CUDAkernel2DCT-5.log,error
134,0.22,52.7421875,pug/CUDA50/3_Imaging/dct8x8/CUDAkernelQuantizationShort.c,pug/CUDA50/3_Imaging/dct8x8/CUDAkernelQuantizationShort-5.log,error:yices
134,0.13,38.08203125,pug/CUDA50/3_Imaging/dct8x8/CUDAkernel1IDCT.c,pug/CUDA50/3_Imaging/dct8x8/CUDAkernel1IDCT-5.log,error:unsupported-api
0,0.09,51.90625,pug/CUDA50/3_Imaging/dct8x8/CUDAkernelQuantizationFloat.c,pug/CUDA50/3_Imaging/dct8x8/CUDAkernelQuantizationFloat-5.log,drf
134,0.13,38.3125,pug/gpgpu-sim_ispass2009/DG/MaxwellsGPU_SURF_Kernel3D/kernel.c,pug/gpgpu-sim_ispass2009/DG/MaxwellsGPU_SURF_Kernel3D/kernel-5.log,error:unsupported-api
134,0.13,38.48828125,pug/gpgpu-sim_ispass2009/DG/MaxwellsGPU_RK_Kernel3D/kernel.c,pug/gpgpu-sim_ispass2009/DG/MaxwellsGPU_RK_Kernel3D/kernel-5.log,error:unsupported-api
134,0.13,38.3984375,pug/gpgpu-sim_ispass2009/DG/partial_get_kernel3d/kernel.c,pug/gpgpu-sim_ispass2009/DG/partial_get_kernel3d/kernel-5.log,error:unsupported-api
134,0.14,38.75,pug/gpgpu-sim_ispass2009/DG/MaxwellsGPU_VOL_Kernel3D/kernel.c,pug/gpgpu-sim_ispass2009/DG/MaxwellsGPU_VOL_Kernel3D/kernel-5.log,error:unsupported-api
0,0.08,51.25390625,pug/gpgpu-sim_ispass2009/NN/executeFourthLayer.c,pug/gpgpu-sim_ispass2009/NN/executeFourthLayer-5.log,drf
0,0.15,52.44140625,pug/gpgpu-sim_ispass2009/NN/executeSecondLayer.c,pug/gpgpu-sim_ispass2009/NN/executeSecondLayer-5.log,drf
0,0.07,51.6328125,pug/gpgpu-sim_ispass2009/NN/executeThirdLayer.c,pug/gpgpu-sim_ispass2009/NN/executeThirdLayer-5.log,drf
0,0.07,51.453125,pug/gpgpu-sim_ispass2009/NN/executeFirstLayer.c,pug/gpgpu-sim_ispass2009/NN/executeFirstLayer-5.log,drf
0,0.09,52.68359375,pug/gpgpu-sim_ispass2009/CP/cuda_base/cuenergy_pre.c,pug/gpgpu-sim_ispass2009/CP/cuda_base/cuenergy_pre-5.log,drf
134,0.21,52.48046875,pug/gpgpu-sim_ispass2009/CP/cuda_short/cuenergy_pre8_coalesce.c,pug/gpgpu-sim_ispass2009/CP/cuda_short/cuenergy_pre8_coalesce-5.log,error:yices
134,0.21,52.40625,pug/gpgpu-sim_ispass2009/CP/cuda/cuenergy_pre8_coalesce.c,pug/gpgpu-sim_ispass2009/CP/cuda/cuenergy_pre8_coalesce-5.log,error:yices
134,0.14,38.55859375,pug/gpgpu-sim_ispass2009/WP/generated.c,pug/gpgpu-sim_ispass2009/WP/generated-5.log,error:parser
0,0.12,55.2109375,pug/gpgpu-sim_ispass2009/LIB/Pathcalc_Portfolio_KernelGPU2/kernel.c,pug/gpgpu-sim_ispass2009/LIB/Pathcalc_Portfolio_KernelGPU2/kernel-5.log,drf
0,0.16,54.6484375,pug/gpgpu-sim_ispass2009/LIB/Pathcalc_Portfolio_KernelGPU/kernel.c,pug/gpgpu-sim_ispass2009/LIB/Pathcalc_Portfolio_KernelGPU/kernel-5.log,drf
134,0.14,40.08984375,pug/gpgpu-sim_ispass2009/AES/aesDecrypt256_kernel/kernel.c,pug/gpgpu-sim_ispass2009/AES/aesDecrypt256_kernel/kernel-5.log,error:unsupported-api
134,0.14,39.7890625,pug/gpgpu-sim_ispass2009/AES/aesEncrypt256_kernel/kernel.c,pug/gpgpu-sim_ispass2009/AES/aesEncrypt256_kernel/kernel-5.log,error:unsupported-api
134,0.14,39.93359375,pug/gpgpu-sim_ispass2009/AES/aesDecrypt128_kernel/kernel.c,pug/gpgpu-sim_ispass2009/AES/aesDecrypt128_kernel/kernel-5.log,error:unsupported-api
134,0.14,39.89453125,pug/gpgpu-sim_ispass2009/AES/aesEncrypt128_kernel/kernel.c,pug/gpgpu-sim_ispass2009/AES/aesEncrypt128_kernel/kernel-5.log,error:unsupported-api
134,0.14,38.4453125,pug/gpgpu-sim_ispass2009/RAY/color.c,pug/gpgpu-sim_ispass2009/RAY/color-5.log,error:parser
134,0.14,37.48828125,pug/gpgpu-sim_ispass2009/RAY/render.c,pug/gpgpu-sim_ispass2009/RAY/render-5.log,error
134,0.14,37.47265625,pug/gpgpu-sim_ispass2009/RAY/d_render.c,pug/gpgpu-sim_ispass2009/RAY/d_render-5.log,error
134,0.14,37.21484375,pug/gpgpu-sim_ispass2009/RAY/renderPixel.c,pug/gpgpu-sim_ispass2009/RAY/renderPixel-5.log,error
134,0.14,38.65234375,pug/gpgpu-sim_ispass2009/RAY/rayTrace.c,pug/gpgpu-sim_ispass2009/RAY/rayTrace-5.log,error:parser
134,0.14,38.4375,pug/gpgpu-sim_ispass2009/RAY/rayCalc.c,pug/gpgpu-sim_ispass2009/RAY/rayCalc-5.log,error:parser
134,0.14,38.25390625,pug/gpgpu-sim_ispass2009/RAY/rayCast.c,pug/gpgpu-sim_ispass2009/RAY/rayCast-5.log,error:parser
134,0.19,52.53515625,pug/gpgpu-sim_ispass2009/LPS/laplace3d_kernel.c,pug/gpgpu-sim_ispass2009/LPS/laplace3d_kernel-5.log,error:yices
0,0.4,53.921875,pug/gpgpu-sim_ispass2009/NQU/nqueen.c,pug/gpgpu-sim_ispass2009/NQU/nqueen-5.log,drf
134,0.13,38.39453125,pug/gpgpu-sim_ispass2009/MUM/mummergpuRCKernel.c,pug/gpgpu-sim_ispass2009/MUM/mummergpuRCKernel-5.log,error:unsupported-api
134,0.13,38.57421875,pug/gpgpu-sim_ispass2009/MUM/mummergpuKernel.c,pug/gpgpu-sim_ispass2009/MUM/mummergpuKernel-5.log,error:unsupported-api
139,0.37,57.1171875,pug/gpgpu-sim_ispass2009/STO/sha1.c,pug/gpgpu-sim_ispass2009/STO/sha1-5.log,error
134,0.13,38.71484375,pug/gpgpu-sim_ispass2009/STO/md5_overlap.c,pug/gpgpu-sim_ispass2009/STO/md5_overlap-5.log,error:parser
139,0.38,57.53125,pug/gpgpu-sim_ispass2009/STO/sha1_overlap.c,pug/gpgpu-sim_ispass2009/STO/sha1_overlap-5.log,error
134,0.13,39.0703125,pug/gpgpu-sim_ispass2009/STO/md5.c,pug/gpgpu-sim_ispass2009/STO/md5-5.log,error:parser
