"/artifact/datasets/gpuverify-cav14/pug/C++AMP/BinomialOptions/kernel.c", line 130: warning: 
          attribute "always_inline" ignored
  static __attribute__((always_inline)) __device__ float expiry_call_value(float s, float x, float vdt, int t)
                        ^

"/artifact/datasets/gpuverify-cav14/pug/C++AMP/BinomialOptions/kernel.c", line 130: warning: 
          type qualifier on return type is meaningless
  static __attribute__((always_inline)) __device__ float expiry_call_value(float s, float x, float vdt, int t)
                                                         ^

"/artifact/datasets/gpuverify-cav14/pug/C++AMP/BinomialOptions/kernel.c", line 151: warning: 
          function "kernel" was declared but never referenced
  __global__ void kernel (float* s, float* x, float* vdt, float* pu_by_df, float* pd_by_df, float* call_value, float* call_buffer) {
                  ^

>>>> start analysis ... 


-------------------------------------------------------
Invalid OVERFLOW_PROTECTION flag in config.txt!
Setting OVERFLOW_PROTECTION flag to on
-------------------------------------------------------

-------------------------------------------------------
Invalid NBITS value in config.txt!
Setting NBITS value to 10
-------------------------------------------------------

-------------------------------------------------------
Invalid USE_INCRSMT flag in config.txt!
Setting USE_INCRSMT flag to false
-------------------------------------------------------


-------------------------------------------------------
Invalid USE_LOOP_REFINEMENT flag in config.txt!
Setting USE_LOOP_REFINEMENT flag to true
-------------------------------------------------------


-------------------------------------------------------
Invalid SLICE_ARRAYS flag in config.txt!
Setting SLICE_ARRAYS flag to true
-------------------------------------------------------


-------------------------------------------------------
Invalid USE_ASSUMES flag in config.txt!
Setting USE_ASSUMES flag to true
-------------------------------------------------------


-------------------------------------------------------
Invalid CHK_BANK_CONFLICTS option in config.txt!
Setting CHK_BANK_CONFLICTS option to false
-------------------------------------------------------

Debug level (verbosity) set to 0


Processing function: kernel

FunctionCall: assume(((blockDim.x) ==(256)))
Assuming bdim.x == 256

FunctionCall: assume(((gridDim.x) ==(512)))
Assuming gdim.x == 512
containBarrierFlag = 1
incrExpr = index += 256
rhs = 256SgIntVal
------------- Linear incrExpr
var = !1^index0; lb = tid1; ub = 2048; stride = 256
rangeExpr = ((tid1 <= 2048) && ((!1^index0 >= 0) && (!1^index0 <= ((2048 - tid1) >> 8)))); substExpr = !1^index1 == ((!1^index0 << 8) + tid1)

Binary OP: call_buffer[idxA] = expiry_call_value((s[tile_idx]),(x[tile_idx]),(vdt[tile_idx]),index)
passing argument: (!2^s0 := s0[tile_idx1])
passing argument: (!2^x0 := x0[tile_idx1])
passing argument: (!2^vdt0 := vdt0[tile_idx1])
passing argument: (!2^t0 := !1^index1)
returning: ite((!2^d0 > 0),{!2^d0},{0})
containBarrierFlag = 1
incrExpr = i -=(2 * 16)
rhs = (2 * 16)SgIntVal
------------- Linear incrExpr
var = !3^i0; lb = (0 + 1); ub = 2048; stride = 32
rangeExpr = (((0 + 1) <= 2048) && ((!3^i0 >= 0) && (!3^i0 <= ((2048 - (0 + 1)) >> 5)))); substExpr = !3^i1 == ((!3^i0 << 5) + (0 + 1))
containBarrierFlag = 1
incrExpr = c_base +=(256 -(2 * 16))
rhs = (256 -(2 * 16))SgIntVal
------------- Linear incrExpr
var = !4^c_base0; lb = 0; ub = (!3^i1 - 1); stride = 224
rangeExpr = ((0 <= (!3^i1 - 1)) && ((!4^c_base0 >= 0) && (!4^c_base0 <= (((!3^i1 - 1) - 0) / 224)))); substExpr = !4^c_base1 == ((!4^c_base0 * 224) + 0)

FunctionCall: __syncthreads()
Equation: (= (bv-sub (bv-sub !3^i1 0b0000000001) 0b0000000000)
   (bv-add (bv-mul 0b0011100000 v#1) v#0))
Equation: (= (bv-sub (bv-sub !3^i1 0b0000000001) 0b0000000000)
   (bv-add (bv-mul 0b0011100000 v#3) v#2))
unsatisfiable

Binary OP: call_a[tid] =(call_buffer[idxB])
containBarrierFlag = 1
incrExpr = 
rangeExpr = ; substExpr = 

FunctionCall: __syncthreads()
Equation: (= (bv-sub (bv-sub !3^i1 0b0000000001) 0b0000000000)
   (bv-add (bv-mul 0b0011100000 v#5) v#4))
Equation: (= (bv-sub (bv-sub !3^i1 0b0000000001) 0b0000000000)
   (bv-add (bv-mul 0b0011100000 v#7) v#6))
unsatisfiable

Binary OP: call_b[tid] =(((pu_by_df[tile_idx]) *(call_a[tid + 1])) +((pd_by_df[tile_idx]) *(call_a[tid])))

UNARY OP: k--

FunctionCall: __syncthreads()
Equation: (= (bv-sub (bv-sub !3^i1 0b0000000001) 0b0000000000)
   (bv-add (bv-mul 0b0011100000 v#9) v#8))
Equation: (= (bv-sub (bv-sub !3^i1 0b0000000001) 0b0000000000)
   (bv-add (bv-mul 0b0011100000 v#11) v#10))
unsatisfiable

Binary OP: call_a[tid] =(((pu_by_df[tile_idx]) *(call_b[tid + 1])) +((pd_by_df[tile_idx]) *(call_b[tid])))

UNARY OP: k--

FunctionCall: __syncthreads()
Equation: (= (bv-sub (bv-sub !3^i1 0b0000000001) 0b0000000000)
   (bv-add (bv-mul 0b0011100000 v#13) v#12))
Equation: (= (bv-sub (bv-sub !3^i1 0b0000000001) 0b0000000000)
   (bv-add (bv-mul 0b0011100000 v#15) v#14))
unsatisfiable

Binary OP: call_buffer[idxC] =(call_a[tid])

Binary OP: call_value[tile_idx] =(call_a[0])

Reaching the end of the kernel
Equation: (= (bv-sub (bv-sub !3^i1 0b0000000001) 0b0000000000)
   (bv-add (bv-mul 0b0011100000 v#17) v#16))
Equation: (= (bv-sub (bv-sub !3^i1 0b0000000001) 0b0000000000)
   (bv-add (bv-mul 0b0011100000 v#19) v#18))
unsatisfiable


#####################################################################

No races or synchronization errors were found.

Max instance solving time = 7.6e-05s
Total solving time = 0.000326s

#####################################################################

