Configuration: concurrency bug checking level is: 2
KLEE: output directory = "klee-out-0"
KLEE: WARNING: undefined reference to function: __clear_device
KLEE: WARNING: undefined reference to function: __clear_host
KLEE: WARNING: undefined reference to function: __set_CUDAConfig
KLEE: WARNING: undefined reference to function: __set_device
KLEE: WARNING: undefined reference to function: __set_host
KLEE: WARNING: undefined reference to variable: threadIdx

[GKLEE]: The configuration, Grid: <1, 1, 1>, Block: <64, 1, 1>
KLEE: WARNING: silently concretizing (reason: floating point) expression (ReadLSB w32 N0:(Extract w32 0 (Mul w64 4
                                        (ZExt w64 (ReadLSB w32 0 tid_arr_k0_0)))) const_arr1) to value 2880154539 (/home/verify/datasets/micro-benchmarks/barriers-26.cpp:11)

[GKLEE]: Start executing a GPU kernel 

Thread 0 reaches a barrier: moving to the next thread.

[GKLEE]: ********** (Symbolic Configuration) Start checking bank conflicts at SharedMemory  **********
[GKLEE]: The read set is empty in bank conflict checking for capability 2.x
[GKLEE]: The write set is empty in bank conflict checking for capability 2.x
[GKLEE]: ********** No Bank Conflict found at this SharedMemory **********

[GKLEE]: ********** (Symbolic Configuration) Start checking coalesced device memory access at capability: 2.x **********
[GKLEE]: ********** All memory accesses are coalesced at capability: 2.x **********

[GKLEE]: ********** (Symbolic Configuration) Start checking warp divergence  **********
[GKLEE]: ********** Warp Divergence not found for this kernel **********

[GKLEE]: ********** (Symbolic Config) Start checking missed volatile at SharedMemory  ********** 
[GKLEE]: ********** No 'Volatile' Qualifier Missed at this SharedMemory **********

[GKLEE]: ********** (Symbolic Config) Start checking races at SharedMemory  **********
[GKLEE]: ++++++++++ Read-Write race checking (Pure Canonical Schedule) ++++++++++
[GKLEE]: ++++++++++ Write-Write race checking (Pure Canonical Schedule) ++++++++++
[GKLEE]: ********** no races found at SharedMemory ***********

[GKLEE]: ********** (Symbolic Config) Start checking races at DeviceMemory (Within Same Block)  **********
[GKLEE]: ++++++++++ Read-Write race checking (Pure Canonical Schedule) ++++++++++
[GKLEE]: ++++++++++ Write-Write race checking (Pure Canonical Schedule) ++++++++++
[GKLEE]: ********* no races found at DeviceMemory **********
[GKLEE]: Within the current Barrier Interval, 1 flows are used to represent all threads !
[GKLEE]: In Barrier Interval 1, Elapsed time for symbolic configuration (Parametric Flow): 0.023367
Thread 0 reaches a barrier: moving to the next thread.

[GKLEE]: ********** (Symbolic Configuration) Start checking bank conflicts at SharedMemory  **********
[GKLEE]: The read set is empty in bank conflict checking for capability 2.x
[GKLEE]: The write set is empty in bank conflict checking for capability 2.x
[GKLEE]: ********** No Bank Conflict found at this SharedMemory **********

[GKLEE]: ********** (Symbolic Configuration) Start checking coalesced device memory access at capability: 2.x **********
[GKLEE]: ********** All memory accesses are coalesced at capability: 2.x **********

[GKLEE]: ********** (Symbolic Configuration) Start checking warp divergence  **********
[GKLEE]: ********** Warp Divergence not found for this kernel **********

[GKLEE]: ********** (Symbolic Config) Start checking missed volatile at SharedMemory  ********** 
[GKLEE]: ********** No 'Volatile' Qualifier Missed at this SharedMemory **********

[GKLEE]: ********** (Symbolic Config) Start checking races at SharedMemory  **********
[GKLEE]: ++++++++++ Read-Write race checking (Pure Canonical Schedule) ++++++++++
[GKLEE]: ++++++++++ Write-Write race checking (Pure Canonical Schedule) ++++++++++
[GKLEE]: ********** no races found at SharedMemory ***********

[GKLEE]: ********** (Symbolic Config) Start checking races at DeviceMemory (Within Same Block)  **********
[GKLEE]: ++++++++++ Read-Write race checking (Pure Canonical Schedule) ++++++++++
[GKLEE]: ++++++++++ Write-Write race checking (Pure Canonical Schedule) ++++++++++
[GKLEE]: ********* no races found at DeviceMemory **********
[GKLEE]: Within the current Barrier Interval, 1 flows are used to represent all threads !
[GKLEE]: In Barrier Interval 2, Elapsed time for symbolic configuration (Parametric Flow): 0.006426
Thread 0 reaches a barrier: moving to the next thread.

[GKLEE]: ********** (Symbolic Configuration) Start checking bank conflicts at SharedMemory  **********
[GKLEE]: The read set is empty in bank conflict checking for capability 2.x
[GKLEE]: The write set is empty in bank conflict checking for capability 2.x
[GKLEE]: ********** No Bank Conflict found at this SharedMemory **********

[GKLEE]: ********** (Symbolic Configuration) Start checking coalesced device memory access at capability: 2.x **********
[GKLEE]: ********** All memory accesses are coalesced at capability: 2.x **********

[GKLEE]: ********** (Symbolic Configuration) Start checking warp divergence  **********
[GKLEE]: ********** Warp Divergence not found for this kernel **********

[GKLEE]: ********** (Symbolic Config) Start checking missed volatile at SharedMemory  ********** 
[GKLEE]: ********** No 'Volatile' Qualifier Missed at this SharedMemory **********

[GKLEE]: ********** (Symbolic Config) Start checking races at SharedMemory  **********
[GKLEE]: ++++++++++ Read-Write race checking (Pure Canonical Schedule) ++++++++++
[GKLEE]: ++++++++++ Write-Write race checking (Pure Canonical Schedule) ++++++++++
[GKLEE]: ********** no races found at SharedMemory ***********

[GKLEE]: ********** (Symbolic Config) Start checking races at DeviceMemory (Within Same Block)  **********
[GKLEE]: ++++++++++ Read-Write race checking (Pure Canonical Schedule) ++++++++++
[GKLEE]: ++++++++++ Write-Write race checking (Pure Canonical Schedule) ++++++++++
[GKLEE]: ********* no races found at DeviceMemory **********
[GKLEE]: Within the current Barrier Interval, 1 flows are used to represent all threads !
[GKLEE]: In Barrier Interval 3, Elapsed time for symbolic configuration (Parametric Flow): 0.006386
Thread 0 reaches a barrier: moving to the next thread.

[GKLEE]: ********** (Symbolic Configuration) Start checking bank conflicts at SharedMemory  **********
[GKLEE]: The read set is empty in bank conflict checking for capability 2.x
[GKLEE]: The write set is empty in bank conflict checking for capability 2.x
[GKLEE]: ********** No Bank Conflict found at this SharedMemory **********

[GKLEE]: ********** (Symbolic Configuration) Start checking coalesced device memory access at capability: 2.x **********
[GKLEE]: ********** All memory accesses are coalesced at capability: 2.x **********

[GKLEE]: ********** (Symbolic Configuration) Start checking warp divergence  **********
[GKLEE]: ********** Warp Divergence not found for this kernel **********

[GKLEE]: ********** (Symbolic Config) Start checking missed volatile at SharedMemory  ********** 
[GKLEE]: ********** No 'Volatile' Qualifier Missed at this SharedMemory **********

[GKLEE]: ********** (Symbolic Config) Start checking races at SharedMemory  **********
[GKLEE]: ++++++++++ Read-Write race checking (Pure Canonical Schedule) ++++++++++
[GKLEE]: ++++++++++ Write-Write race checking (Pure Canonical Schedule) ++++++++++
[GKLEE]: ********** no races found at SharedMemory ***********

[GKLEE]: ********** (Symbolic Config) Start checking races at DeviceMemory (Within Same Block)  **********
[GKLEE]: ++++++++++ Read-Write race checking (Pure Canonical Schedule) ++++++++++
[GKLEE]: ++++++++++ Write-Write race checking (Pure Canonical Schedule) ++++++++++
[GKLEE]: ********* no races found at DeviceMemory **********
[GKLEE]: Within the current Barrier Interval, 1 flows are used to represent all threads !
[GKLEE]: In Barrier Interval 4, Elapsed time for symbolic configuration (Parametric Flow): 0.006343
Thread 0 reaches a barrier: moving to the next thread.

[GKLEE]: ********** (Symbolic Configuration) Start checking bank conflicts at SharedMemory  **********
[GKLEE]: The read set is empty in bank conflict checking for capability 2.x
[GKLEE]: The write set is empty in bank conflict checking for capability 2.x
[GKLEE]: ********** No Bank Conflict found at this SharedMemory **********

[GKLEE]: ********** (Symbolic Configuration) Start checking coalesced device memory access at capability: 2.x **********
[GKLEE]: ********** All memory accesses are coalesced at capability: 2.x **********

[GKLEE]: ********** (Symbolic Configuration) Start checking warp divergence  **********
[GKLEE]: ********** Warp Divergence not found for this kernel **********

[GKLEE]: ********** (Symbolic Config) Start checking missed volatile at SharedMemory  ********** 
[GKLEE]: ********** No 'Volatile' Qualifier Missed at this SharedMemory **********

[GKLEE]: ********** (Symbolic Config) Start checking races at SharedMemory  **********
[GKLEE]: ++++++++++ Read-Write race checking (Pure Canonical Schedule) ++++++++++
[GKLEE]: ++++++++++ Write-Write race checking (Pure Canonical Schedule) ++++++++++
[GKLEE]: ********** no races found at SharedMemory ***********

[GKLEE]: ********** (Symbolic Config) Start checking races at DeviceMemory (Within Same Block)  **********
[GKLEE]: ++++++++++ Read-Write race checking (Pure Canonical Schedule) ++++++++++
[GKLEE]: ++++++++++ Write-Write race checking (Pure Canonical Schedule) ++++++++++
[GKLEE]: ********* no races found at DeviceMemory **********
[GKLEE]: Within the current Barrier Interval, 1 flows are used to represent all threads !
[GKLEE]: In Barrier Interval 5, Elapsed time for symbolic configuration (Parametric Flow): 0.006359
Thread 0 reaches a barrier: moving to the next thread.

[GKLEE]: ********** (Symbolic Configuration) Start checking bank conflicts at SharedMemory  **********
[GKLEE]: The read set is empty in bank conflict checking for capability 2.x
[GKLEE]: The write set is empty in bank conflict checking for capability 2.x
[GKLEE]: ********** No Bank Conflict found at this SharedMemory **********

[GKLEE]: ********** (Symbolic Configuration) Start checking coalesced device memory access at capability: 2.x **********
[GKLEE]: ********** All memory accesses are coalesced at capability: 2.x **********

[GKLEE]: ********** (Symbolic Configuration) Start checking warp divergence  **********
[GKLEE]: ********** Warp Divergence not found for this kernel **********

[GKLEE]: ********** (Symbolic Config) Start checking missed volatile at SharedMemory  ********** 
[GKLEE]: ********** No 'Volatile' Qualifier Missed at this SharedMemory **********

[GKLEE]: ********** (Symbolic Config) Start checking races at SharedMemory  **********
[GKLEE]: ++++++++++ Read-Write race checking (Pure Canonical Schedule) ++++++++++
[GKLEE]: ++++++++++ Write-Write race checking (Pure Canonical Schedule) ++++++++++
[GKLEE]: ********** no races found at SharedMemory ***********

[GKLEE]: ********** (Symbolic Config) Start checking races at DeviceMemory (Within Same Block)  **********
[GKLEE]: ++++++++++ Read-Write race checking (Pure Canonical Schedule) ++++++++++
[GKLEE]: ++++++++++ Write-Write race checking (Pure Canonical Schedule) ++++++++++
[GKLEE]: ********* no races found at DeviceMemory **********
[GKLEE]: Within the current Barrier Interval, 1 flows are used to represent all threads !
[GKLEE]: In Barrier Interval 6, Elapsed time for symbolic configuration (Parametric Flow): 0.006305
Thread 0 reaches a barrier: moving to the next thread.

[GKLEE]: ********** (Symbolic Configuration) Start checking bank conflicts at SharedMemory  **********
[GKLEE]: The read set is empty in bank conflict checking for capability 2.x
[GKLEE]: The write set is empty in bank conflict checking for capability 2.x
[GKLEE]: ********** No Bank Conflict found at this SharedMemory **********

[GKLEE]: ********** (Symbolic Configuration) Start checking coalesced device memory access at capability: 2.x **********
[GKLEE]: ********** All memory accesses are coalesced at capability: 2.x **********

[GKLEE]: ********** (Symbolic Configuration) Start checking warp divergence  **********
[GKLEE]: ********** Warp Divergence not found for this kernel **********

[GKLEE]: ********** (Symbolic Config) Start checking missed volatile at SharedMemory  ********** 
[GKLEE]: ********** No 'Volatile' Qualifier Missed at this SharedMemory **********

[GKLEE]: ********** (Symbolic Config) Start checking races at SharedMemory  **********
[GKLEE]: ++++++++++ Read-Write race checking (Pure Canonical Schedule) ++++++++++
[GKLEE]: ++++++++++ Write-Write race checking (Pure Canonical Schedule) ++++++++++
[GKLEE]: ********** no races found at SharedMemory ***********

[GKLEE]: ********** (Symbolic Config) Start checking races at DeviceMemory (Within Same Block)  **********
[GKLEE]: ++++++++++ Read-Write race checking (Pure Canonical Schedule) ++++++++++
[GKLEE]: ++++++++++ Write-Write race checking (Pure Canonical Schedule) ++++++++++
[GKLEE]: ********* no races found at DeviceMemory **********
[GKLEE]: Within the current Barrier Interval, 1 flows are used to represent all threads !
[GKLEE]: In Barrier Interval 7, Elapsed time for symbolic configuration (Parametric Flow): 0.006219
Thread 0 reaches a barrier: moving to the next thread.

[GKLEE]: ********** (Symbolic Configuration) Start checking bank conflicts at SharedMemory  **********
[GKLEE]: The read set is empty in bank conflict checking for capability 2.x
[GKLEE]: The write set is empty in bank conflict checking for capability 2.x
[GKLEE]: ********** No Bank Conflict found at this SharedMemory **********

[GKLEE]: ********** (Symbolic Configuration) Start checking coalesced device memory access at capability: 2.x **********
[GKLEE]: ********** All memory accesses are coalesced at capability: 2.x **********

[GKLEE]: ********** (Symbolic Configuration) Start checking warp divergence  **********
[GKLEE]: ********** Warp Divergence not found for this kernel **********

[GKLEE]: ********** (Symbolic Config) Start checking missed volatile at SharedMemory  ********** 
[GKLEE]: ********** No 'Volatile' Qualifier Missed at this SharedMemory **********

[GKLEE]: ********** (Symbolic Config) Start checking races at SharedMemory  **********
[GKLEE]: ++++++++++ Read-Write race checking (Pure Canonical Schedule) ++++++++++
[GKLEE]: ++++++++++ Write-Write race checking (Pure Canonical Schedule) ++++++++++
[GKLEE]: ********** no races found at SharedMemory ***********

[GKLEE]: ********** (Symbolic Config) Start checking races at DeviceMemory (Within Same Block)  **********
[GKLEE]: ++++++++++ Read-Write race checking (Pure Canonical Schedule) ++++++++++
[GKLEE]: ++++++++++ Write-Write race checking (Pure Canonical Schedule) ++++++++++
[GKLEE]: ********* no races found at DeviceMemory **********
[GKLEE]: Within the current Barrier Interval, 1 flows are used to represent all threads !
[GKLEE]: In Barrier Interval 8, Elapsed time for symbolic configuration (Parametric Flow): 0.006553
Thread 0 reaches a barrier: moving to the next thread.

[GKLEE]: ********** (Symbolic Configuration) Start checking bank conflicts at SharedMemory  **********
[GKLEE]: The read set is empty in bank conflict checking for capability 2.x
[GKLEE]: The write set is empty in bank conflict checking for capability 2.x
[GKLEE]: ********** No Bank Conflict found at this SharedMemory **********

[GKLEE]: ********** (Symbolic Configuration) Start checking coalesced device memory access at capability: 2.x **********
[GKLEE]: ********** All memory accesses are coalesced at capability: 2.x **********

[GKLEE]: ********** (Symbolic Configuration) Start checking warp divergence  **********
[GKLEE]: ********** Warp Divergence not found for this kernel **********

[GKLEE]: ********** (Symbolic Config) Start checking missed volatile at SharedMemory  ********** 
[GKLEE]: ********** No 'Volatile' Qualifier Missed at this SharedMemory **********

[GKLEE]: ********** (Symbolic Config) Start checking races at SharedMemory  **********
[GKLEE]: ++++++++++ Read-Write race checking (Pure Canonical Schedule) ++++++++++
[GKLEE]: ++++++++++ Write-Write race checking (Pure Canonical Schedule) ++++++++++
[GKLEE]: ********** no races found at SharedMemory ***********

[GKLEE]: ********** (Symbolic Config) Start checking races at DeviceMemory (Within Same Block)  **********
[GKLEE]: ++++++++++ Read-Write race checking (Pure Canonical Schedule) ++++++++++
[GKLEE]: ++++++++++ Write-Write race checking (Pure Canonical Schedule) ++++++++++
[GKLEE]: ********* no races found at DeviceMemory **********
[GKLEE]: Within the current Barrier Interval, 1 flows are used to represent all threads !
[GKLEE]: In Barrier Interval 9, Elapsed time for symbolic configuration (Parametric Flow): 0.00635
Thread 0 reaches a barrier: moving to the next thread.

[GKLEE]: ********** (Symbolic Configuration) Start checking bank conflicts at SharedMemory  **********
[GKLEE]: The read set is empty in bank conflict checking for capability 2.x
[GKLEE]: The write set is empty in bank conflict checking for capability 2.x
[GKLEE]: ********** No Bank Conflict found at this SharedMemory **********

[GKLEE]: ********** (Symbolic Configuration) Start checking coalesced device memory access at capability: 2.x **********
[GKLEE]: ********** All memory accesses are coalesced at capability: 2.x **********

[GKLEE]: ********** (Symbolic Configuration) Start checking warp divergence  **********
[GKLEE]: ********** Warp Divergence not found for this kernel **********

[GKLEE]: ********** (Symbolic Config) Start checking missed volatile at SharedMemory  ********** 
[GKLEE]: ********** No 'Volatile' Qualifier Missed at this SharedMemory **********

[GKLEE]: ********** (Symbolic Config) Start checking races at SharedMemory  **********
[GKLEE]: ++++++++++ Read-Write race checking (Pure Canonical Schedule) ++++++++++
[GKLEE]: ++++++++++ Write-Write race checking (Pure Canonical Schedule) ++++++++++
[GKLEE]: ********** no races found at SharedMemory ***********

[GKLEE]: ********** (Symbolic Config) Start checking races at DeviceMemory (Within Same Block)  **********
[GKLEE]: ++++++++++ Read-Write race checking (Pure Canonical Schedule) ++++++++++
[GKLEE]: ++++++++++ Write-Write race checking (Pure Canonical Schedule) ++++++++++
[GKLEE]: ********* no races found at DeviceMemory **********
[GKLEE]: Within the current Barrier Interval, 1 flows are used to represent all threads !
[GKLEE]: In Barrier Interval 10, Elapsed time for symbolic configuration (Parametric Flow): 0.006426
Thread 0 reaches a barrier: moving to the next thread.

[GKLEE]: ********** (Symbolic Configuration) Start checking bank conflicts at SharedMemory  **********
[GKLEE]: The read set is empty in bank conflict checking for capability 2.x
[GKLEE]: The write set is empty in bank conflict checking for capability 2.x
[GKLEE]: ********** No Bank Conflict found at this SharedMemory **********

[GKLEE]: ********** (Symbolic Configuration) Start checking coalesced device memory access at capability: 2.x **********
[GKLEE]: ********** All memory accesses are coalesced at capability: 2.x **********

[GKLEE]: ********** (Symbolic Configuration) Start checking warp divergence  **********
[GKLEE]: ********** Warp Divergence not found for this kernel **********

[GKLEE]: ********** (Symbolic Config) Start checking missed volatile at SharedMemory  ********** 
[GKLEE]: ********** No 'Volatile' Qualifier Missed at this SharedMemory **********

[GKLEE]: ********** (Symbolic Config) Start checking races at SharedMemory  **********
[GKLEE]: ++++++++++ Read-Write race checking (Pure Canonical Schedule) ++++++++++
[GKLEE]: ++++++++++ Write-Write race checking (Pure Canonical Schedule) ++++++++++
[GKLEE]: ********** no races found at SharedMemory ***********

[GKLEE]: ********** (Symbolic Config) Start checking races at DeviceMemory (Within Same Block)  **********
[GKLEE]: ++++++++++ Read-Write race checking (Pure Canonical Schedule) ++++++++++
[GKLEE]: ++++++++++ Write-Write race checking (Pure Canonical Schedule) ++++++++++
[GKLEE]: ********* no races found at DeviceMemory **********
[GKLEE]: Within the current Barrier Interval, 1 flows are used to represent all threads !
[GKLEE]: In Barrier Interval 11, Elapsed time for symbolic configuration (Parametric Flow): 0.006339
Thread 0 reaches a barrier: moving to the next thread.

[GKLEE]: ********** (Symbolic Configuration) Start checking bank conflicts at SharedMemory  **********
[GKLEE]: The read set is empty in bank conflict checking for capability 2.x
[GKLEE]: The write set is empty in bank conflict checking for capability 2.x
[GKLEE]: ********** No Bank Conflict found at this SharedMemory **********

[GKLEE]: ********** (Symbolic Configuration) Start checking coalesced device memory access at capability: 2.x **********
[GKLEE]: ********** All memory accesses are coalesced at capability: 2.x **********

[GKLEE]: ********** (Symbolic Configuration) Start checking warp divergence  **********
[GKLEE]: ********** Warp Divergence not found for this kernel **********

[GKLEE]: ********** (Symbolic Config) Start checking missed volatile at SharedMemory  ********** 
[GKLEE]: ********** No 'Volatile' Qualifier Missed at this SharedMemory **********

[GKLEE]: ********** (Symbolic Config) Start checking races at SharedMemory  **********
[GKLEE]: ++++++++++ Read-Write race checking (Pure Canonical Schedule) ++++++++++
[GKLEE]: ++++++++++ Write-Write race checking (Pure Canonical Schedule) ++++++++++
[GKLEE]: ********** no races found at SharedMemory ***********

[GKLEE]: ********** (Symbolic Config) Start checking races at DeviceMemory (Within Same Block)  **********
[GKLEE]: ++++++++++ Read-Write race checking (Pure Canonical Schedule) ++++++++++
[GKLEE]: ++++++++++ Write-Write race checking (Pure Canonical Schedule) ++++++++++
[GKLEE]: ********* no races found at DeviceMemory **********
[GKLEE]: Within the current Barrier Interval, 1 flows are used to represent all threads !
[GKLEE]: In Barrier Interval 12, Elapsed time for symbolic configuration (Parametric Flow): 0.006375
Thread 0 reaches a barrier: moving to the next thread.

[GKLEE]: ********** (Symbolic Configuration) Start checking bank conflicts at SharedMemory  **********
[GKLEE]: The read set is empty in bank conflict checking for capability 2.x
[GKLEE]: The write set is empty in bank conflict checking for capability 2.x
[GKLEE]: ********** No Bank Conflict found at this SharedMemory **********

[GKLEE]: ********** (Symbolic Configuration) Start checking coalesced device memory access at capability: 2.x **********
[GKLEE]: ********** All memory accesses are coalesced at capability: 2.x **********

[GKLEE]: ********** (Symbolic Configuration) Start checking warp divergence  **********
[GKLEE]: ********** Warp Divergence not found for this kernel **********

[GKLEE]: ********** (Symbolic Config) Start checking missed volatile at SharedMemory  ********** 
[GKLEE]: ********** No 'Volatile' Qualifier Missed at this SharedMemory **********

[GKLEE]: ********** (Symbolic Config) Start checking races at SharedMemory  **********
[GKLEE]: ++++++++++ Read-Write race checking (Pure Canonical Schedule) ++++++++++
[GKLEE]: ++++++++++ Write-Write race checking (Pure Canonical Schedule) ++++++++++
[GKLEE]: ********** no races found at SharedMemory ***********

[GKLEE]: ********** (Symbolic Config) Start checking races at DeviceMemory (Within Same Block)  **********
[GKLEE]: ++++++++++ Read-Write race checking (Pure Canonical Schedule) ++++++++++
[GKLEE]: ++++++++++ Write-Write race checking (Pure Canonical Schedule) ++++++++++
[GKLEE]: ********* no races found at DeviceMemory **********
[GKLEE]: Within the current Barrier Interval, 1 flows are used to represent all threads !
[GKLEE]: In Barrier Interval 13, Elapsed time for symbolic configuration (Parametric Flow): 0.006327
Thread 0 reaches a barrier: moving to the next thread.

[GKLEE]: ********** (Symbolic Configuration) Start checking bank conflicts at SharedMemory  **********
[GKLEE]: The read set is empty in bank conflict checking for capability 2.x
[GKLEE]: The write set is empty in bank conflict checking for capability 2.x
[GKLEE]: ********** No Bank Conflict found at this SharedMemory **********

[GKLEE]: ********** (Symbolic Configuration) Start checking coalesced device memory access at capability: 2.x **********
[GKLEE]: ********** All memory accesses are coalesced at capability: 2.x **********

[GKLEE]: ********** (Symbolic Configuration) Start checking warp divergence  **********
[GKLEE]: ********** Warp Divergence not found for this kernel **********

[GKLEE]: ********** (Symbolic Config) Start checking missed volatile at SharedMemory  ********** 
[GKLEE]: ********** No 'Volatile' Qualifier Missed at this SharedMemory **********

[GKLEE]: ********** (Symbolic Config) Start checking races at SharedMemory  **********
[GKLEE]: ++++++++++ Read-Write race checking (Pure Canonical Schedule) ++++++++++
[GKLEE]: ++++++++++ Write-Write race checking (Pure Canonical Schedule) ++++++++++
[GKLEE]: ********** no races found at SharedMemory ***********

[GKLEE]: ********** (Symbolic Config) Start checking races at DeviceMemory (Within Same Block)  **********
[GKLEE]: ++++++++++ Read-Write race checking (Pure Canonical Schedule) ++++++++++
[GKLEE]: ++++++++++ Write-Write race checking (Pure Canonical Schedule) ++++++++++
[GKLEE]: ********* no races found at DeviceMemory **********
[GKLEE]: Within the current Barrier Interval, 1 flows are used to represent all threads !
[GKLEE]: In Barrier Interval 14, Elapsed time for symbolic configuration (Parametric Flow): 0.006329
Thread 0 reaches a barrier: moving to the next thread.

[GKLEE]: ********** (Symbolic Configuration) Start checking bank conflicts at SharedMemory  **********
[GKLEE]: The read set is empty in bank conflict checking for capability 2.x
[GKLEE]: The write set is empty in bank conflict checking for capability 2.x
[GKLEE]: ********** No Bank Conflict found at this SharedMemory **********

[GKLEE]: ********** (Symbolic Configuration) Start checking coalesced device memory access at capability: 2.x **********
[GKLEE]: ********** All memory accesses are coalesced at capability: 2.x **********

[GKLEE]: ********** (Symbolic Configuration) Start checking warp divergence  **********
[GKLEE]: ********** Warp Divergence not found for this kernel **********

[GKLEE]: ********** (Symbolic Config) Start checking missed volatile at SharedMemory  ********** 
[GKLEE]: ********** No 'Volatile' Qualifier Missed at this SharedMemory **********

[GKLEE]: ********** (Symbolic Config) Start checking races at SharedMemory  **********
[GKLEE]: ++++++++++ Read-Write race checking (Pure Canonical Schedule) ++++++++++
[GKLEE]: ++++++++++ Write-Write race checking (Pure Canonical Schedule) ++++++++++
[GKLEE]: ********** no races found at SharedMemory ***********

[GKLEE]: ********** (Symbolic Config) Start checking races at DeviceMemory (Within Same Block)  **********
[GKLEE]: ++++++++++ Read-Write race checking (Pure Canonical Schedule) ++++++++++
[GKLEE]: ++++++++++ Write-Write race checking (Pure Canonical Schedule) ++++++++++
[GKLEE]: ********* no races found at DeviceMemory **********
[GKLEE]: Within the current Barrier Interval, 1 flows are used to represent all threads !
[GKLEE]: In Barrier Interval 15, Elapsed time for symbolic configuration (Parametric Flow): 0.006349
Thread 0 reaches a barrier: moving to the next thread.

[GKLEE]: ********** (Symbolic Configuration) Start checking bank conflicts at SharedMemory  **********
[GKLEE]: The read set is empty in bank conflict checking for capability 2.x
[GKLEE]: The write set is empty in bank conflict checking for capability 2.x
[GKLEE]: ********** No Bank Conflict found at this SharedMemory **********

[GKLEE]: ********** (Symbolic Configuration) Start checking coalesced device memory access at capability: 2.x **********
[GKLEE]: ********** All memory accesses are coalesced at capability: 2.x **********

[GKLEE]: ********** (Symbolic Configuration) Start checking warp divergence  **********
[GKLEE]: ********** Warp Divergence not found for this kernel **********

[GKLEE]: ********** (Symbolic Config) Start checking missed volatile at SharedMemory  ********** 
[GKLEE]: ********** No 'Volatile' Qualifier Missed at this SharedMemory **********

[GKLEE]: ********** (Symbolic Config) Start checking races at SharedMemory  **********
[GKLEE]: ++++++++++ Read-Write race checking (Pure Canonical Schedule) ++++++++++
[GKLEE]: ++++++++++ Write-Write race checking (Pure Canonical Schedule) ++++++++++
[GKLEE]: ********** no races found at SharedMemory ***********

[GKLEE]: ********** (Symbolic Config) Start checking races at DeviceMemory (Within Same Block)  **********
[GKLEE]: ++++++++++ Read-Write race checking (Pure Canonical Schedule) ++++++++++
[GKLEE]: ++++++++++ Write-Write race checking (Pure Canonical Schedule) ++++++++++
[GKLEE]: ********* no races found at DeviceMemory **********
[GKLEE]: Within the current Barrier Interval, 1 flows are used to represent all threads !
[GKLEE]: In Barrier Interval 16, Elapsed time for symbolic configuration (Parametric Flow): 0.0063
Thread 0 reaches a barrier: moving to the next thread.

[GKLEE]: ********** (Symbolic Configuration) Start checking bank conflicts at SharedMemory  **********
[GKLEE]: The read set is empty in bank conflict checking for capability 2.x
[GKLEE]: The write set is empty in bank conflict checking for capability 2.x
[GKLEE]: ********** No Bank Conflict found at this SharedMemory **********

[GKLEE]: ********** (Symbolic Configuration) Start checking coalesced device memory access at capability: 2.x **********
[GKLEE]: ********** All memory accesses are coalesced at capability: 2.x **********

[GKLEE]: ********** (Symbolic Configuration) Start checking warp divergence  **********
[GKLEE]: ********** Warp Divergence not found for this kernel **********

[GKLEE]: ********** (Symbolic Config) Start checking missed volatile at SharedMemory  ********** 
[GKLEE]: ********** No 'Volatile' Qualifier Missed at this SharedMemory **********

[GKLEE]: ********** (Symbolic Config) Start checking races at SharedMemory  **********
[GKLEE]: ++++++++++ Read-Write race checking (Pure Canonical Schedule) ++++++++++
[GKLEE]: ++++++++++ Write-Write race checking (Pure Canonical Schedule) ++++++++++
[GKLEE]: ********** no races found at SharedMemory ***********

[GKLEE]: ********** (Symbolic Config) Start checking races at DeviceMemory (Within Same Block)  **********
[GKLEE]: ++++++++++ Read-Write race checking (Pure Canonical Schedule) ++++++++++
[GKLEE]: ++++++++++ Write-Write race checking (Pure Canonical Schedule) ++++++++++
[GKLEE]: ********* no races found at DeviceMemory **********
[GKLEE]: Within the current Barrier Interval, 1 flows are used to represent all threads !
[GKLEE]: In Barrier Interval 17, Elapsed time for symbolic configuration (Parametric Flow): 0.006162
Thread 0 reaches a barrier: moving to the next thread.

[GKLEE]: ********** (Symbolic Configuration) Start checking bank conflicts at SharedMemory  **********
[GKLEE]: The read set is empty in bank conflict checking for capability 2.x
[GKLEE]: The write set is empty in bank conflict checking for capability 2.x
[GKLEE]: ********** No Bank Conflict found at this SharedMemory **********

[GKLEE]: ********** (Symbolic Configuration) Start checking coalesced device memory access at capability: 2.x **********
[GKLEE]: ********** All memory accesses are coalesced at capability: 2.x **********

[GKLEE]: ********** (Symbolic Configuration) Start checking warp divergence  **********
[GKLEE]: ********** Warp Divergence not found for this kernel **********

[GKLEE]: ********** (Symbolic Config) Start checking missed volatile at SharedMemory  ********** 
[GKLEE]: ********** No 'Volatile' Qualifier Missed at this SharedMemory **********

[GKLEE]: ********** (Symbolic Config) Start checking races at SharedMemory  **********
[GKLEE]: ++++++++++ Read-Write race checking (Pure Canonical Schedule) ++++++++++
[GKLEE]: ++++++++++ Write-Write race checking (Pure Canonical Schedule) ++++++++++
[GKLEE]: ********** no races found at SharedMemory ***********

[GKLEE]: ********** (Symbolic Config) Start checking races at DeviceMemory (Within Same Block)  **********
[GKLEE]: ++++++++++ Read-Write race checking (Pure Canonical Schedule) ++++++++++
[GKLEE]: ++++++++++ Write-Write race checking (Pure Canonical Schedule) ++++++++++
[GKLEE]: ********* no races found at DeviceMemory **********
[GKLEE]: Within the current Barrier Interval, 1 flows are used to represent all threads !
[GKLEE]: In Barrier Interval 18, Elapsed time for symbolic configuration (Parametric Flow): 0.006226
Thread 0 reaches a barrier: moving to the next thread.

[GKLEE]: ********** (Symbolic Configuration) Start checking bank conflicts at SharedMemory  **********
[GKLEE]: The read set is empty in bank conflict checking for capability 2.x
[GKLEE]: The write set is empty in bank conflict checking for capability 2.x
[GKLEE]: ********** No Bank Conflict found at this SharedMemory **********

[GKLEE]: ********** (Symbolic Configuration) Start checking coalesced device memory access at capability: 2.x **********
[GKLEE]: ********** All memory accesses are coalesced at capability: 2.x **********

[GKLEE]: ********** (Symbolic Configuration) Start checking warp divergence  **********
[GKLEE]: ********** Warp Divergence not found for this kernel **********

[GKLEE]: ********** (Symbolic Config) Start checking missed volatile at SharedMemory  ********** 
[GKLEE]: ********** No 'Volatile' Qualifier Missed at this SharedMemory **********

[GKLEE]: ********** (Symbolic Config) Start checking races at SharedMemory  **********
[GKLEE]: ++++++++++ Read-Write race checking (Pure Canonical Schedule) ++++++++++
[GKLEE]: ++++++++++ Write-Write race checking (Pure Canonical Schedule) ++++++++++
[GKLEE]: ********** no races found at SharedMemory ***********

[GKLEE]: ********** (Symbolic Config) Start checking races at DeviceMemory (Within Same Block)  **********
[GKLEE]: ++++++++++ Read-Write race checking (Pure Canonical Schedule) ++++++++++
[GKLEE]: ++++++++++ Write-Write race checking (Pure Canonical Schedule) ++++++++++
[GKLEE]: ********* no races found at DeviceMemory **********
[GKLEE]: Within the current Barrier Interval, 1 flows are used to represent all threads !
[GKLEE]: In Barrier Interval 19, Elapsed time for symbolic configuration (Parametric Flow): 0.007625
Thread 0 reaches a barrier: moving to the next thread.

[GKLEE]: ********** (Symbolic Configuration) Start checking bank conflicts at SharedMemory  **********
[GKLEE]: The read set is empty in bank conflict checking for capability 2.x
[GKLEE]: The write set is empty in bank conflict checking for capability 2.x
[GKLEE]: ********** No Bank Conflict found at this SharedMemory **********

[GKLEE]: ********** (Symbolic Configuration) Start checking coalesced device memory access at capability: 2.x **********
[GKLEE]: ********** All memory accesses are coalesced at capability: 2.x **********

[GKLEE]: ********** (Symbolic Configuration) Start checking warp divergence  **********
[GKLEE]: ********** Warp Divergence not found for this kernel **********

[GKLEE]: ********** (Symbolic Config) Start checking missed volatile at SharedMemory  ********** 
[GKLEE]: ********** No 'Volatile' Qualifier Missed at this SharedMemory **********

[GKLEE]: ********** (Symbolic Config) Start checking races at SharedMemory  **********
[GKLEE]: ++++++++++ Read-Write race checking (Pure Canonical Schedule) ++++++++++
[GKLEE]: ++++++++++ Write-Write race checking (Pure Canonical Schedule) ++++++++++
[GKLEE]: ********** no races found at SharedMemory ***********

[GKLEE]: ********** (Symbolic Config) Start checking races at DeviceMemory (Within Same Block)  **********
[GKLEE]: ++++++++++ Read-Write race checking (Pure Canonical Schedule) ++++++++++
[GKLEE]: ++++++++++ Write-Write race checking (Pure Canonical Schedule) ++++++++++
[GKLEE]: ********* no races found at DeviceMemory **********
[GKLEE]: Within the current Barrier Interval, 1 flows are used to represent all threads !
[GKLEE]: In Barrier Interval 20, Elapsed time for symbolic configuration (Parametric Flow): 0.007094
Thread 0 reaches a barrier: moving to the next thread.

[GKLEE]: ********** (Symbolic Configuration) Start checking bank conflicts at SharedMemory  **********
[GKLEE]: The read set is empty in bank conflict checking for capability 2.x
[GKLEE]: The write set is empty in bank conflict checking for capability 2.x
[GKLEE]: ********** No Bank Conflict found at this SharedMemory **********

[GKLEE]: ********** (Symbolic Configuration) Start checking coalesced device memory access at capability: 2.x **********
[GKLEE]: ********** All memory accesses are coalesced at capability: 2.x **********

[GKLEE]: ********** (Symbolic Configuration) Start checking warp divergence  **********
[GKLEE]: ********** Warp Divergence not found for this kernel **********

[GKLEE]: ********** (Symbolic Config) Start checking missed volatile at SharedMemory  ********** 
[GKLEE]: ********** No 'Volatile' Qualifier Missed at this SharedMemory **********

[GKLEE]: ********** (Symbolic Config) Start checking races at SharedMemory  **********
[GKLEE]: ++++++++++ Read-Write race checking (Pure Canonical Schedule) ++++++++++
[GKLEE]: ++++++++++ Write-Write race checking (Pure Canonical Schedule) ++++++++++
[GKLEE]: ********** no races found at SharedMemory ***********

[GKLEE]: ********** (Symbolic Config) Start checking races at DeviceMemory (Within Same Block)  **********
[GKLEE]: ++++++++++ Read-Write race checking (Pure Canonical Schedule) ++++++++++
[GKLEE]: ++++++++++ Write-Write race checking (Pure Canonical Schedule) ++++++++++
[GKLEE]: ********* no races found at DeviceMemory **********
[GKLEE]: Within the current Barrier Interval, 1 flows are used to represent all threads !
[GKLEE]: In Barrier Interval 21, Elapsed time for symbolic configuration (Parametric Flow): 0.006798
Thread 0 reaches a barrier: moving to the next thread.

[GKLEE]: ********** (Symbolic Configuration) Start checking bank conflicts at SharedMemory  **********
[GKLEE]: The read set is empty in bank conflict checking for capability 2.x
[GKLEE]: The write set is empty in bank conflict checking for capability 2.x
[GKLEE]: ********** No Bank Conflict found at this SharedMemory **********

[GKLEE]: ********** (Symbolic Configuration) Start checking coalesced device memory access at capability: 2.x **********
[GKLEE]: ********** All memory accesses are coalesced at capability: 2.x **********

[GKLEE]: ********** (Symbolic Configuration) Start checking warp divergence  **********
[GKLEE]: ********** Warp Divergence not found for this kernel **********

[GKLEE]: ********** (Symbolic Config) Start checking missed volatile at SharedMemory  ********** 
[GKLEE]: ********** No 'Volatile' Qualifier Missed at this SharedMemory **********

[GKLEE]: ********** (Symbolic Config) Start checking races at SharedMemory  **********
[GKLEE]: ++++++++++ Read-Write race checking (Pure Canonical Schedule) ++++++++++
[GKLEE]: ++++++++++ Write-Write race checking (Pure Canonical Schedule) ++++++++++
[GKLEE]: ********** no races found at SharedMemory ***********

[GKLEE]: ********** (Symbolic Config) Start checking races at DeviceMemory (Within Same Block)  **********
[GKLEE]: ++++++++++ Read-Write race checking (Pure Canonical Schedule) ++++++++++
[GKLEE]: ++++++++++ Write-Write race checking (Pure Canonical Schedule) ++++++++++
[GKLEE]: ********* no races found at DeviceMemory **********
[GKLEE]: Within the current Barrier Interval, 1 flows are used to represent all threads !
[GKLEE]: In Barrier Interval 22, Elapsed time for symbolic configuration (Parametric Flow): 0.00653
Thread 0 reaches a barrier: moving to the next thread.

[GKLEE]: ********** (Symbolic Configuration) Start checking bank conflicts at SharedMemory  **********
[GKLEE]: The read set is empty in bank conflict checking for capability 2.x
[GKLEE]: The write set is empty in bank conflict checking for capability 2.x
[GKLEE]: ********** No Bank Conflict found at this SharedMemory **********

[GKLEE]: ********** (Symbolic Configuration) Start checking coalesced device memory access at capability: 2.x **********
[GKLEE]: ********** All memory accesses are coalesced at capability: 2.x **********

[GKLEE]: ********** (Symbolic Configuration) Start checking warp divergence  **********
[GKLEE]: ********** Warp Divergence not found for this kernel **********

[GKLEE]: ********** (Symbolic Config) Start checking missed volatile at SharedMemory  ********** 
[GKLEE]: ********** No 'Volatile' Qualifier Missed at this SharedMemory **********

[GKLEE]: ********** (Symbolic Config) Start checking races at SharedMemory  **********
[GKLEE]: ++++++++++ Read-Write race checking (Pure Canonical Schedule) ++++++++++
[GKLEE]: ++++++++++ Write-Write race checking (Pure Canonical Schedule) ++++++++++
[GKLEE]: ********** no races found at SharedMemory ***********

[GKLEE]: ********** (Symbolic Config) Start checking races at DeviceMemory (Within Same Block)  **********
[GKLEE]: ++++++++++ Read-Write race checking (Pure Canonical Schedule) ++++++++++
[GKLEE]: ++++++++++ Write-Write race checking (Pure Canonical Schedule) ++++++++++
[GKLEE]: ********* no races found at DeviceMemory **********
[GKLEE]: Within the current Barrier Interval, 1 flows are used to represent all threads !
[GKLEE]: In Barrier Interval 23, Elapsed time for symbolic configuration (Parametric Flow): 0.006521
Thread 0 reaches a barrier: moving to the next thread.

[GKLEE]: ********** (Symbolic Configuration) Start checking bank conflicts at SharedMemory  **********
[GKLEE]: The read set is empty in bank conflict checking for capability 2.x
[GKLEE]: The write set is empty in bank conflict checking for capability 2.x
[GKLEE]: ********** No Bank Conflict found at this SharedMemory **********

[GKLEE]: ********** (Symbolic Configuration) Start checking coalesced device memory access at capability: 2.x **********
[GKLEE]: ********** All memory accesses are coalesced at capability: 2.x **********

[GKLEE]: ********** (Symbolic Configuration) Start checking warp divergence  **********
[GKLEE]: ********** Warp Divergence not found for this kernel **********

[GKLEE]: ********** (Symbolic Config) Start checking missed volatile at SharedMemory  ********** 
[GKLEE]: ********** No 'Volatile' Qualifier Missed at this SharedMemory **********

[GKLEE]: ********** (Symbolic Config) Start checking races at SharedMemory  **********
[GKLEE]: ++++++++++ Read-Write race checking (Pure Canonical Schedule) ++++++++++
[GKLEE]: ++++++++++ Write-Write race checking (Pure Canonical Schedule) ++++++++++
[GKLEE]: ********** no races found at SharedMemory ***********

[GKLEE]: ********** (Symbolic Config) Start checking races at DeviceMemory (Within Same Block)  **********
[GKLEE]: ++++++++++ Read-Write race checking (Pure Canonical Schedule) ++++++++++
[GKLEE]: ++++++++++ Write-Write race checking (Pure Canonical Schedule) ++++++++++
[GKLEE]: ********* no races found at DeviceMemory **********
[GKLEE]: Within the current Barrier Interval, 1 flows are used to represent all threads !
[GKLEE]: In Barrier Interval 24, Elapsed time for symbolic configuration (Parametric Flow): 0.006512
Thread 0 reaches a barrier: moving to the next thread.

[GKLEE]: ********** (Symbolic Configuration) Start checking bank conflicts at SharedMemory  **********
[GKLEE]: The read set is empty in bank conflict checking for capability 2.x
[GKLEE]: The write set is empty in bank conflict checking for capability 2.x
[GKLEE]: ********** No Bank Conflict found at this SharedMemory **********

[GKLEE]: ********** (Symbolic Configuration) Start checking coalesced device memory access at capability: 2.x **********
[GKLEE]: ********** All memory accesses are coalesced at capability: 2.x **********

[GKLEE]: ********** (Symbolic Configuration) Start checking warp divergence  **********
[GKLEE]: ********** Warp Divergence not found for this kernel **********

[GKLEE]: ********** (Symbolic Config) Start checking missed volatile at SharedMemory  ********** 
[GKLEE]: ********** No 'Volatile' Qualifier Missed at this SharedMemory **********

[GKLEE]: ********** (Symbolic Config) Start checking races at SharedMemory  **********
[GKLEE]: ++++++++++ Read-Write race checking (Pure Canonical Schedule) ++++++++++
[GKLEE]: ++++++++++ Write-Write race checking (Pure Canonical Schedule) ++++++++++
[GKLEE]: ********** no races found at SharedMemory ***********

[GKLEE]: ********** (Symbolic Config) Start checking races at DeviceMemory (Within Same Block)  **********
[GKLEE]: ++++++++++ Read-Write race checking (Pure Canonical Schedule) ++++++++++
[GKLEE]: ++++++++++ Write-Write race checking (Pure Canonical Schedule) ++++++++++
[GKLEE]: ********* no races found at DeviceMemory **********
[GKLEE]: Within the current Barrier Interval, 1 flows are used to represent all threads !
[GKLEE]: In Barrier Interval 25, Elapsed time for symbolic configuration (Parametric Flow): 0.006486
Thread 0 reaches a barrier: moving to the next thread.

[GKLEE]: ********** (Symbolic Configuration) Start checking bank conflicts at SharedMemory  **********
[GKLEE]: The read set is empty in bank conflict checking for capability 2.x
[GKLEE]: The write set is empty in bank conflict checking for capability 2.x
[GKLEE]: ********** No Bank Conflict found at this SharedMemory **********

[GKLEE]: ********** (Symbolic Configuration) Start checking coalesced device memory access at capability: 2.x **********
[GKLEE]: ********** All memory accesses are coalesced at capability: 2.x **********

[GKLEE]: ********** (Symbolic Configuration) Start checking warp divergence  **********
[GKLEE]: ********** Warp Divergence not found for this kernel **********

[GKLEE]: ********** (Symbolic Config) Start checking missed volatile at SharedMemory  ********** 
[GKLEE]: ********** No 'Volatile' Qualifier Missed at this SharedMemory **********

[GKLEE]: ********** (Symbolic Config) Start checking races at SharedMemory  **********
[GKLEE]: ++++++++++ Read-Write race checking (Pure Canonical Schedule) ++++++++++
[GKLEE]: ++++++++++ Write-Write race checking (Pure Canonical Schedule) ++++++++++
[GKLEE]: ********** no races found at SharedMemory ***********

[GKLEE]: ********** (Symbolic Config) Start checking races at DeviceMemory (Within Same Block)  **********
[GKLEE]: ++++++++++ Read-Write race checking (Pure Canonical Schedule) ++++++++++
[GKLEE]: ++++++++++ Write-Write race checking (Pure Canonical Schedule) ++++++++++
[GKLEE]: ********* no races found at DeviceMemory **********
[GKLEE]: Within the current Barrier Interval, 1 flows are used to represent all threads !
[GKLEE]: In Barrier Interval 26, Elapsed time for symbolic configuration (Parametric Flow): 0.006354
Thread 0 reaches a barrier: moving to the next thread.

[GKLEE]: ********** (Symbolic Configuration) Start checking bank conflicts at SharedMemory  **********
[GKLEE]: The read set is empty in bank conflict checking for capability 2.x
[GKLEE]: The write set is empty in bank conflict checking for capability 2.x
[GKLEE]: ********** No Bank Conflict found at this SharedMemory **********

[GKLEE]: ********** (Symbolic Configuration) Start checking coalesced device memory access at capability: 2.x **********
[GKLEE]: The read set for memory coalescing cap 2 is empty
[GKLEE]: The write set for memory coalescing cap 2 is empty
[GKLEE]: ********** All memory accesses are coalesced at capability: 2.x **********

[GKLEE]: ********** (Symbolic Configuration) Start checking warp divergence  **********
[GKLEE]: ********** Warp Divergence not found for this kernel **********

[GKLEE]: ********** (Symbolic Config) Start checking missed volatile at SharedMemory  ********** 
[GKLEE]: ********** No 'Volatile' Qualifier Missed at this SharedMemory **********

[GKLEE]: ********** (Symbolic Config) Start checking races at SharedMemory  **********
[GKLEE]: ++++++++++ Read-Write race checking (Pure Canonical Schedule) ++++++++++
[GKLEE]: ++++++++++ Write-Write race checking (Pure Canonical Schedule) ++++++++++
[GKLEE]: ********** no races found at SharedMemory ***********

[GKLEE]: ********** (Symbolic Config) Start checking races at DeviceMemory (Within Same Block)  **********
[GKLEE]: ++++++++++ Read-Write race checking (Pure Canonical Schedule) ++++++++++
[GKLEE]: ++++++++++ Write-Write race checking (Pure Canonical Schedule) ++++++++++

[GKLEE]: ********** (Symbolic Config) Checking races at DeviceMemory (Across Blocks) not allowed (number of block > 1)  **********
[GKLEE]: ********* no races found at DeviceMemory **********
[GKLEE]: Within the current Barrier Interval, 1 flows are used to represent all threads !

[GKLEE]: Finish executing a GPU kernel 

[GKLEE]: GPU Execution time: 0.198847s
[GKLEE]: In Barrier Interval 27, Elapsed time for symbolic configuration (Parametric Flow): 7.6e-05

[GKLEE]: Finishing the program!
 path num explored here (symbolic config): 1
<BI: 1, Time: 0.023367>
<BI: 2, Time: 0.006426>
<BI: 3, Time: 0.006386>
<BI: 4, Time: 0.006343>
<BI: 5, Time: 0.006359>
<BI: 6, Time: 0.006305>
<BI: 7, Time: 0.006219>
<BI: 8, Time: 0.006553>
<BI: 9, Time: 0.00635>
<BI: 10, Time: 0.006426>
<BI: 11, Time: 0.006339>
<BI: 12, Time: 0.006375>
<BI: 13, Time: 0.006327>
<BI: 14, Time: 0.006329>
<BI: 15, Time: 0.006349>
<BI: 16, Time: 0.0063>
<BI: 17, Time: 0.006162>
<BI: 18, Time: 0.006226>
<BI: 19, Time: 0.007625>
<BI: 20, Time: 0.007094>
<BI: 21, Time: 0.006798>
<BI: 22, Time: 0.00653>
<BI: 23, Time: 0.006521>
<BI: 24, Time: 0.006512>
<BI: 25, Time: 0.006486>
<BI: 26, Time: 0.006354>
<BI: 27, Time: 7.6e-05>
Under symbolic configuration, Across 27 BIs, Total Time: 0.185137
After exploring 1 paths, the average exploration time (symbolic) is 0.185137s, the total execution time: 0.185137s
********** No Bank Conflict found **********
********** Memory Coalescing found **********
********** No Warp Divergence found **********
********** No Volatile Missed found *********
********** No Race found **********

KLEE: done: total instructions = 1067
KLEE: done: completed paths = 1
KLEE: done: generated tests = 1
RUN /opt/gklee/gklee-nvcc gklee/barriers-26.cu -o gklee/barriers-26.bc
RUN /opt/gklee/gklee --symbolic-config gklee/barriers-26.bc
DEL gklee/barriers-26.bc
DEL /home/verify/datasets/micro-benchmarks/barriers-26.cpp
DEL /home/verify/datasets/micro-benchmarks/barriers-26.kernelSet.txt
DEL flowsGraph.dot
DEL gklee/klee-last
DEL gklee/klee-out-0
