nested-loops-15.cpp:68:31: error: indirection requires pointer operand ('unsigned long' invalid)
    cudaMalloc((void**)&out,  * sizeof(float));
                              ^ ~~~~~~~~~~~~~
nested-loops-15.cpp:72:29: error: indirection requires pointer operand ('unsigned long' invalid)
    cudaMalloc((void**)&a,  * sizeof(float));
                            ^ ~~~~~~~~~~~~~
nested-loops-15.cpp:76:29: error: indirection requires pointer operand ('unsigned long' invalid)
    cudaMalloc((void**)&b,  * sizeof(float));
                            ^ ~~~~~~~~~~~~~
3 errors generated.
Configuration: concurrency bug checking level is: 2
KLEE: ERROR: error loading program 'gklee/nested-loops-15.bc': No such file or directory
RUN /opt/gklee/gklee-nvcc gklee/nested-loops-15.cu -o gklee/nested-loops-15.bc
RUN /opt/gklee/gklee --symbolic-config gklee/nested-loops-15.bc
DEL /home/verify/datasets/micro-benchmarks/nested-loops-15.cpp
DEL /home/verify/datasets/micro-benchmarks/nested-loops-15.kernelSet.txt
DEL flowsGraph.dot
