"/home/verify/datasets/micro-benchmarks/pug/barriers-48.c", line 83: warning: 
          function "kernel" was declared but never referenced
  __global__ void kernel (float* out, float* a, float* b) {
                  ^

>>>> start analysis ... 


-------------------------------------------------------
Invalid OVERFLOW_PROTECTION flag in config.txt!
Setting OVERFLOW_PROTECTION flag to on
-------------------------------------------------------

-------------------------------------------------------
Invalid NBITS value in config.txt!
Setting NBITS value to 10
-------------------------------------------------------

-------------------------------------------------------
Invalid USE_INCRSMT flag in config.txt!
Setting USE_INCRSMT flag to false
-------------------------------------------------------


-------------------------------------------------------
Invalid USE_LOOP_REFINEMENT flag in config.txt!
Setting USE_LOOP_REFINEMENT flag to true
-------------------------------------------------------


-------------------------------------------------------
Invalid SLICE_ARRAYS flag in config.txt!
Setting SLICE_ARRAYS flag to true
-------------------------------------------------------


-------------------------------------------------------
Invalid USE_ASSUMES flag in config.txt!
Setting USE_ASSUMES flag to true
-------------------------------------------------------


-------------------------------------------------------
Invalid CHK_BANK_CONFLICTS option in config.txt!
Setting CHK_BANK_CONFLICTS option to false
-------------------------------------------------------

Debug level (verbosity) set to 0


Processing function: kernel

Binary OP: out[threadIdx.x] =((a[threadIdx.x]) +(b[threadIdx.x]))

FunctionCall: __syncthreads()
unsatisfiable

Binary OP: out[threadIdx.x] =((a[threadIdx.x]) +(b[threadIdx.x]))

FunctionCall: __syncthreads()
unsatisfiable

Binary OP: out[threadIdx.x] =((a[threadIdx.x]) +(b[threadIdx.x]))

FunctionCall: __syncthreads()
unsatisfiable

Binary OP: out[threadIdx.x] =((a[threadIdx.x]) +(b[threadIdx.x]))

FunctionCall: __syncthreads()
unsatisfiable

Binary OP: out[threadIdx.x] =((a[threadIdx.x]) +(b[threadIdx.x]))

FunctionCall: __syncthreads()
unsatisfiable

Binary OP: out[threadIdx.x] =((a[threadIdx.x]) +(b[threadIdx.x]))

FunctionCall: __syncthreads()
unsatisfiable

Binary OP: out[threadIdx.x] =((a[threadIdx.x]) +(b[threadIdx.x]))

FunctionCall: __syncthreads()
unsatisfiable

Binary OP: out[threadIdx.x] =((a[threadIdx.x]) +(b[threadIdx.x]))

FunctionCall: __syncthreads()
unsatisfiable

Binary OP: out[threadIdx.x] =((a[threadIdx.x]) +(b[threadIdx.x]))

FunctionCall: __syncthreads()
unsatisfiable

Binary OP: out[threadIdx.x] =((a[threadIdx.x]) +(b[threadIdx.x]))

FunctionCall: __syncthreads()
unsatisfiable

Binary OP: out[threadIdx.x] =((a[threadIdx.x]) +(b[threadIdx.x]))

FunctionCall: __syncthreads()
unsatisfiable

Binary OP: out[threadIdx.x] =((a[threadIdx.x]) +(b[threadIdx.x]))

FunctionCall: __syncthreads()
unsatisfiable

Binary OP: out[threadIdx.x] =((a[threadIdx.x]) +(b[threadIdx.x]))

FunctionCall: __syncthreads()
unsatisfiable

Binary OP: out[threadIdx.x] =((a[threadIdx.x]) +(b[threadIdx.x]))

FunctionCall: __syncthreads()
unsatisfiable

Binary OP: out[threadIdx.x] =((a[threadIdx.x]) +(b[threadIdx.x]))

FunctionCall: __syncthreads()
unsatisfiable

Binary OP: out[threadIdx.x] =((a[threadIdx.x]) +(b[threadIdx.x]))

FunctionCall: __syncthreads()
unsatisfiable

Binary OP: out[threadIdx.x] =((a[threadIdx.x]) +(b[threadIdx.x]))

FunctionCall: __syncthreads()
unsatisfiable

Binary OP: out[threadIdx.x] =((a[threadIdx.x]) +(b[threadIdx.x]))

FunctionCall: __syncthreads()
unsatisfiable

Binary OP: out[threadIdx.x] =((a[threadIdx.x]) +(b[threadIdx.x]))

FunctionCall: __syncthreads()
unsatisfiable

Binary OP: out[threadIdx.x] =((a[threadIdx.x]) +(b[threadIdx.x]))

FunctionCall: __syncthreads()
unsatisfiable

Binary OP: out[threadIdx.x] =((a[threadIdx.x]) +(b[threadIdx.x]))

FunctionCall: __syncthreads()
unsatisfiable

Binary OP: out[threadIdx.x] =((a[threadIdx.x]) +(b[threadIdx.x]))

FunctionCall: __syncthreads()
unsatisfiable

Binary OP: out[threadIdx.x] =((a[threadIdx.x]) +(b[threadIdx.x]))

FunctionCall: __syncthreads()
unsatisfiable

Binary OP: out[threadIdx.x] =((a[threadIdx.x]) +(b[threadIdx.x]))

FunctionCall: __syncthreads()
unsatisfiable

Binary OP: out[threadIdx.x] =((a[threadIdx.x]) +(b[threadIdx.x]))

FunctionCall: __syncthreads()
unsatisfiable

Binary OP: out[threadIdx.x] =((a[threadIdx.x]) +(b[threadIdx.x]))

FunctionCall: __syncthreads()
unsatisfiable

Binary OP: out[threadIdx.x] =((a[threadIdx.x]) +(b[threadIdx.x]))

FunctionCall: __syncthreads()
unsatisfiable

Binary OP: out[threadIdx.x] =((a[threadIdx.x]) +(b[threadIdx.x]))

FunctionCall: __syncthreads()
unsatisfiable

Binary OP: out[threadIdx.x] =((a[threadIdx.x]) +(b[threadIdx.x]))

FunctionCall: __syncthreads()
unsatisfiable

Binary OP: out[threadIdx.x] =((a[threadIdx.x]) +(b[threadIdx.x]))

FunctionCall: __syncthreads()
unsatisfiable

Binary OP: out[threadIdx.x] =((a[threadIdx.x]) +(b[threadIdx.x]))

FunctionCall: __syncthreads()
unsatisfiable

Binary OP: out[threadIdx.x] =((a[threadIdx.x]) +(b[threadIdx.x]))

FunctionCall: __syncthreads()
unsatisfiable

Binary OP: out[threadIdx.x] =((a[threadIdx.x]) +(b[threadIdx.x]))

FunctionCall: __syncthreads()
unsatisfiable

Binary OP: out[threadIdx.x] =((a[threadIdx.x]) +(b[threadIdx.x]))

FunctionCall: __syncthreads()
unsatisfiable

Binary OP: out[threadIdx.x] =((a[threadIdx.x]) +(b[threadIdx.x]))

FunctionCall: __syncthreads()
unsatisfiable

Binary OP: out[threadIdx.x] =((a[threadIdx.x]) +(b[threadIdx.x]))

FunctionCall: __syncthreads()
unsatisfiable

Binary OP: out[threadIdx.x] =((a[threadIdx.x]) +(b[threadIdx.x]))

FunctionCall: __syncthreads()
unsatisfiable

Binary OP: out[threadIdx.x] =((a[threadIdx.x]) +(b[threadIdx.x]))

FunctionCall: __syncthreads()
unsatisfiable

Binary OP: out[threadIdx.x] =((a[threadIdx.x]) +(b[threadIdx.x]))

FunctionCall: __syncthreads()
unsatisfiable

Binary OP: out[threadIdx.x] =((a[threadIdx.x]) +(b[threadIdx.x]))

FunctionCall: __syncthreads()
unsatisfiable

Binary OP: out[threadIdx.x] =((a[threadIdx.x]) +(b[threadIdx.x]))

FunctionCall: __syncthreads()
unsatisfiable

Binary OP: out[threadIdx.x] =((a[threadIdx.x]) +(b[threadIdx.x]))

FunctionCall: __syncthreads()
unsatisfiable

Binary OP: out[threadIdx.x] =((a[threadIdx.x]) +(b[threadIdx.x]))

FunctionCall: __syncthreads()
unsatisfiable

Binary OP: out[threadIdx.x] =((a[threadIdx.x]) +(b[threadIdx.x]))

FunctionCall: __syncthreads()
unsatisfiable

Binary OP: out[threadIdx.x] =((a[threadIdx.x]) +(b[threadIdx.x]))

FunctionCall: __syncthreads()
unsatisfiable

Binary OP: out[threadIdx.x] =((a[threadIdx.x]) +(b[threadIdx.x]))

FunctionCall: __syncthreads()
unsatisfiable

Binary OP: out[threadIdx.x] =((a[threadIdx.x]) +(b[threadIdx.x]))

FunctionCall: __syncthreads()
unsatisfiable

Binary OP: out[threadIdx.x] =((a[threadIdx.x]) +(b[threadIdx.x]))

FunctionCall: __syncthreads()
unsatisfiable

Reaching the end of the kernel


#####################################################################

No races or synchronization errors were found.

Max instance solving time = 0.000167s
Total solving time = 0.004362s

#####################################################################

