"/home/verify/datasets/micro-benchmarks/pug/nested-loops-20.c", line 80: warning: 
          function "kernel" was declared but never referenced
  __global__ void kernel (float* out, float* a, float* b, int count) {
                  ^

>>>> start analysis ... 


-------------------------------------------------------
Invalid OVERFLOW_PROTECTION flag in config.txt!
Setting OVERFLOW_PROTECTION flag to on
-------------------------------------------------------

-------------------------------------------------------
Invalid NBITS value in config.txt!
Setting NBITS value to 10
-------------------------------------------------------

-------------------------------------------------------
Invalid USE_INCRSMT flag in config.txt!
Setting USE_INCRSMT flag to false
-------------------------------------------------------


-------------------------------------------------------
Invalid USE_LOOP_REFINEMENT flag in config.txt!
Setting USE_LOOP_REFINEMENT flag to true
-------------------------------------------------------


-------------------------------------------------------
Invalid SLICE_ARRAYS flag in config.txt!
Setting SLICE_ARRAYS flag to true
-------------------------------------------------------


-------------------------------------------------------
Invalid USE_ASSUMES flag in config.txt!
Setting USE_ASSUMES flag to true
-------------------------------------------------------


-------------------------------------------------------
Invalid CHK_BANK_CONFLICTS option in config.txt!
Setting CHK_BANK_CONFLICTS option to false
-------------------------------------------------------

Debug level (verbosity) set to 0


Processing function: kernel
containBarrierFlag = 0
incrExpr = i0++
------------- Already normalized 
rangeExpr = ((!1^i00 >= 0) && (!1^i00 <= (count0 - 1))); substExpr = 

Binary OP: out[threadIdx.x] =((a[i0]) +(b[i0]))
containBarrierFlag = 0
incrExpr = i1++
------------- Already normalized 
rangeExpr = ((!2^i10 >= 0) && (!2^i10 <= (count0 - 1))); substExpr = 

Binary OP: out[threadIdx.x] =((a[i1]) +(b[i1]))
containBarrierFlag = 0
incrExpr = i2++
------------- Already normalized 
rangeExpr = ((!3^i20 >= 0) && (!3^i20 <= (count0 - 1))); substExpr = 

Binary OP: out[threadIdx.x] =((a[i2]) +(b[i2]))
containBarrierFlag = 0
incrExpr = i3++
------------- Already normalized 
rangeExpr = ((!4^i30 >= 0) && (!4^i30 <= (count0 - 1))); substExpr = 

Binary OP: out[threadIdx.x] =((a[i3]) +(b[i3]))
containBarrierFlag = 0
incrExpr = i4++
------------- Already normalized 
rangeExpr = ((!5^i40 >= 0) && (!5^i40 <= (count0 - 1))); substExpr = 

Binary OP: out[threadIdx.x] =((a[i4]) +(b[i4]))
containBarrierFlag = 0
incrExpr = i5++
------------- Already normalized 
rangeExpr = ((!6^i50 >= 0) && (!6^i50 <= (count0 - 1))); substExpr = 

Binary OP: out[threadIdx.x] =((a[i5]) +(b[i5]))
containBarrierFlag = 0
incrExpr = i6++
------------- Already normalized 
rangeExpr = ((!7^i60 >= 0) && (!7^i60 <= (count0 - 1))); substExpr = 

Binary OP: out[threadIdx.x] =((a[i6]) +(b[i6]))
containBarrierFlag = 0
incrExpr = i7++
------------- Already normalized 
rangeExpr = ((!8^i70 >= 0) && (!8^i70 <= (count0 - 1))); substExpr = 

Binary OP: out[threadIdx.x] =((a[i7]) +(b[i7]))
containBarrierFlag = 0
incrExpr = i8++
------------- Already normalized 
rangeExpr = ((!9^i80 >= 0) && (!9^i80 <= (count0 - 1))); substExpr = 

Binary OP: out[threadIdx.x] =((a[i8]) +(b[i8]))
containBarrierFlag = 0
incrExpr = i9++
------------- Already normalized 
rangeExpr = ((!10^i90 >= 0) && (!10^i90 <= (count0 - 1))); substExpr = 

Binary OP: out[threadIdx.x] =((a[i9]) +(b[i9]))
containBarrierFlag = 0
incrExpr = i10++
------------- Already normalized 
rangeExpr = ((!11^i100 >= 0) && (!11^i100 <= (count0 - 1))); substExpr = 

Binary OP: out[threadIdx.x] =((a[i10]) +(b[i10]))
containBarrierFlag = 0
incrExpr = i11++
------------- Already normalized 
rangeExpr = ((!12^i110 >= 0) && (!12^i110 <= (count0 - 1))); substExpr = 

Binary OP: out[threadIdx.x] =((a[i11]) +(b[i11]))
containBarrierFlag = 0
incrExpr = i12++
------------- Already normalized 
rangeExpr = ((!13^i120 >= 0) && (!13^i120 <= (count0 - 1))); substExpr = 

Binary OP: out[threadIdx.x] =((a[i12]) +(b[i12]))
containBarrierFlag = 0
incrExpr = i13++
------------- Already normalized 
rangeExpr = ((!14^i130 >= 0) && (!14^i130 <= (count0 - 1))); substExpr = 

Binary OP: out[threadIdx.x] =((a[i13]) +(b[i13]))
containBarrierFlag = 0
incrExpr = i14++
------------- Already normalized 
rangeExpr = ((!15^i140 >= 0) && (!15^i140 <= (count0 - 1))); substExpr = 

Binary OP: out[threadIdx.x] =((a[i14]) +(b[i14]))
containBarrierFlag = 0
incrExpr = i15++
------------- Already normalized 
rangeExpr = ((!16^i150 >= 0) && (!16^i150 <= (count0 - 1))); substExpr = 

Binary OP: out[threadIdx.x] =((a[i15]) +(b[i15]))
containBarrierFlag = 0
incrExpr = i16++
------------- Already normalized 
rangeExpr = ((!17^i160 >= 0) && (!17^i160 <= (count0 - 1))); substExpr = 

Binary OP: out[threadIdx.x] =((a[i16]) +(b[i16]))
containBarrierFlag = 0
incrExpr = i17++
------------- Already normalized 
rangeExpr = ((!18^i170 >= 0) && (!18^i170 <= (count0 - 1))); substExpr = 

Binary OP: out[threadIdx.x] =((a[i17]) +(b[i17]))
containBarrierFlag = 0
incrExpr = i18++
------------- Already normalized 
rangeExpr = ((!19^i180 >= 0) && (!19^i180 <= (count0 - 1))); substExpr = 

Binary OP: out[threadIdx.x] =((a[i18]) +(b[i18]))
containBarrierFlag = 0
incrExpr = i19++
------------- Already normalized 
rangeExpr = ((!20^i190 >= 0) && (!20^i190 <= (count0 - 1))); substExpr = 

Binary OP: out[threadIdx.x] =((a[i19]) +(b[i19]))

Reaching the end of the kernel
unsatisfiable


#####################################################################

No races or synchronization errors were found.

Max instance solving time = 0.00258s
Total solving time = 0.00258s

#####################################################################

