"/home/verify/datasets/micro-benchmarks/pug/ifs-15.c", line 84: warning: 
          function "kernel" was declared but never referenced
  __global__ void kernel (float* out, float* a, float* b) {
                  ^

>>>> start analysis ... 


-------------------------------------------------------
Invalid OVERFLOW_PROTECTION flag in config.txt!
Setting OVERFLOW_PROTECTION flag to on
-------------------------------------------------------

-------------------------------------------------------
Invalid NBITS value in config.txt!
Setting NBITS value to 10
-------------------------------------------------------

-------------------------------------------------------
Invalid USE_INCRSMT flag in config.txt!
Setting USE_INCRSMT flag to false
-------------------------------------------------------


-------------------------------------------------------
Invalid USE_LOOP_REFINEMENT flag in config.txt!
Setting USE_LOOP_REFINEMENT flag to true
-------------------------------------------------------


-------------------------------------------------------
Invalid SLICE_ARRAYS flag in config.txt!
Setting SLICE_ARRAYS flag to true
-------------------------------------------------------


-------------------------------------------------------
Invalid USE_ASSUMES flag in config.txt!
Setting USE_ASSUMES flag to true
-------------------------------------------------------


-------------------------------------------------------
Invalid CHK_BANK_CONFLICTS option in config.txt!
Setting CHK_BANK_CONFLICTS option to false
-------------------------------------------------------

Debug level (verbosity) set to 0


Processing function: kernel

FunctionCall: assume(((blockDim.x) ==(64)))
Assuming bdim.x == 64

FunctionCall: assume(((gridDim.x) ==(1)))
Assuming gdim.x == 1

Binary OP: out[threadIdx.x] =((a[0]) +(b[0]))

Binary OP: out[threadIdx.x] =((a[1]) +(b[1]))

Binary OP: out[threadIdx.x] =((a[2]) +(b[2]))

Binary OP: out[threadIdx.x] =((a[3]) +(b[3]))

Binary OP: out[threadIdx.x] =((a[4]) +(b[4]))

Binary OP: out[threadIdx.x] =((a[5]) +(b[5]))

Binary OP: out[threadIdx.x] =((a[6]) +(b[6]))

Binary OP: out[threadIdx.x] =((a[7]) +(b[7]))

Binary OP: out[threadIdx.x] =((a[8]) +(b[8]))

Binary OP: out[threadIdx.x] =((a[9]) +(b[9]))

Binary OP: out[threadIdx.x] =((a[10]) +(b[10]))

Binary OP: out[threadIdx.x] =((a[11]) +(b[11]))

Binary OP: out[threadIdx.x] =((a[12]) +(b[12]))

Binary OP: out[threadIdx.x] =((a[13]) +(b[13]))

Binary OP: out[threadIdx.x] =((a[14]) +(b[14]))

Reaching the end of the kernel
unsatisfiable


#####################################################################

No races or synchronization errors were found.

Max instance solving time = 0.002164s
Total solving time = 0.002164s

#####################################################################

