nested-loops-sync-19.cpp:99:31: error: indirection requires pointer operand ('unsigned long' invalid)
    cudaMalloc((void**)&out,  * sizeof(float));
                              ^ ~~~~~~~~~~~~~
nested-loops-sync-19.cpp:103:29: error: indirection requires pointer operand ('unsigned long' invalid)
    cudaMalloc((void**)&a,  * sizeof(float));
                            ^ ~~~~~~~~~~~~~
nested-loops-sync-19.cpp:107:29: error: indirection requires pointer operand ('unsigned long' invalid)
    cudaMalloc((void**)&b,  * sizeof(float));
                            ^ ~~~~~~~~~~~~~
3 errors generated.
opt: gklee/nested-loops-sync-19.bc: error: Could not open input file: No such file or directory
RUN /opt/gklee/gklee-nvcc gklee/nested-loops-sync-19.cu -o gklee/nested-loops-sync-19.bc
RUN /opt/gklee/sesa gklee/nested-loops-sync-19.bc -o gklee/nested-loops-sync-19.sesa
DEL /home/verify/datasets/micro-benchmarks/nested-loops-sync-19.cpp
DEL /home/verify/datasets/micro-benchmarks/nested-loops-sync-19.kernelSet.txt
