nested-loops-sync-25.cpp:123:31: error: indirection requires pointer operand ('unsigned long' invalid)
    cudaMalloc((void**)&out,  * sizeof(float));
                              ^ ~~~~~~~~~~~~~
nested-loops-sync-25.cpp:127:29: error: indirection requires pointer operand ('unsigned long' invalid)
    cudaMalloc((void**)&a,  * sizeof(float));
                            ^ ~~~~~~~~~~~~~
nested-loops-sync-25.cpp:131:29: error: indirection requires pointer operand ('unsigned long' invalid)
    cudaMalloc((void**)&b,  * sizeof(float));
                            ^ ~~~~~~~~~~~~~
3 errors generated.
opt: gklee/nested-loops-sync-25.bc: error: Could not open input file: No such file or directory
RUN /opt/gklee/gklee-nvcc gklee/nested-loops-sync-25.cu -o gklee/nested-loops-sync-25.bc
RUN /opt/gklee/sesa gklee/nested-loops-sync-25.bc -o gklee/nested-loops-sync-25.sesa
DEL /home/verify/datasets/micro-benchmarks/nested-loops-sync-25.cpp
DEL /home/verify/datasets/micro-benchmarks/nested-loops-sync-25.kernelSet.txt
