nested-loops-20.cpp:83:31: error: indirection requires pointer operand ('unsigned long' invalid)
    cudaMalloc((void**)&out,  * sizeof(float));
                              ^ ~~~~~~~~~~~~~
nested-loops-20.cpp:87:29: error: indirection requires pointer operand ('unsigned long' invalid)
    cudaMalloc((void**)&a,  * sizeof(float));
                            ^ ~~~~~~~~~~~~~
nested-loops-20.cpp:91:29: error: indirection requires pointer operand ('unsigned long' invalid)
    cudaMalloc((void**)&b,  * sizeof(float));
                            ^ ~~~~~~~~~~~~~
3 errors generated.
opt: gklee/nested-loops-20.bc: error: Could not open input file: No such file or directory
RUN /opt/gklee/gklee-nvcc gklee/nested-loops-20.cu -o gklee/nested-loops-20.bc
RUN /opt/gklee/sesa gklee/nested-loops-20.bc -o gklee/nested-loops-20.sesa
DEL /home/verify/datasets/micro-benchmarks/nested-loops-20.cpp
DEL /home/verify/datasets/micro-benchmarks/nested-loops-20.kernelSet.txt
