"/artifact/datasets/gpuverify-cav14/pug/CUDA50/0_Simple/simpleStreams/simpleStreams.c", line 84: warning: 
          function "kernel" was declared but never referenced
  __global__ void kernel (int* g_data, int* factor, int num_iterations) {
                  ^

>>>> start analysis ... 


-------------------------------------------------------
Invalid OVERFLOW_PROTECTION flag in config.txt!
Setting OVERFLOW_PROTECTION flag to on
-------------------------------------------------------

-------------------------------------------------------
Invalid NBITS value in config.txt!
Setting NBITS value to 10
-------------------------------------------------------

-------------------------------------------------------
Invalid USE_INCRSMT flag in config.txt!
Setting USE_INCRSMT flag to false
-------------------------------------------------------


-------------------------------------------------------
Invalid USE_LOOP_REFINEMENT flag in config.txt!
Setting USE_LOOP_REFINEMENT flag to true
-------------------------------------------------------


-------------------------------------------------------
Invalid SLICE_ARRAYS flag in config.txt!
Setting SLICE_ARRAYS flag to true
-------------------------------------------------------


-------------------------------------------------------
Invalid USE_ASSUMES flag in config.txt!
Setting USE_ASSUMES flag to true
-------------------------------------------------------


-------------------------------------------------------
Invalid CHK_BANK_CONFLICTS option in config.txt!
Setting CHK_BANK_CONFLICTS option to false
-------------------------------------------------------

Debug level (verbosity) set to 0


Processing function: kernel

FunctionCall: assume(((blockDim.x) ==(512)))
Assuming bdim.x == 512

FunctionCall: assume(((blockDim.y) ==(1)))
Assuming bdim.y == 1

FunctionCall: assume(((blockDim.z) ==(1)))
Assuming bdim.z == 1

FunctionCall: assume(((gridDim.x) ==(32768)))
Assuming gdim.x == 32768

FunctionCall: assume(((gridDim.y) ==(1)))
Assuming gdim.y == 1

FunctionCall: assume(((gridDim.z) ==(1)))
Assuming gdim.z == 1
containBarrierFlag = 0
incrExpr = i++
------------- Already normalized 
rangeExpr = ((!1^i0 >= 0) && (!1^i0 <= (num_iterations0 - 1))); substExpr = 

Binary OP: g_data[idx] += *factor
Found loop carrying expression, skip!

Reaching the end of the kernel
unsatisfiable


#####################################################################

No races or synchronization errors were found.

Max instance solving time = 0.000408s
Total solving time = 0.000408s

#####################################################################

