WARNING: rewriting function call to 'mod' into 0
WARNING: rewriting function call to 'mod' into 0
WARNING: rewriting function call to 'mod' into 0
WARNING: rewriting function call to 'mod' into 0
WARNING: rewriting function call to 'mod' into 0
Program is data-race free!
