"/artifact/datasets/gpuverify-cav14/pug/CUDA50/5_Simulations/particles/common.h", line 51: error: 
          identifier "SimParams" is undefined
  __constant__ SimParams params;
               ^

"/artifact/datasets/gpuverify-cav14/pug/CUDA50/5_Simulations/particles/common.h", line 54: warning: 
          attribute "always_inline" ignored
  static __attribute__((always_inline)) __device__ int3 calcGridPos(float3 p)
                        ^

"/artifact/datasets/gpuverify-cav14/pug/CUDA50/5_Simulations/particles/common.h", line 54: warning: 
          type qualifier on return type is meaningless
  static __attribute__((always_inline)) __device__ int3 calcGridPos(float3 p)
                                                        ^

"/artifact/datasets/gpuverify-cav14/pug/CUDA50/5_Simulations/particles/common.h", line 64: warning: 
          attribute "always_inline" ignored
  static __attribute__((always_inline)) __device__ uint calcGridHash(int3 gridPos)
                        ^

"/artifact/datasets/gpuverify-cav14/pug/CUDA50/5_Simulations/particles/common.h", line 64: warning: 
          type qualifier on return type is meaningless
  static __attribute__((always_inline)) __device__ uint calcGridHash(int3 gridPos)
                                                        ^

"/artifact/datasets/gpuverify-cav14/pug/CUDA50/5_Simulations/particles/common.h", line 73: warning: 
          attribute "always_inline" ignored
  static __attribute__((always_inline)) __device__
                        ^

"/artifact/datasets/gpuverify-cav14/pug/CUDA50/5_Simulations/particles/common.h", line 74: warning: 
          type qualifier on return type is meaningless
  float3 collideSpheres(float3 posA, float3 posB,
         ^

"/artifact/datasets/gpuverify-cav14/pug/CUDA50/5_Simulations/particles/common.h", line 80: error: 
          expression must have arithmetic or pointer type
      float3 relPos = posB - posA;
                      ^

"/artifact/datasets/gpuverify-cav14/pug/CUDA50/5_Simulations/particles/common.h", line 85: error: 
          a value of type "int" cannot be used to initialize an entity of type
          "float3"
      float3 force = make_float3(0.0f);
                     ^

"/artifact/datasets/gpuverify-cav14/pug/CUDA50/5_Simulations/particles/common.h", line 89: error: 
          expression must have arithmetic type
          float3 norm = relPos / dist;
                        ^

"/artifact/datasets/gpuverify-cav14/pug/CUDA50/5_Simulations/particles/common.h", line 92: error: 
          expression must have arithmetic or pointer type
          float3 relVel = velB - velA;
                          ^

"/artifact/datasets/gpuverify-cav14/pug/CUDA50/5_Simulations/particles/common.h", line 95: error: 
          expression must have arithmetic type
          float3 tanVel = relVel - (dot(relVel, norm) * norm);
                                                        ^

"/artifact/datasets/gpuverify-cav14/pug/CUDA50/5_Simulations/particles/common.h", line 95: error: 
          expression must have arithmetic or pointer type
          float3 tanVel = relVel - (dot(relVel, norm) * norm);
                          ^

"/artifact/datasets/gpuverify-cav14/pug/CUDA50/5_Simulations/particles/common.h", line 98: error: 
          expression must have arithmetic type
          force = -params.spring*(collideDist - dist) * norm;
                                                        ^

"/artifact/datasets/gpuverify-cav14/pug/CUDA50/5_Simulations/particles/common.h", line 100: error: 
          expression must have arithmetic type
          force += params.damping*relVel;
                                  ^

"/artifact/datasets/gpuverify-cav14/pug/CUDA50/5_Simulations/particles/common.h", line 100: error: 
          expression must have arithmetic or pointer type
          force += params.damping*relVel;
          ^

"/artifact/datasets/gpuverify-cav14/pug/CUDA50/5_Simulations/particles/common.h", line 102: error: 
          expression must have arithmetic type
          force += params.shear*tanVel;
                                ^

"/artifact/datasets/gpuverify-cav14/pug/CUDA50/5_Simulations/particles/common.h", line 102: error: 
          expression must have arithmetic or pointer type
          force += params.shear*tanVel;
          ^

"/artifact/datasets/gpuverify-cav14/pug/CUDA50/5_Simulations/particles/common.h", line 104: error: 
          expression must have arithmetic type
          force += attraction*relPos;
                              ^

"/artifact/datasets/gpuverify-cav14/pug/CUDA50/5_Simulations/particles/common.h", line 104: error: 
          expression must have arithmetic or pointer type
          force += attraction*relPos;
          ^

"/artifact/datasets/gpuverify-cav14/pug/CUDA50/5_Simulations/particles/common.h", line 111: warning: 
          attribute "always_inline" ignored
  static __attribute__((always_inline)) __device__
                        ^

"/artifact/datasets/gpuverify-cav14/pug/CUDA50/5_Simulations/particles/common.h", line 112: warning: 
          type qualifier on return type is meaningless
  float3 collideCell(int3    gridPos,
         ^

"/artifact/datasets/gpuverify-cav14/pug/CUDA50/5_Simulations/particles/common.h", line 126: error: 
          a value of type "int" cannot be used to initialize an entity of type
          "float3"
      float3 force = make_float3(0.0f);
                     ^

"/artifact/datasets/gpuverify-cav14/pug/CUDA50/5_Simulations/particles/common.h", line 137: error: 
          a value of type "int" cannot be used to initialize an entity of type
          "float3"
                  float3 pos2 = make_float3(FETCH(oldPos, j));
                                ^

"/artifact/datasets/gpuverify-cav14/pug/CUDA50/5_Simulations/particles/common.h", line 138: error: 
          a value of type "int" cannot be used to initialize an entity of type
          "float3"
                  float3 vel2 = make_float3(FETCH(oldVel, j));
                                ^

"/artifact/datasets/gpuverify-cav14/pug/CUDA50/5_Simulations/particles/common.h", line 141: error: 
          expression must have arithmetic or pointer type
                  force += collideSpheres(pos, pos2, vel, vel2, params.particleRadius, params.particleRadius, params.attraction);
                  ^

"/artifact/datasets/gpuverify-cav14/pug/CUDA50/5_Simulations/particles/calcHashD.c", line 113: error: 
          argument of type "int" is incompatible with parameter of type
          "float3"
      int3 gridPos = calcGridPos(make_float3(p.x, p.y, p.z));
                                 ^

"/artifact/datasets/gpuverify-cav14/pug/CUDA50/5_Simulations/particles/calcHashD.c", line 86: warning: 
          function "kernel" was declared but never referenced
  __global__ void kernel (uint* gridParticleHash, // output
                  ^

terminate called after throwing an instance of 'rose_exception'
  what():  Errors in Processing: (frontend_failed)
/artifact/tools/pug-v0.2_x64/pug: line 3: 12861 Aborted                 (core dumped) LD_LIBRARY_PATH="$PREFIX/lib" "$PREFIX/bin/pug" "$@"
