GPUVerify kernel analyser finished with 1 verified, 0 errors
Verified: kernel.cu
- no data races within thread blocks
- no barrier divergence
- no assertion failures
(but absolutely no warranty provided)
