In file included from /artifact/datasets/gpuverify-cav14/faial/gpgpu-sim_ispass2009/STO/md5_overlap.cu:5:
/artifact/datasets/gpuverify-cav14/faial/gpgpu-sim_ispass2009/STO/md5_common.h:140:1: warning: duplicate 'static' declaration specifier [-Wduplicate-decl-specifier]
static void md5_starts( md5_context *ctx ) {
^~~~~~~
/artifact/datasets/gpuverify-cav14/faial/gpgpu-sim_ispass2009/STO/md5_common.h:166:1: warning: duplicate 'static' declaration specifier [-Wduplicate-decl-specifier]
static void md5_process( md5_context *ctx, unsigned char data[64] ) {
^~~~~~~
/artifact/datasets/gpuverify-cav14/faial/gpgpu-sim_ispass2009/STO/md5_common.h:308:1: warning: duplicate 'static' declaration specifier [-Wduplicate-decl-specifier]
static void md5_update( md5_context *ctx, unsigned char *input, int ilen ) {
^~~~~~~
/artifact/datasets/gpuverify-cav14/faial/gpgpu-sim_ispass2009/STO/md5_common.h:418:1: warning: duplicate 'static' declaration specifier [-Wduplicate-decl-specifier]
static void md5_internal( unsigned char *input, int ilen, 
^~~~~~~
/artifact/datasets/gpuverify-cav14/faial/gpgpu-sim_ispass2009/STO/md5_overlap.cu:25:20: warning: equality comparison with extraneous parentheses [-Wparentheses-equality]
  if ((threadIndex == (totalThreads - 1))) {
       ~~~~~~~~~~~~^~~~~~~~~~~~~~~~~~~~~
/artifact/datasets/gpuverify-cav14/faial/gpgpu-sim_ispass2009/STO/md5_overlap.cu:25:20: note: remove extraneous parentheses around the comparison to silence this warning
  if ((threadIndex == (totalThreads - 1))) {
      ~            ^                    ~
/artifact/datasets/gpuverify-cav14/faial/gpgpu-sim_ispass2009/STO/md5_overlap.cu:25:20: note: use '=' to turn this equality comparison into an assignment
  if ((threadIndex == (totalThreads - 1))) {
                   ^~
                   =
5 warnings generated.
Program is data-race free!
