"/artifact/datasets/gpuverify-cav14/pug/CUDA50/3_Imaging/recursiveGaussian/common.h", line 2: warning: 
          type qualifier on return type is meaningless
  __device__ float __saturatef(float);
                   ^

"/artifact/datasets/gpuverify-cav14/pug/CUDA50/3_Imaging/recursiveGaussian/common.h", line 4: warning: 
          attribute "always_inline" ignored
  __device__ static __attribute__((always_inline)) uint rgbaFloatToInt(float4 rgba);
                                   ^

"/artifact/datasets/gpuverify-cav14/pug/CUDA50/3_Imaging/recursiveGaussian/common.h", line 4: warning: 
          type qualifier on return type is meaningless
  __device__ static __attribute__((always_inline)) uint rgbaFloatToInt(float4 rgba);
                                                        ^

"/artifact/datasets/gpuverify-cav14/pug/CUDA50/3_Imaging/recursiveGaussian/common.h", line 5: warning: 
          attribute "always_inline" ignored
  __device__ static __attribute__((always_inline)) float4 rgbaIntToFloat(uint c);
                                   ^

"/artifact/datasets/gpuverify-cav14/pug/CUDA50/3_Imaging/recursiveGaussian/common.h", line 5: warning: 
          type qualifier on return type is meaningless
  __device__ static __attribute__((always_inline)) float4 rgbaIntToFloat(uint c);
                                                          ^

"/artifact/datasets/gpuverify-cav14/pug/CUDA50/3_Imaging/recursiveGaussian/common.h", line 10: warning: 
          attribute "always_inline" ignored
  __device__ static __attribute__((always_inline)) uint rgbaFloatToInt(float4 rgba)
                                   ^

"/artifact/datasets/gpuverify-cav14/pug/CUDA50/3_Imaging/recursiveGaussian/common.h", line 10: warning: 
          type qualifier on return type is meaningless
  __device__ static __attribute__((always_inline)) uint rgbaFloatToInt(float4 rgba)
                                                        ^

"/artifact/datasets/gpuverify-cav14/pug/CUDA50/3_Imaging/recursiveGaussian/common.h", line 16: error: 
          expected a ")"
      return (uint(rgba.w*255)<<24) | (uint(rgba.z*255)<<16) | (uint(rgba.y*255)<<8) | uint(rgba.x*255);
                   ^

"/artifact/datasets/gpuverify-cav14/pug/CUDA50/3_Imaging/recursiveGaussian/common.h", line 16: error: 
          expected a ")"
      return (uint(rgba.w*255)<<24) | (uint(rgba.z*255)<<16) | (uint(rgba.y*255)<<8) | uint(rgba.x*255);
                              ^

"/artifact/datasets/gpuverify-cav14/pug/CUDA50/3_Imaging/recursiveGaussian/common.h", line 16: error: 
          expected an expression
      return (uint(rgba.w*255)<<24) | (uint(rgba.z*255)<<16) | (uint(rgba.y*255)<<8) | uint(rgba.x*255);
                                    ^

"/artifact/datasets/gpuverify-cav14/pug/CUDA50/3_Imaging/recursiveGaussian/common.h", line 20: warning: 
          attribute "always_inline" ignored
  __device__ static __attribute__((always_inline)) float4 rgbaIntToFloat(uint c)
                                   ^

"/artifact/datasets/gpuverify-cav14/pug/CUDA50/3_Imaging/recursiveGaussian/common.h", line 20: warning: 
          type qualifier on return type is meaningless
  __device__ static __attribute__((always_inline)) float4 rgbaIntToFloat(uint c)
                                                          ^

"/artifact/datasets/gpuverify-cav14/pug/CUDA50/3_Imaging/recursiveGaussian/d_simpleRecursive_rgba.c", line 119: error: 
          expression must have arithmetic or pointer type
          float4 yc = xc + a*(yp - xc);   // simple lerp between current and previous value
                              ^

"/artifact/datasets/gpuverify-cav14/pug/CUDA50/3_Imaging/recursiveGaussian/d_simpleRecursive_rgba.c", line 119: error: 
          expression must have arithmetic or pointer type
          float4 yc = xc + a*(yp - xc);   // simple lerp between current and previous value
                      ^

"/artifact/datasets/gpuverify-cav14/pug/CUDA50/3_Imaging/recursiveGaussian/d_simpleRecursive_rgba.c", line 133: error: 
          expression must have arithmetic or pointer type
          float4 yc = xc + a*(yp - xc);
                              ^

"/artifact/datasets/gpuverify-cav14/pug/CUDA50/3_Imaging/recursiveGaussian/d_simpleRecursive_rgba.c", line 133: error: 
          expression must have arithmetic or pointer type
          float4 yc = xc + a*(yp - xc);
                      ^

"/artifact/datasets/gpuverify-cav14/pug/CUDA50/3_Imaging/recursiveGaussian/d_simpleRecursive_rgba.c", line 134: error: 
          expression must have arithmetic or pointer type
          od[x + y * w] = rgbaFloatToInt((rgbaIntToFloat(od[x + y * w]) + yc)*0.5f);
                                          ^

"/artifact/datasets/gpuverify-cav14/pug/CUDA50/3_Imaging/recursiveGaussian/d_simpleRecursive_rgba.c", line 85: warning: 
          function "kernel" was declared but never referenced
  __global__ void kernel (uint* id, uint* od, int w,int h,float a) {
                  ^

terminate called after throwing an instance of 'rose_exception'
  what():  Errors in Processing: (frontend_failed)
/artifact/tools/pug-v0.2_x64/pug: line 3: 45934 Aborted                 (core dumped) LD_LIBRARY_PATH="$PREFIX/lib" "$PREFIX/bin/pug" "$@"
