"/artifact/datasets/gpuverify-cav14/pug/CUDA50/3_Imaging/dct8x8/CUDAkernelQuantizationShort.c", line 85: warning: 
          function "kernel" was declared but never referenced
  __global__ void kernel (short* SrcDst, int Stride) {
                  ^

>>>> start analysis ... 


-------------------------------------------------------
Invalid OVERFLOW_PROTECTION flag in config.txt!
Setting OVERFLOW_PROTECTION flag to on
-------------------------------------------------------

-------------------------------------------------------
Invalid NBITS value in config.txt!
Setting NBITS value to 10
-------------------------------------------------------

-------------------------------------------------------
Invalid USE_INCRSMT flag in config.txt!
Setting USE_INCRSMT flag to false
-------------------------------------------------------


-------------------------------------------------------
Invalid USE_LOOP_REFINEMENT flag in config.txt!
Setting USE_LOOP_REFINEMENT flag to true
-------------------------------------------------------


-------------------------------------------------------
Invalid SLICE_ARRAYS flag in config.txt!
Setting SLICE_ARRAYS flag to true
-------------------------------------------------------


-------------------------------------------------------
Invalid USE_ASSUMES flag in config.txt!
Setting USE_ASSUMES flag to true
-------------------------------------------------------


-------------------------------------------------------
Invalid CHK_BANK_CONFLICTS option in config.txt!
Setting CHK_BANK_CONFLICTS option to false
-------------------------------------------------------

Debug level (verbosity) set to 0


Processing function: kernel

FunctionCall: assume((Stride == 512))
Assuming Stride0 == 512

FunctionCall: assume(((blockDim.x) ==(8)))
Assuming bdim.x == 8

FunctionCall: assume(((blockDim.y) ==(8)))
Assuming bdim.y == 8

FunctionCall: assume(((blockDim.z) ==(1)))
Assuming bdim.z == 1

FunctionCall: assume(((gridDim.x) ==(64)))
Assuming gdim.x == 64

FunctionCall: assume(((gridDim.y) ==(64)))
Assuming gdim.y == 64

FunctionCall: assume(((gridDim.z) ==(1)))
Assuming gdim.z == 1

Binary OP: curCoef =((-(curCoef)))

Binary OP: curCoef +=((curQuant) >> 1)

Binary OP: curCoef /=(curQuant)

Binary OP: curCoef =((-(curCoef)))

Binary OP: curCoef +=((curQuant) >> 1)

Binary OP: curCoef /=(curQuant)

FunctionCall: __syncthreads()

Binary OP: curCoef =(((curCoef) *(curQuant)))

Binary OP: SrcDst[(((by * 8) + ty) * Stride) +((bx * 8) + tx)] = curCoef

Reaching the end of the kernel
Equation: (= curCoef2@t1 (bv-add (bv-mul curQuant1@t1 v#1) v#0))
Equation: (= curCoef3@t1 (bv-add (bv-mul curQuant1@t1 v#3) v#2))
Equation: (= curCoef2@t2 (bv-add (bv-mul curQuant1@t2 v#5) v#4))
Equation: (= curCoef3@t2 (bv-add (bv-mul curQuant1@t2 v#7) v#6))terminate called after throwing an instance of 'yices::type_checker_exception'
  what():  incompatible types in equality.
/artifact/tools/pug-v0.2_x64/pug: line 3: 52419 Aborted                 (core dumped) LD_LIBRARY_PATH="$PREFIX/lib" "$PREFIX/bin/pug" "$@"
