"/artifact/datasets/gpuverify-cav14/pug/CUDA50/3_Imaging/boxFilter/common.h", line 1: warning: 
          type qualifier on return type is meaningless
  __device__ float __saturatef(float);
                   ^

"/artifact/datasets/gpuverify-cav14/pug/CUDA50/3_Imaging/boxFilter/common.h", line 3: warning: 
          attribute "always_inline" ignored
  __device__ static __attribute__((always_inline)) void d_boxfilter_x(float *id, float *od, int w, int h, int r);
                                   ^

"/artifact/datasets/gpuverify-cav14/pug/CUDA50/3_Imaging/boxFilter/common.h", line 4: warning: 
          attribute "always_inline" ignored
  __device__ static __attribute__((always_inline)) void d_boxfilter_y(float *id, float *od, int w, int h, int r);
                                   ^

"/artifact/datasets/gpuverify-cav14/pug/CUDA50/3_Imaging/boxFilter/common.h", line 5: warning: 
          attribute "always_inline" ignored
  __device__ static __attribute__((always_inline)) unsigned int rgbaFloatToInt(float4 rgba);
                                   ^

"/artifact/datasets/gpuverify-cav14/pug/CUDA50/3_Imaging/boxFilter/common.h", line 5: warning: 
          type qualifier on return type is meaningless
  __device__ static __attribute__((always_inline)) unsigned int rgbaFloatToInt(float4 rgba);
                                                                ^

"/artifact/datasets/gpuverify-cav14/pug/CUDA50/3_Imaging/boxFilter/common.h", line 6: warning: 
          attribute "always_inline" ignored
  __device__ static __attribute__((always_inline)) float4 rgbaIntToFloat(unsigned int c);
                                   ^

"/artifact/datasets/gpuverify-cav14/pug/CUDA50/3_Imaging/boxFilter/common.h", line 6: warning: 
          type qualifier on return type is meaningless
  __device__ static __attribute__((always_inline)) float4 rgbaIntToFloat(unsigned int c);
                                                          ^

"/artifact/datasets/gpuverify-cav14/pug/CUDA50/3_Imaging/boxFilter/common.h", line 8: error: 
          this declaration has no storage class or type specifier
  texture<float, 2> tex;
  ^

"/artifact/datasets/gpuverify-cav14/pug/CUDA50/3_Imaging/boxFilter/common.h", line 8: error: 
          expected a ";"
  texture<float, 2> tex;
         ^

"/artifact/datasets/gpuverify-cav14/pug/CUDA50/3_Imaging/boxFilter/common.h", line 9: error: 
          this declaration has no storage class or type specifier
  texture<uchar4, 2, cudaReadModeNormalizedFloat> rgbaTex;
  ^

"/artifact/datasets/gpuverify-cav14/pug/CUDA50/3_Imaging/boxFilter/common.h", line 9: error: 
          expected a ";"
  texture<uchar4, 2, cudaReadModeNormalizedFloat> rgbaTex;
         ^

"/artifact/datasets/gpuverify-cav14/pug/CUDA50/3_Imaging/boxFilter/common.h", line 11: warning: 
          attribute "always_inline" ignored
  __device__ static __attribute__((always_inline)) void
                                   ^

"/artifact/datasets/gpuverify-cav14/pug/CUDA50/3_Imaging/boxFilter/common.h", line 54: warning: 
          attribute "always_inline" ignored
  __device__ static __attribute__((always_inline)) void
                                   ^

"/artifact/datasets/gpuverify-cav14/pug/CUDA50/3_Imaging/boxFilter/common.h", line 94: warning: 
          attribute "always_inline" ignored
  __device__ static __attribute__((always_inline)) unsigned int rgbaFloatToInt(float4 rgba)
                                   ^

"/artifact/datasets/gpuverify-cav14/pug/CUDA50/3_Imaging/boxFilter/common.h", line 94: warning: 
          type qualifier on return type is meaningless
  __device__ static __attribute__((always_inline)) unsigned int rgbaFloatToInt(float4 rgba)
                                                                ^

"/artifact/datasets/gpuverify-cav14/pug/CUDA50/3_Imaging/boxFilter/common.h", line 106: warning: 
          attribute "always_inline" ignored
  __device__ static __attribute__((always_inline)) float4 rgbaIntToFloat(unsigned int c)
                                   ^

"/artifact/datasets/gpuverify-cav14/pug/CUDA50/3_Imaging/boxFilter/common.h", line 106: warning: 
          type qualifier on return type is meaningless
  __device__ static __attribute__((always_inline)) float4 rgbaIntToFloat(unsigned int c)
                                                          ^

"/artifact/datasets/gpuverify-cav14/pug/CUDA50/3_Imaging/boxFilter/d_boxfilter_x_tex.c", line 117: error: 
          identifier "tex" is undefined
          t += tex2D(tex, x, y);
                     ^

"/artifact/datasets/gpuverify-cav14/pug/CUDA50/3_Imaging/boxFilter/d_boxfilter_x_tex.c", line 125: error: 
          identifier "tex" is undefined
          t += tex2D(tex, x + r, y);
                     ^

"/artifact/datasets/gpuverify-cav14/pug/CUDA50/3_Imaging/boxFilter/d_boxfilter_x_tex.c", line 85: warning: 
          function "kernel" was declared but never referenced
  __global__ void kernel (float* od, int w,int h,int r) {
                  ^

terminate called after throwing an instance of 'rose_exception'
  what():  Errors in Processing: (frontend_failed)
/artifact/tools/pug-v0.2_x64/pug: line 3: 49096 Aborted                 (core dumped) LD_LIBRARY_PATH="$PREFIX/lib" "$PREFIX/bin/pug" "$@"
