[1;31m*** DATA RACE ERROR ***[0m

Array:   du[1]
T1 mode: W
T2 mode: W

-------------------
 Globals     Value 
-------------------
 blockIdx.x  0 
-------------------
 blockIdx.y  0 
-------------------

---------------------
 Locals       T1  T2 
---------------------
 threadIdx.x  0   0 
---------------------
 threadIdx.y  1   0 
---------------------

[1;31m*** DATA RACE ERROR ***[0m

Array:   dv[1]
T1 mode: W
T2 mode: W

-------------------
 Globals     Value 
-------------------
 blockIdx.x  0 
-------------------
 blockIdx.y  0 
-------------------

---------------------
 Locals       T1  T2 
---------------------
 threadIdx.x  0   0 
---------------------
 threadIdx.y  0   1 
---------------------

