"/home/hkz/research/drf-benchmark/datasets/correctness/pug/real-world/transposeDiagonal.c", line 87: warning: 
          function "kernel" was declared but never referenced
  __global__ void kernel (float* odata, float* idata, int width,int height,int nreps) {
                  ^

>>>> start analysis ... 


-------------------------------------------------------
Invalid OVERFLOW_PROTECTION flag in config.txt!
Setting OVERFLOW_PROTECTION flag to on
-------------------------------------------------------

-------------------------------------------------------
Invalid NBITS value in config.txt!
Setting NBITS value to 10
-------------------------------------------------------

-------------------------------------------------------
Invalid USE_INCRSMT flag in config.txt!
Setting USE_INCRSMT flag to false
-------------------------------------------------------


-------------------------------------------------------
Invalid USE_LOOP_REFINEMENT flag in config.txt!
Setting USE_LOOP_REFINEMENT flag to true
-------------------------------------------------------


-------------------------------------------------------
Invalid SLICE_ARRAYS flag in config.txt!
Setting SLICE_ARRAYS flag to true
-------------------------------------------------------


-------------------------------------------------------
Invalid USE_ASSUMES flag in config.txt!
Setting USE_ASSUMES flag to true
-------------------------------------------------------


-------------------------------------------------------
Invalid CHK_BANK_CONFLICTS option in config.txt!
Setting CHK_BANK_CONFLICTS option to false
-------------------------------------------------------

Debug level (verbosity) set to 0


Processing function: kernel

FunctionCall: assume(((blockDim.x) ==(16)))
Assuming bdim.x == 16

FunctionCall: assume(((blockDim.y) ==(16)))
Assuming bdim.y == 16

FunctionCall: assume(((gridDim.x) ==(64)))
Assuming gdim.x == 64

FunctionCall: assume(((gridDim.y) ==(64)))
Assuming gdim.y == 64

FunctionCall: assume((height == 2048))
Assuming height0 == 2048

FunctionCall: assume((width == 2048))
Assuming width0 == 2048

FunctionCall: assume((nreps > 0))
Assuming (nreps0 > 0)

Binary OP: blockIdx_y =((blockIdx.x))

Binary OP: blockIdx_x =((((blockIdx.x) +(blockIdx.y)) %(gridDim.x)))

Binary OP: blockIdx_y =(((bid) %(gridDim.y)))

Binary OP: blockIdx_x =(((((bid) /(gridDim.y)) +(blockIdx_y)) %(gridDim.x)))

Binary OP: xIndex =((((blockIdx_y * 16)) +(threadIdx.x)))

Binary OP: yIndex =((((blockIdx_x * 16)) +(threadIdx.y)))
containBarrierFlag = 1
incrExpr = r++
------------- Already normalized 
rangeExpr = ((!1^r0 >= 0) && (!1^r0 <= (nreps0 - 1))); substExpr = 
containBarrierFlag = 0
incrExpr = i += 16
rhs = 16SgIntVal
------------- Linear incrExpr
var = !2^i0; lb = 0; ub = (16 - 1); stride = 16
rangeExpr = ((0 <= (16 - 1)) && ((!2^i0 >= 0) && (!2^i0 <= (((16 - 1) - 0) >> 4)))); substExpr = !2^i1 == ((!2^i0 << 4) + 0)

Binary OP: (tile[(threadIdx.y) +(i)])[threadIdx.x] =(idata[index_in +(i * width)])

FunctionCall: __syncthreads()
Equation: (= bid1@t1 (bv-add (bv-mul gdim.y v#3) v#2))
Equation: (= bid1@t2 (bv-add (bv-mul gdim.y v#11) v#10))
unsatisfiable
containBarrierFlag = 0
incrExpr = i += 16
rhs = 16SgIntVal
------------- Linear incrExpr
var = !3^i0; lb = 0; ub = (16 - 1); stride = 16
rangeExpr = ((0 <= (16 - 1)) && ((!3^i0 >= 0) && (!3^i0 <= (((16 - 1) - 0) >> 4)))); substExpr = !3^i1 == ((!3^i0 << 4) + 0)

Binary OP: odata[index_out +(i * height)] =((tile[threadIdx.x])[(threadIdx.y) +(i)])

Reaching the end of the kernel
Equation: (= bid1@t1 (bv-add (bv-mul gdim.y v#19) v#18))
Equation: (= bid1@t2 (bv-add (bv-mul gdim.y v#27) v#26))
unsatisfiable


#####################################################################

No races or synchronization errors were found.

Max instance solving time = 0.001043s
Total solving time = 0.002084s

#####################################################################

