In file included from md5_overlap.cu:5:
./md5_common.h:140:1: warning: duplicate 'static' declaration specifier [-Wduplicate-decl-specifier]
static void md5_starts( md5_context *ctx ) {
^~~~~~~
./md5_common.h:166:1: warning: duplicate 'static' declaration specifier [-Wduplicate-decl-specifier]
static void md5_process( md5_context *ctx, unsigned char data[64] ) {
^~~~~~~
./md5_common.h:308:1: warning: duplicate 'static' declaration specifier [-Wduplicate-decl-specifier]
static void md5_update( md5_context *ctx, unsigned char *input, int ilen ) {
^~~~~~~
./md5_common.h:418:1: warning: duplicate 'static' declaration specifier [-Wduplicate-decl-specifier]
static void md5_internal( unsigned char *input, int ilen, 
^~~~~~~
md5_overlap.cu:25:20: warning: equality comparison with extraneous parentheses [-Wparentheses-equality]
  if ((threadIndex == (totalThreads - 1))) {
       ~~~~~~~~~~~~^~~~~~~~~~~~~~~~~~~~~
md5_overlap.cu:25:20: note: remove extraneous parentheses around the comparison to silence this warning
  if ((threadIndex == (totalThreads - 1))) {
      ~            ^                    ~
md5_overlap.cu:25:20: note: use '=' to turn this equality comparison into an assignment
  if ((threadIndex == (totalThreads - 1))) {
                   ^~
                   =
5 warnings generated when compiling for sm_35.
md5_overlap.opt.bc: warning: Assuming the arguments 'input', 'output' of 'kernel' on line 12 of md5_overlap.cu to be non-aliased; please consider adding a restrict qualifier to these arguments
