status,time,memory,filename,log
0,0.62,41.8203125,gklee/ifs-1.cu,logs/gklee-ifs-1.log
0,0.62,41.69921875,gklee/ifs-1.cu,logs/gklee-ifs-2.log
0,0.62,41.81640625,gklee/ifs-1.cu,logs/gklee-ifs-3.log
0,0.63,41.62890625,gklee/ifs-1.cu,logs/gklee-ifs-4.log
0,0.63,41.80859375,gklee/ifs-1.cu,logs/gklee-ifs-5.log
0,0.65,41.71484375,gklee/ifs-2.cu,logs/gklee-ifs-6.log
0,0.63,41.8125,gklee/ifs-2.cu,logs/gklee-ifs-7.log
0,0.63,41.82421875,gklee/ifs-2.cu,logs/gklee-ifs-8.log
0,0.63,41.80078125,gklee/ifs-2.cu,logs/gklee-ifs-9.log
0,0.63,41.7578125,gklee/ifs-2.cu,logs/gklee-ifs-10.log
0,0.68,41.70703125,gklee/ifs-3.cu,logs/gklee-ifs-11.log
0,0.64,41.82421875,gklee/ifs-3.cu,logs/gklee-ifs-12.log
0,0.65,41.76953125,gklee/ifs-3.cu,logs/gklee-ifs-13.log
0,0.64,41.69921875,gklee/ifs-3.cu,logs/gklee-ifs-14.log
0,0.64,41.82421875,gklee/ifs-3.cu,logs/gklee-ifs-15.log
0,0.66,41.77734375,gklee/ifs-4.cu,logs/gklee-ifs-16.log
0,0.68,41.70703125,gklee/ifs-4.cu,logs/gklee-ifs-17.log
0,0.68,41.76953125,gklee/ifs-4.cu,logs/gklee-ifs-18.log
0,0.67,41.6484375,gklee/ifs-4.cu,logs/gklee-ifs-19.log
0,0.66,41.78125,gklee/ifs-4.cu,logs/gklee-ifs-20.log
0,0.73,41.6484375,gklee/ifs-5.cu,logs/gklee-ifs-21.log
0,0.7,41.80078125,gklee/ifs-5.cu,logs/gklee-ifs-22.log
0,0.73,41.80078125,gklee/ifs-5.cu,logs/gklee-ifs-23.log
0,0.74,41.77734375,gklee/ifs-5.cu,logs/gklee-ifs-24.log
0,0.73,41.70703125,gklee/ifs-5.cu,logs/gklee-ifs-25.log
0,0.76,41.8125,gklee/ifs-6.cu,logs/gklee-ifs-26.log
0,0.72,41.8125,gklee/ifs-6.cu,logs/gklee-ifs-27.log
0,0.76,41.7890625,gklee/ifs-6.cu,logs/gklee-ifs-28.log
0,0.72,41.8203125,gklee/ifs-6.cu,logs/gklee-ifs-29.log
0,0.77,41.8203125,gklee/ifs-6.cu,logs/gklee-ifs-30.log
0,0.81,41.84765625,gklee/ifs-7.cu,logs/gklee-ifs-31.log
0,0.77,41.7890625,gklee/ifs-7.cu,logs/gklee-ifs-32.log
0,0.76,41.81640625,gklee/ifs-7.cu,logs/gklee-ifs-33.log
0,0.77,41.7421875,gklee/ifs-7.cu,logs/gklee-ifs-34.log
0,0.81,41.73046875,gklee/ifs-7.cu,logs/gklee-ifs-35.log
0,0.81,41.80078125,gklee/ifs-8.cu,logs/gklee-ifs-36.log
0,0.87,41.84765625,gklee/ifs-8.cu,logs/gklee-ifs-37.log
0,0.82,41.859375,gklee/ifs-8.cu,logs/gklee-ifs-38.log
0,0.86,41.75,gklee/ifs-8.cu,logs/gklee-ifs-39.log
0,0.81,41.8046875,gklee/ifs-8.cu,logs/gklee-ifs-40.log
0,0.91,41.859375,gklee/ifs-9.cu,logs/gklee-ifs-41.log
0,0.87,41.68359375,gklee/ifs-9.cu,logs/gklee-ifs-42.log
0,0.86,41.734375,gklee/ifs-9.cu,logs/gklee-ifs-43.log
0,0.92,41.8046875,gklee/ifs-9.cu,logs/gklee-ifs-44.log
0,0.92,41.8515625,gklee/ifs-9.cu,logs/gklee-ifs-45.log
0,0.93,41.796875,gklee/ifs-10.cu,logs/gklee-ifs-46.log
0,0.94,41.84765625,gklee/ifs-10.cu,logs/gklee-ifs-47.log
0,0.99,41.6875,gklee/ifs-10.cu,logs/gklee-ifs-48.log
0,0.95,41.75390625,gklee/ifs-10.cu,logs/gklee-ifs-49.log
0,0.93,41.80859375,gklee/ifs-10.cu,logs/gklee-ifs-50.log
0,1.07,41.83203125,gklee/ifs-11.cu,logs/gklee-ifs-51.log
0,1.04,41.8671875,gklee/ifs-11.cu,logs/gklee-ifs-52.log
0,1.08,41.83984375,gklee/ifs-11.cu,logs/gklee-ifs-53.log
0,1.07,41.80078125,gklee/ifs-11.cu,logs/gklee-ifs-54.log
0,1.06,41.8125,gklee/ifs-11.cu,logs/gklee-ifs-55.log
0,1.15,41.81640625,gklee/ifs-12.cu,logs/gklee-ifs-56.log
0,1.17,41.6875,gklee/ifs-12.cu,logs/gklee-ifs-57.log
0,1.14,41.79296875,gklee/ifs-12.cu,logs/gklee-ifs-58.log
0,1.16,41.6953125,gklee/ifs-12.cu,logs/gklee-ifs-59.log
0,1.16,41.75390625,gklee/ifs-12.cu,logs/gklee-ifs-60.log
0,1.23,41.6953125,gklee/ifs-13.cu,logs/gklee-ifs-61.log
0,1.24,41.87890625,gklee/ifs-13.cu,logs/gklee-ifs-62.log
0,1.22,41.87890625,gklee/ifs-13.cu,logs/gklee-ifs-63.log
0,1.22,41.8828125,gklee/ifs-13.cu,logs/gklee-ifs-64.log
0,1.23,41.828125,gklee/ifs-13.cu,logs/gklee-ifs-65.log
0,1.36,41.88671875,gklee/ifs-14.cu,logs/gklee-ifs-66.log
0,1.36,41.88671875,gklee/ifs-14.cu,logs/gklee-ifs-67.log
0,1.35,41.66015625,gklee/ifs-14.cu,logs/gklee-ifs-68.log
0,1.39,41.69921875,gklee/ifs-14.cu,logs/gklee-ifs-69.log
0,1.39,41.76171875,gklee/ifs-14.cu,logs/gklee-ifs-70.log
0,1.51,41.8359375,gklee/ifs-15.cu,logs/gklee-ifs-71.log
0,1.52,41.83984375,gklee/ifs-15.cu,logs/gklee-ifs-72.log
0,1.5,41.83984375,gklee/ifs-15.cu,logs/gklee-ifs-73.log
0,1.48,41.7109375,gklee/ifs-15.cu,logs/gklee-ifs-74.log
0,1.51,41.8671875,gklee/ifs-15.cu,logs/gklee-ifs-75.log
0,1.67,41.7109375,gklee/ifs-16.cu,logs/gklee-ifs-76.log
0,1.67,41.72265625,gklee/ifs-16.cu,logs/gklee-ifs-77.log
0,1.63,41.84765625,gklee/ifs-16.cu,logs/gklee-ifs-78.log
0,1.68,41.71484375,gklee/ifs-16.cu,logs/gklee-ifs-79.log
0,1.74,41.90234375,gklee/ifs-16.cu,logs/gklee-ifs-80.log
0,1.9,41.70703125,gklee/ifs-17.cu,logs/gklee-ifs-81.log
0,1.92,41.8515625,gklee/ifs-17.cu,logs/gklee-ifs-82.log
0,1.9,41.7265625,gklee/ifs-17.cu,logs/gklee-ifs-83.log
0,1.9,41.90625,gklee/ifs-17.cu,logs/gklee-ifs-84.log
0,1.79,41.90234375,gklee/ifs-17.cu,logs/gklee-ifs-85.log
0,2.1,41.8046875,gklee/ifs-18.cu,logs/gklee-ifs-86.log
0,2.1,41.90625,gklee/ifs-18.cu,logs/gklee-ifs-87.log
0,2.11,41.8125,gklee/ifs-18.cu,logs/gklee-ifs-88.log
0,2.09,41.75390625,gklee/ifs-18.cu,logs/gklee-ifs-89.log
0,2.01,41.75390625,gklee/ifs-18.cu,logs/gklee-ifs-90.log
0,2.09,41.875,gklee/ifs-19.cu,logs/gklee-ifs-91.log
0,2.11,41.74609375,gklee/ifs-19.cu,logs/gklee-ifs-92.log
0,2.16,41.74609375,gklee/ifs-19.cu,logs/gklee-ifs-93.log
0,2.1,41.8671875,gklee/ifs-19.cu,logs/gklee-ifs-94.log
0,2.12,41.75390625,gklee/ifs-19.cu,logs/gklee-ifs-95.log
0,2.34,41.828125,gklee/ifs-20.cu,logs/gklee-ifs-96.log
0,2.35,41.87890625,gklee/ifs-20.cu,logs/gklee-ifs-97.log
0,2.57,41.8203125,gklee/ifs-20.cu,logs/gklee-ifs-98.log
0,2.34,41.87890625,gklee/ifs-20.cu,logs/gklee-ifs-99.log
0,2.34,41.828125,gklee/ifs-20.cu,logs/gklee-ifs-100.log
0,2.58,41.9140625,gklee/ifs-21.cu,logs/gklee-ifs-101.log
0,2.58,41.9296875,gklee/ifs-21.cu,logs/gklee-ifs-102.log
0,2.67,41.75390625,gklee/ifs-21.cu,logs/gklee-ifs-103.log
0,2.67,41.8828125,gklee/ifs-21.cu,logs/gklee-ifs-104.log
0,2.85,41.83203125,gklee/ifs-21.cu,logs/gklee-ifs-105.log
0,2.93,41.875,gklee/ifs-22.cu,logs/gklee-ifs-106.log
0,2.83,41.9140625,gklee/ifs-22.cu,logs/gklee-ifs-107.log
0,2.85,41.83203125,gklee/ifs-22.cu,logs/gklee-ifs-108.log
0,2.84,41.875,gklee/ifs-22.cu,logs/gklee-ifs-109.log
0,2.84,41.890625,gklee/ifs-22.cu,logs/gklee-ifs-110.log
0,3.13,41.94140625,gklee/ifs-23.cu,logs/gklee-ifs-111.log
0,3.14,41.9453125,gklee/ifs-23.cu,logs/gklee-ifs-112.log
0,3.11,41.92578125,gklee/ifs-23.cu,logs/gklee-ifs-113.log
0,3.21,41.75390625,gklee/ifs-23.cu,logs/gklee-ifs-114.log
0,3.13,41.921875,gklee/ifs-23.cu,logs/gklee-ifs-115.log
0,3.55,41.83984375,gklee/ifs-24.cu,logs/gklee-ifs-116.log
0,3.42,41.76953125,gklee/ifs-24.cu,logs/gklee-ifs-117.log
0,3.43,41.7578125,gklee/ifs-24.cu,logs/gklee-ifs-118.log
0,3.45,41.890625,gklee/ifs-24.cu,logs/gklee-ifs-119.log
0,3.47,41.95703125,gklee/ifs-24.cu,logs/gklee-ifs-120.log
0,3.77,41.8984375,gklee/ifs-25.cu,logs/gklee-ifs-121.log
0,3.75,41.77734375,gklee/ifs-25.cu,logs/gklee-ifs-122.log
0,4.19,41.765625,gklee/ifs-25.cu,logs/gklee-ifs-123.log
0,3.83,41.765625,gklee/ifs-25.cu,logs/gklee-ifs-124.log
0,3.87,41.85546875,gklee/ifs-25.cu,logs/gklee-ifs-125.log
0,4.18,41.953125,gklee/ifs-26.cu,logs/gklee-ifs-126.log
0,4.24,41.953125,gklee/ifs-26.cu,logs/gklee-ifs-127.log
0,4.23,41.9453125,gklee/ifs-26.cu,logs/gklee-ifs-128.log
0,4.23,41.95703125,gklee/ifs-26.cu,logs/gklee-ifs-129.log
0,4.27,41.83203125,gklee/ifs-26.cu,logs/gklee-ifs-130.log
0,4.96,41.93359375,gklee/ifs-27.cu,logs/gklee-ifs-131.log
0,4.91,41.83984375,gklee/ifs-27.cu,logs/gklee-ifs-132.log
0,4.9,41.8515625,gklee/ifs-27.cu,logs/gklee-ifs-133.log
0,4.9,41.90234375,gklee/ifs-27.cu,logs/gklee-ifs-134.log
0,4.87,41.93359375,gklee/ifs-27.cu,logs/gklee-ifs-135.log
0,5.35,41.90625,gklee/ifs-28.cu,logs/gklee-ifs-136.log
0,4.86,41.95703125,gklee/ifs-28.cu,logs/gklee-ifs-137.log
0,4.93,41.9609375,gklee/ifs-28.cu,logs/gklee-ifs-138.log
0,4.91,41.77734375,gklee/ifs-28.cu,logs/gklee-ifs-139.log
0,4.96,41.77734375,gklee/ifs-28.cu,logs/gklee-ifs-140.log
0,5.44,41.79296875,gklee/ifs-29.cu,logs/gklee-ifs-141.log
0,5.46,41.96875,gklee/ifs-29.cu,logs/gklee-ifs-142.log
0,5.44,41.98046875,gklee/ifs-29.cu,logs/gklee-ifs-143.log
0,5.58,41.93359375,gklee/ifs-29.cu,logs/gklee-ifs-144.log
0,5.5,41.9453125,gklee/ifs-29.cu,logs/gklee-ifs-145.log
0,6.4,41.796875,gklee/ifs-30.cu,logs/gklee-ifs-146.log
0,5.9,41.91796875,gklee/ifs-30.cu,logs/gklee-ifs-147.log
0,5.94,41.98046875,gklee/ifs-30.cu,logs/gklee-ifs-148.log
0,5.75,41.96484375,gklee/ifs-30.cu,logs/gklee-ifs-149.log
0,5.97,41.92578125,gklee/ifs-30.cu,logs/gklee-ifs-150.log
0,6.4,41.984375,gklee/ifs-31.cu,logs/gklee-ifs-151.log
0,6.49,41.86328125,gklee/ifs-31.cu,logs/gklee-ifs-152.log
0,6.43,41.921875,gklee/ifs-31.cu,logs/gklee-ifs-153.log
0,6.44,41.93359375,gklee/ifs-31.cu,logs/gklee-ifs-154.log
0,6.43,41.98828125,gklee/ifs-31.cu,logs/gklee-ifs-155.log
0,7.03,41.96875,gklee/ifs-32.cu,logs/gklee-ifs-156.log
0,6.98,41.80078125,gklee/ifs-32.cu,logs/gklee-ifs-157.log
0,6.83,41.93359375,gklee/ifs-32.cu,logs/gklee-ifs-158.log
0,7.04,41.96484375,gklee/ifs-32.cu,logs/gklee-ifs-159.log
0,7.02,41.9375,gklee/ifs-32.cu,logs/gklee-ifs-160.log
0,7.57,41.9375,gklee/ifs-33.cu,logs/gklee-ifs-161.log
0,7.56,41.9453125,gklee/ifs-33.cu,logs/gklee-ifs-162.log
0,7.64,41.99609375,gklee/ifs-33.cu,logs/gklee-ifs-163.log
0,7.61,41.9375,gklee/ifs-33.cu,logs/gklee-ifs-164.log
0,7.57,41.9765625,gklee/ifs-33.cu,logs/gklee-ifs-165.log
0,7.99,41.97265625,gklee/ifs-34.cu,logs/gklee-ifs-166.log
0,8.17,41.94140625,gklee/ifs-34.cu,logs/gklee-ifs-167.log
0,8.19,41.93359375,gklee/ifs-34.cu,logs/gklee-ifs-168.log
0,8.18,41.98828125,gklee/ifs-34.cu,logs/gklee-ifs-169.log
0,8.21,41.87890625,gklee/ifs-34.cu,logs/gklee-ifs-170.log
0,8.86,41.93359375,gklee/ifs-35.cu,logs/gklee-ifs-171.log
0,8.77,41.8125,gklee/ifs-35.cu,logs/gklee-ifs-172.log
0,8.69,41.97265625,gklee/ifs-35.cu,logs/gklee-ifs-173.log
0,8.74,41.8203125,gklee/ifs-35.cu,logs/gklee-ifs-174.log
0,8.86,41.99609375,gklee/ifs-35.cu,logs/gklee-ifs-175.log
0,9.41,41.9296875,gklee/ifs-36.cu,logs/gklee-ifs-176.log
0,9.43,41.9375,gklee/ifs-36.cu,logs/gklee-ifs-177.log
0,9.5,41.875,gklee/ifs-36.cu,logs/gklee-ifs-178.log
0,9.57,41.9765625,gklee/ifs-36.cu,logs/gklee-ifs-179.log
0,9.19,42.00390625,gklee/ifs-36.cu,logs/gklee-ifs-180.log
0,10.18,42.0078125,gklee/ifs-37.cu,logs/gklee-ifs-181.log
0,9.91,41.828125,gklee/ifs-37.cu,logs/gklee-ifs-182.log
0,9.97,41.87109375,gklee/ifs-37.cu,logs/gklee-ifs-183.log
0,9.97,41.828125,gklee/ifs-37.cu,logs/gklee-ifs-184.log
0,10.25,41.98828125,gklee/ifs-37.cu,logs/gklee-ifs-185.log
0,10.64,41.8203125,gklee/ifs-38.cu,logs/gklee-ifs-186.log
0,10.68,41.9765625,gklee/ifs-38.cu,logs/gklee-ifs-187.log
0,10.72,42.0,gklee/ifs-38.cu,logs/gklee-ifs-188.log
0,11.24,41.83203125,gklee/ifs-38.cu,logs/gklee-ifs-189.log
0,10.69,41.9453125,gklee/ifs-38.cu,logs/gklee-ifs-190.log
0,12.93,41.84375,gklee/ifs-39.cu,logs/gklee-ifs-191.log
0,12.69,41.98828125,gklee/ifs-39.cu,logs/gklee-ifs-192.log
0,12.62,41.95703125,gklee/ifs-39.cu,logs/gklee-ifs-193.log
0,12.56,41.94921875,gklee/ifs-39.cu,logs/gklee-ifs-194.log
0,11.23,41.82421875,gklee/ifs-39.cu,logs/gklee-ifs-195.log
0,12.29,41.984375,gklee/ifs-40.cu,logs/gklee-ifs-196.log
0,12.31,42.01953125,gklee/ifs-40.cu,logs/gklee-ifs-197.log
0,12.31,41.9296875,gklee/ifs-40.cu,logs/gklee-ifs-198.log
0,12.32,42.015625,gklee/ifs-40.cu,logs/gklee-ifs-199.log
0,12.71,41.92578125,gklee/ifs-40.cu,logs/gklee-ifs-200.log
0,13.54,42.02734375,gklee/ifs-41.cu,logs/gklee-ifs-201.log
0,13.47,41.9296875,gklee/ifs-41.cu,logs/gklee-ifs-202.log
0,13.47,42.03125,gklee/ifs-41.cu,logs/gklee-ifs-203.log
0,13.48,41.98046875,gklee/ifs-41.cu,logs/gklee-ifs-204.log
0,13.51,41.91015625,gklee/ifs-41.cu,logs/gklee-ifs-205.log
0,14.43,42.015625,gklee/ifs-42.cu,logs/gklee-ifs-206.log
0,14.43,41.96484375,gklee/ifs-42.cu,logs/gklee-ifs-207.log
0,14.47,41.9453125,gklee/ifs-42.cu,logs/gklee-ifs-208.log
0,14.49,42.07421875,gklee/ifs-42.cu,logs/gklee-ifs-209.log
0,14.43,41.9453125,gklee/ifs-42.cu,logs/gklee-ifs-210.log
0,15.5,42.046875,gklee/ifs-43.cu,logs/gklee-ifs-211.log
0,15.41,42.07421875,gklee/ifs-43.cu,logs/gklee-ifs-212.log
0,15.45,42.0390625,gklee/ifs-43.cu,logs/gklee-ifs-213.log
0,15.45,42.0625,gklee/ifs-43.cu,logs/gklee-ifs-214.log
0,15.48,41.9453125,gklee/ifs-43.cu,logs/gklee-ifs-215.log
0,16.74,41.8984375,gklee/ifs-44.cu,logs/gklee-ifs-216.log
0,16.11,42.01953125,gklee/ifs-44.cu,logs/gklee-ifs-217.log
0,16.65,42.0234375,gklee/ifs-44.cu,logs/gklee-ifs-218.log
0,17.95,41.96875,gklee/ifs-44.cu,logs/gklee-ifs-219.log
0,16.53,42.05859375,gklee/ifs-44.cu,logs/gklee-ifs-220.log
0,17.06,42.08984375,gklee/ifs-45.cu,logs/gklee-ifs-221.log
0,17.17,41.9609375,gklee/ifs-45.cu,logs/gklee-ifs-222.log
0,17.27,41.8984375,gklee/ifs-45.cu,logs/gklee-ifs-223.log
0,17.21,42.0546875,gklee/ifs-45.cu,logs/gklee-ifs-224.log
0,17.3,41.98046875,gklee/ifs-45.cu,logs/gklee-ifs-225.log
0,20.66,42.03515625,gklee/ifs-46.cu,logs/gklee-ifs-226.log
0,18.62,42.03125,gklee/ifs-46.cu,logs/gklee-ifs-227.log
0,18.75,42.03125,gklee/ifs-46.cu,logs/gklee-ifs-228.log
0,20.38,41.91015625,gklee/ifs-46.cu,logs/gklee-ifs-229.log
0,20.23,41.9609375,gklee/ifs-46.cu,logs/gklee-ifs-230.log
0,21.43,41.98046875,gklee/ifs-47.cu,logs/gklee-ifs-231.log
0,19.66,42.08984375,gklee/ifs-47.cu,logs/gklee-ifs-232.log
0,19.93,41.90234375,gklee/ifs-47.cu,logs/gklee-ifs-233.log
0,19.9,42.0234375,gklee/ifs-47.cu,logs/gklee-ifs-234.log
0,20.22,42.03515625,gklee/ifs-47.cu,logs/gklee-ifs-235.log
0,21.32,41.90625,gklee/ifs-48.cu,logs/gklee-ifs-236.log
0,20.73,41.90625,gklee/ifs-48.cu,logs/gklee-ifs-237.log
0,20.84,41.98046875,gklee/ifs-48.cu,logs/gklee-ifs-238.log
0,20.85,41.91796875,gklee/ifs-48.cu,logs/gklee-ifs-239.log
0,23.1,41.98828125,gklee/ifs-48.cu,logs/gklee-ifs-240.log
0,21.74,42.046875,gklee/ifs-49.cu,logs/gklee-ifs-241.log
0,22.03,41.984375,gklee/ifs-49.cu,logs/gklee-ifs-242.log
0,22.22,42.10546875,gklee/ifs-49.cu,logs/gklee-ifs-243.log
0,23.67,41.984375,gklee/ifs-49.cu,logs/gklee-ifs-244.log
0,21.96,42.046875,gklee/ifs-49.cu,logs/gklee-ifs-245.log
0,24.06,42.08984375,gklee/ifs-50.cu,logs/gklee-ifs-246.log
0,23.39,42.05078125,gklee/ifs-50.cu,logs/gklee-ifs-247.log
0,23.47,42.07421875,gklee/ifs-50.cu,logs/gklee-ifs-248.log
0,24.27,42.109375,gklee/ifs-50.cu,logs/gklee-ifs-249.log
0,24.08,42.04296875,gklee/ifs-50.cu,logs/gklee-ifs-250.log
