status,time,memory,filename,log
0,0.7,41.2109375,gklee/accs-1.cu,logs/sesa-accs-1.log
0,0.7,41.2109375,gklee/accs-1.cu,logs/sesa-accs-2.log
0,0.7,41.14453125,gklee/accs-1.cu,logs/sesa-accs-3.log
0,0.69,41.08203125,gklee/accs-1.cu,logs/sesa-accs-4.log
0,0.69,41.24609375,gklee/accs-1.cu,logs/sesa-accs-5.log
0,0.71,41.21484375,gklee/accs-2.cu,logs/sesa-accs-6.log
0,0.7,41.0859375,gklee/accs-2.cu,logs/sesa-accs-7.log
0,0.7,41.22265625,gklee/accs-2.cu,logs/sesa-accs-8.log
0,0.7,41.13671875,gklee/accs-2.cu,logs/sesa-accs-9.log
0,0.72,41.08984375,gklee/accs-2.cu,logs/sesa-accs-10.log
0,0.76,41.25390625,gklee/accs-3.cu,logs/sesa-accs-11.log
0,0.76,41.078125,gklee/accs-3.cu,logs/sesa-accs-12.log
0,0.75,41.23046875,gklee/accs-3.cu,logs/sesa-accs-13.log
0,0.79,41.2421875,gklee/accs-3.cu,logs/sesa-accs-14.log
0,0.76,41.20703125,gklee/accs-3.cu,logs/sesa-accs-15.log
0,0.75,41.265625,gklee/accs-4.cu,logs/sesa-accs-16.log
0,0.76,41.21484375,gklee/accs-4.cu,logs/sesa-accs-17.log
0,0.74,41.26171875,gklee/accs-4.cu,logs/sesa-accs-18.log
0,0.75,41.17578125,gklee/accs-4.cu,logs/sesa-accs-19.log
0,0.75,41.08984375,gklee/accs-4.cu,logs/sesa-accs-20.log
0,0.79,41.16015625,gklee/accs-5.cu,logs/sesa-accs-21.log
0,0.81,41.25390625,gklee/accs-5.cu,logs/sesa-accs-22.log
0,0.82,41.08984375,gklee/accs-5.cu,logs/sesa-accs-23.log
0,0.81,41.25,gklee/accs-5.cu,logs/sesa-accs-24.log
0,0.8,41.22265625,gklee/accs-5.cu,logs/sesa-accs-25.log
0,0.87,41.21875,gklee/accs-6.cu,logs/sesa-accs-26.log
0,0.86,41.1015625,gklee/accs-6.cu,logs/sesa-accs-27.log
0,0.86,41.2265625,gklee/accs-6.cu,logs/sesa-accs-28.log
0,0.85,41.27734375,gklee/accs-6.cu,logs/sesa-accs-29.log
0,0.85,41.1015625,gklee/accs-6.cu,logs/sesa-accs-30.log
0,0.89,41.23046875,gklee/accs-7.cu,logs/sesa-accs-31.log
0,0.89,41.12890625,gklee/accs-7.cu,logs/sesa-accs-32.log
0,0.89,41.23046875,gklee/accs-7.cu,logs/sesa-accs-33.log
0,0.91,41.2421875,gklee/accs-7.cu,logs/sesa-accs-34.log
0,0.91,41.2734375,gklee/accs-7.cu,logs/sesa-accs-35.log
0,0.94,41.28125,gklee/accs-8.cu,logs/sesa-accs-36.log
0,0.94,41.2421875,gklee/accs-8.cu,logs/sesa-accs-37.log
0,0.92,41.203125,gklee/accs-8.cu,logs/sesa-accs-38.log
0,0.95,41.25,gklee/accs-8.cu,logs/sesa-accs-39.log
0,0.95,41.2890625,gklee/accs-8.cu,logs/sesa-accs-40.log
0,1.02,41.29296875,gklee/accs-9.cu,logs/sesa-accs-41.log
0,1.02,41.24609375,gklee/accs-9.cu,logs/sesa-accs-42.log
0,1.03,41.11328125,gklee/accs-9.cu,logs/sesa-accs-43.log
0,1.03,41.12109375,gklee/accs-9.cu,logs/sesa-accs-44.log
0,1.04,41.296875,gklee/accs-9.cu,logs/sesa-accs-45.log
0,1.09,41.30859375,gklee/accs-10.cu,logs/sesa-accs-46.log
0,1.08,41.29296875,gklee/accs-10.cu,logs/sesa-accs-47.log
0,1.09,41.25390625,gklee/accs-10.cu,logs/sesa-accs-48.log
0,1.12,41.26953125,gklee/accs-10.cu,logs/sesa-accs-49.log
0,1.09,41.12109375,gklee/accs-10.cu,logs/sesa-accs-50.log
0,1.16,41.296875,gklee/accs-11.cu,logs/sesa-accs-51.log
0,1.14,41.25390625,gklee/accs-11.cu,logs/sesa-accs-52.log
0,1.16,41.21484375,gklee/accs-11.cu,logs/sesa-accs-53.log
0,1.17,41.3203125,gklee/accs-11.cu,logs/sesa-accs-54.log
0,1.15,41.2890625,gklee/accs-11.cu,logs/sesa-accs-55.log
0,1.25,41.18359375,gklee/accs-12.cu,logs/sesa-accs-56.log
0,1.27,41.21875,gklee/accs-12.cu,logs/sesa-accs-57.log
0,1.28,41.21875,gklee/accs-12.cu,logs/sesa-accs-58.log
0,1.29,41.30078125,gklee/accs-12.cu,logs/sesa-accs-59.log
0,1.29,41.28125,gklee/accs-12.cu,logs/sesa-accs-60.log
0,1.33,41.13671875,gklee/accs-13.cu,logs/sesa-accs-61.log
0,1.35,41.265625,gklee/accs-13.cu,logs/sesa-accs-62.log
0,1.36,41.3203125,gklee/accs-13.cu,logs/sesa-accs-63.log
0,1.32,41.14453125,gklee/accs-13.cu,logs/sesa-accs-64.log
0,1.33,41.19921875,gklee/accs-13.cu,logs/sesa-accs-65.log
0,1.46,41.13671875,gklee/accs-14.cu,logs/sesa-accs-66.log
0,1.45,41.140625,gklee/accs-14.cu,logs/sesa-accs-67.log
0,1.42,41.2734375,gklee/accs-14.cu,logs/sesa-accs-68.log
0,1.43,41.13671875,gklee/accs-14.cu,logs/sesa-accs-69.log
0,1.42,41.29296875,gklee/accs-14.cu,logs/sesa-accs-70.log
0,1.5,41.3125,gklee/accs-15.cu,logs/sesa-accs-71.log
0,1.5,41.13671875,gklee/accs-15.cu,logs/sesa-accs-72.log
0,1.5,41.3359375,gklee/accs-15.cu,logs/sesa-accs-73.log
0,1.5,41.1953125,gklee/accs-15.cu,logs/sesa-accs-74.log
0,1.5,41.30078125,gklee/accs-15.cu,logs/sesa-accs-75.log
0,1.62,41.3046875,gklee/accs-16.cu,logs/sesa-accs-76.log
0,1.63,41.1484375,gklee/accs-16.cu,logs/sesa-accs-77.log
0,1.61,41.3046875,gklee/accs-16.cu,logs/sesa-accs-78.log
0,1.63,41.18359375,gklee/accs-16.cu,logs/sesa-accs-79.log
0,1.64,41.26953125,gklee/accs-16.cu,logs/sesa-accs-80.log
0,1.72,41.328125,gklee/accs-17.cu,logs/sesa-accs-81.log
0,1.73,41.28515625,gklee/accs-17.cu,logs/sesa-accs-82.log
0,1.71,41.32421875,gklee/accs-17.cu,logs/sesa-accs-83.log
0,1.71,41.2734375,gklee/accs-17.cu,logs/sesa-accs-84.log
0,1.72,41.23828125,gklee/accs-17.cu,logs/sesa-accs-85.log
0,2.0,41.24609375,gklee/accs-18.cu,logs/sesa-accs-86.log
0,2.03,41.28515625,gklee/accs-18.cu,logs/sesa-accs-87.log
0,2.01,41.29296875,gklee/accs-18.cu,logs/sesa-accs-88.log
0,1.99,41.3046875,gklee/accs-18.cu,logs/sesa-accs-89.log
0,1.98,41.15625,gklee/accs-18.cu,logs/sesa-accs-90.log
0,2.22,41.31640625,gklee/accs-19.cu,logs/sesa-accs-91.log
0,2.22,41.3359375,gklee/accs-19.cu,logs/sesa-accs-92.log
0,2.22,41.3359375,gklee/accs-19.cu,logs/sesa-accs-93.log
0,2.24,41.2890625,gklee/accs-19.cu,logs/sesa-accs-94.log
0,2.2,41.16796875,gklee/accs-19.cu,logs/sesa-accs-95.log
0,2.13,41.34375,gklee/accs-20.cu,logs/sesa-accs-96.log
0,2.13,41.33203125,gklee/accs-20.cu,logs/sesa-accs-97.log
0,2.14,41.30859375,gklee/accs-20.cu,logs/sesa-accs-98.log
0,2.14,41.23828125,gklee/accs-20.cu,logs/sesa-accs-99.log
0,2.13,41.32421875,gklee/accs-20.cu,logs/sesa-accs-100.log
0,2.55,41.3203125,gklee/accs-21.cu,logs/sesa-accs-101.log
0,2.53,41.3046875,gklee/accs-21.cu,logs/sesa-accs-102.log
0,2.53,41.26953125,gklee/accs-21.cu,logs/sesa-accs-103.log
0,2.56,41.3515625,gklee/accs-21.cu,logs/sesa-accs-104.log
0,2.54,41.375,gklee/accs-21.cu,logs/sesa-accs-105.log
0,2.78,41.2421875,gklee/accs-22.cu,logs/sesa-accs-106.log
0,2.77,41.2578125,gklee/accs-22.cu,logs/sesa-accs-107.log
0,2.76,41.19140625,gklee/accs-22.cu,logs/sesa-accs-108.log
0,2.81,41.38671875,gklee/accs-22.cu,logs/sesa-accs-109.log
0,2.75,41.36328125,gklee/accs-22.cu,logs/sesa-accs-110.log
0,3.01,41.265625,gklee/accs-23.cu,logs/sesa-accs-111.log
0,3.0,41.3671875,gklee/accs-23.cu,logs/sesa-accs-112.log
0,2.97,41.3671875,gklee/accs-23.cu,logs/sesa-accs-113.log
0,2.93,41.3359375,gklee/accs-23.cu,logs/sesa-accs-114.log
0,2.92,41.28515625,gklee/accs-23.cu,logs/sesa-accs-115.log
0,3.24,41.31640625,gklee/accs-24.cu,logs/sesa-accs-116.log
0,3.25,41.1953125,gklee/accs-24.cu,logs/sesa-accs-117.log
0,3.21,41.3203125,gklee/accs-24.cu,logs/sesa-accs-118.log
0,3.21,41.19921875,gklee/accs-24.cu,logs/sesa-accs-119.log
0,3.16,41.3671875,gklee/accs-24.cu,logs/sesa-accs-120.log
0,3.73,41.2109375,gklee/accs-25.cu,logs/sesa-accs-121.log
0,3.79,41.328125,gklee/accs-25.cu,logs/sesa-accs-122.log
0,3.81,41.203125,gklee/accs-25.cu,logs/sesa-accs-123.log
0,3.74,41.33203125,gklee/accs-25.cu,logs/sesa-accs-124.log
0,3.78,41.2109375,gklee/accs-25.cu,logs/sesa-accs-125.log
0,4.19,41.3671875,gklee/accs-26.cu,logs/sesa-accs-126.log
0,4.17,41.203125,gklee/accs-26.cu,logs/sesa-accs-127.log
0,4.13,41.32421875,gklee/accs-26.cu,logs/sesa-accs-128.log
0,4.17,41.359375,gklee/accs-26.cu,logs/sesa-accs-129.log
0,4.19,41.25390625,gklee/accs-26.cu,logs/sesa-accs-130.log
0,4.23,41.21484375,gklee/accs-27.cu,logs/sesa-accs-131.log
0,4.29,41.3515625,gklee/accs-27.cu,logs/sesa-accs-132.log
0,4.3,41.33203125,gklee/accs-27.cu,logs/sesa-accs-133.log
0,4.3,41.20703125,gklee/accs-27.cu,logs/sesa-accs-134.log
0,4.3,41.3984375,gklee/accs-27.cu,logs/sesa-accs-135.log
0,5.18,41.3515625,gklee/accs-28.cu,logs/sesa-accs-136.log
0,5.14,41.37109375,gklee/accs-28.cu,logs/sesa-accs-137.log
0,5.17,41.37890625,gklee/accs-28.cu,logs/sesa-accs-138.log
0,5.18,41.3828125,gklee/accs-28.cu,logs/sesa-accs-139.log
0,5.2,41.375,gklee/accs-28.cu,logs/sesa-accs-140.log
0,5.38,41.34765625,gklee/accs-29.cu,logs/sesa-accs-141.log
0,5.35,41.3046875,gklee/accs-29.cu,logs/sesa-accs-142.log
0,5.42,41.37109375,gklee/accs-29.cu,logs/sesa-accs-143.log
0,5.39,41.26953125,gklee/accs-29.cu,logs/sesa-accs-144.log
0,5.46,41.203125,gklee/accs-29.cu,logs/sesa-accs-145.log
0,5.52,41.2265625,gklee/accs-30.cu,logs/sesa-accs-146.log
0,5.54,41.21875,gklee/accs-30.cu,logs/sesa-accs-147.log
0,5.52,41.4140625,gklee/accs-30.cu,logs/sesa-accs-148.log
0,5.54,41.4140625,gklee/accs-30.cu,logs/sesa-accs-149.log
0,5.48,41.2265625,gklee/accs-30.cu,logs/sesa-accs-150.log
0,5.87,41.3515625,gklee/accs-31.cu,logs/sesa-accs-151.log
0,5.88,41.40234375,gklee/accs-31.cu,logs/sesa-accs-152.log
0,5.85,41.30859375,gklee/accs-31.cu,logs/sesa-accs-153.log
0,5.84,41.4140625,gklee/accs-31.cu,logs/sesa-accs-154.log
0,5.89,41.41796875,gklee/accs-31.cu,logs/sesa-accs-155.log
0,7.67,41.37109375,gklee/accs-32.cu,logs/sesa-accs-156.log
0,7.72,41.40625,gklee/accs-32.cu,logs/sesa-accs-157.log
0,7.68,41.2890625,gklee/accs-32.cu,logs/sesa-accs-158.log
0,7.69,41.37890625,gklee/accs-32.cu,logs/sesa-accs-159.log
0,7.7,41.39453125,gklee/accs-32.cu,logs/sesa-accs-160.log
0,7.19,41.23828125,gklee/accs-33.cu,logs/sesa-accs-161.log
0,7.19,41.3984375,gklee/accs-33.cu,logs/sesa-accs-162.log
0,7.14,41.3203125,gklee/accs-33.cu,logs/sesa-accs-163.log
0,7.17,41.359375,gklee/accs-33.cu,logs/sesa-accs-164.log
0,7.17,41.23828125,gklee/accs-33.cu,logs/sesa-accs-165.log
0,7.35,41.2890625,gklee/accs-34.cu,logs/sesa-accs-166.log
0,7.35,41.30078125,gklee/accs-34.cu,logs/sesa-accs-167.log
0,7.36,41.40234375,gklee/accs-34.cu,logs/sesa-accs-168.log
0,7.33,41.23828125,gklee/accs-34.cu,logs/sesa-accs-169.log
0,7.3,41.23828125,gklee/accs-34.cu,logs/sesa-accs-170.log
0,8.32,41.4375,gklee/accs-35.cu,logs/sesa-accs-171.log
0,8.22,41.296875,gklee/accs-35.cu,logs/sesa-accs-172.log
0,8.33,41.3984375,gklee/accs-35.cu,logs/sesa-accs-173.log
0,8.38,41.30078125,gklee/accs-35.cu,logs/sesa-accs-174.log
0,8.32,41.30859375,gklee/accs-35.cu,logs/sesa-accs-175.log
0,8.78,41.41015625,gklee/accs-36.cu,logs/sesa-accs-176.log
0,8.79,41.33203125,gklee/accs-36.cu,logs/sesa-accs-177.log
0,8.8,41.3046875,gklee/accs-36.cu,logs/sesa-accs-178.log
0,8.81,41.41015625,gklee/accs-36.cu,logs/sesa-accs-179.log
0,8.76,41.25,gklee/accs-36.cu,logs/sesa-accs-180.log
0,10.55,41.30859375,gklee/accs-37.cu,logs/sesa-accs-181.log
0,10.44,41.40234375,gklee/accs-37.cu,logs/sesa-accs-182.log
0,10.58,41.42578125,gklee/accs-37.cu,logs/sesa-accs-183.log
0,10.45,41.40625,gklee/accs-37.cu,logs/sesa-accs-184.log
0,10.58,41.43359375,gklee/accs-37.cu,logs/sesa-accs-185.log
0,12.08,41.40625,gklee/accs-38.cu,logs/sesa-accs-186.log
0,12.22,41.3828125,gklee/accs-38.cu,logs/sesa-accs-187.log
0,12.19,41.453125,gklee/accs-38.cu,logs/sesa-accs-188.log
0,12.1,41.38671875,gklee/accs-38.cu,logs/sesa-accs-189.log
0,12.1,41.3828125,gklee/accs-38.cu,logs/sesa-accs-190.log
0,12.1,41.31640625,gklee/accs-39.cu,logs/sesa-accs-191.log
0,12.08,41.421875,gklee/accs-39.cu,logs/sesa-accs-192.log
0,12.06,41.44140625,gklee/accs-39.cu,logs/sesa-accs-193.log
0,12.13,41.328125,gklee/accs-39.cu,logs/sesa-accs-194.log
0,12.08,41.4296875,gklee/accs-39.cu,logs/sesa-accs-195.log
0,12.77,41.5703125,gklee/accs-40.cu,logs/sesa-accs-196.log
0,12.77,41.46484375,gklee/accs-40.cu,logs/sesa-accs-197.log
0,12.87,41.421875,gklee/accs-40.cu,logs/sesa-accs-198.log
0,12.91,41.5390625,gklee/accs-40.cu,logs/sesa-accs-199.log
0,12.72,41.5859375,gklee/accs-40.cu,logs/sesa-accs-200.log
0,13.21,41.78515625,gklee/accs-41.cu,logs/sesa-accs-201.log
0,13.21,41.78515625,gklee/accs-41.cu,logs/sesa-accs-202.log
0,13.23,41.73828125,gklee/accs-41.cu,logs/sesa-accs-203.log
0,13.24,41.6953125,gklee/accs-41.cu,logs/sesa-accs-204.log
0,13.28,41.703125,gklee/accs-41.cu,logs/sesa-accs-205.log
0,16.5,44.8359375,gklee/accs-42.cu,logs/sesa-accs-206.log
0,16.42,44.921875,gklee/accs-42.cu,logs/sesa-accs-207.log
0,16.49,44.73828125,gklee/accs-42.cu,logs/sesa-accs-208.log
0,16.37,44.98828125,gklee/accs-42.cu,logs/sesa-accs-209.log
0,16.49,44.90234375,gklee/accs-42.cu,logs/sesa-accs-210.log
0,18.13,46.2109375,gklee/accs-43.cu,logs/sesa-accs-211.log
0,18.13,46.03515625,gklee/accs-43.cu,logs/sesa-accs-212.log
0,18.12,46.125,gklee/accs-43.cu,logs/sesa-accs-213.log
0,18.09,46.17578125,gklee/accs-43.cu,logs/sesa-accs-214.log
0,18.14,46.12109375,gklee/accs-43.cu,logs/sesa-accs-215.log
0,16.98,44.328125,gklee/accs-44.cu,logs/sesa-accs-216.log
0,16.95,44.5859375,gklee/accs-44.cu,logs/sesa-accs-217.log
0,16.98,44.59765625,gklee/accs-44.cu,logs/sesa-accs-218.log
0,16.93,44.41796875,gklee/accs-44.cu,logs/sesa-accs-219.log
0,16.86,44.3125,gklee/accs-44.cu,logs/sesa-accs-220.log
0,17.73,45.62109375,gklee/accs-45.cu,logs/sesa-accs-221.log
0,17.79,45.6875,gklee/accs-45.cu,logs/sesa-accs-222.log
0,17.75,45.75390625,gklee/accs-45.cu,logs/sesa-accs-223.log
0,17.81,45.58203125,gklee/accs-45.cu,logs/sesa-accs-224.log
0,17.81,45.74609375,gklee/accs-45.cu,logs/sesa-accs-225.log
0,19.12,46.26171875,gklee/accs-46.cu,logs/sesa-accs-226.log
0,19.12,46.24609375,gklee/accs-46.cu,logs/sesa-accs-227.log
0,19.14,46.1796875,gklee/accs-46.cu,logs/sesa-accs-228.log
0,19.11,46.23046875,gklee/accs-46.cu,logs/sesa-accs-229.log
0,19.0,46.1875,gklee/accs-46.cu,logs/sesa-accs-230.log
0,23.44,49.109375,gklee/accs-47.cu,logs/sesa-accs-231.log
0,23.38,49.23828125,gklee/accs-47.cu,logs/sesa-accs-232.log
0,23.4,49.26953125,gklee/accs-47.cu,logs/sesa-accs-233.log
0,23.42,49.078125,gklee/accs-47.cu,logs/sesa-accs-234.log
0,23.32,49.1953125,gklee/accs-47.cu,logs/sesa-accs-235.log
0,20.87,47.42578125,gklee/accs-48.cu,logs/sesa-accs-236.log
0,20.91,47.69921875,gklee/accs-48.cu,logs/sesa-accs-237.log
0,20.82,47.66015625,gklee/accs-48.cu,logs/sesa-accs-238.log
0,20.88,47.59765625,gklee/accs-48.cu,logs/sesa-accs-239.log
0,20.77,47.6484375,gklee/accs-48.cu,logs/sesa-accs-240.log
0,23.75,49.9375,gklee/accs-49.cu,logs/sesa-accs-241.log
0,23.88,50.078125,gklee/accs-49.cu,logs/sesa-accs-242.log
0,23.77,49.8828125,gklee/accs-49.cu,logs/sesa-accs-243.log
0,23.82,50.1328125,gklee/accs-49.cu,logs/sesa-accs-244.log
0,23.85,50.1640625,gklee/accs-49.cu,logs/sesa-accs-245.log
0,22.37,48.51171875,gklee/accs-50.cu,logs/sesa-accs-246.log
0,22.5,48.5,gklee/accs-50.cu,logs/sesa-accs-247.log
0,22.42,48.42578125,gklee/accs-50.cu,logs/sesa-accs-248.log
0,22.35,48.39453125,gklee/accs-50.cu,logs/sesa-accs-249.log
0,22.48,48.53515625,gklee/accs-50.cu,logs/sesa-accs-250.log
