"/artifact/datasets/gpuverify-cav14/pug/C++AMP/3000.imgblur_grid_6662C876/imgblur_grid/kernel.c", line 100: warning: 
          function "kernel" was declared but never referenced
  __global__ void kernel (float* blurimage, float* img) {
                  ^

>>>> start analysis ... 


-------------------------------------------------------
Invalid OVERFLOW_PROTECTION flag in config.txt!
Setting OVERFLOW_PROTECTION flag to on
-------------------------------------------------------

-------------------------------------------------------
Invalid NBITS value in config.txt!
Setting NBITS value to 10
-------------------------------------------------------

-------------------------------------------------------
Invalid USE_INCRSMT flag in config.txt!
Setting USE_INCRSMT flag to false
-------------------------------------------------------


-------------------------------------------------------
Invalid USE_LOOP_REFINEMENT flag in config.txt!
Setting USE_LOOP_REFINEMENT flag to true
-------------------------------------------------------


-------------------------------------------------------
Invalid SLICE_ARRAYS flag in config.txt!
Setting SLICE_ARRAYS flag to true
-------------------------------------------------------


-------------------------------------------------------
Invalid USE_ASSUMES flag in config.txt!
Setting USE_ASSUMES flag to true
-------------------------------------------------------


-------------------------------------------------------
Invalid CHK_BANK_CONFLICTS option in config.txt!
Setting CHK_BANK_CONFLICTS option to false
-------------------------------------------------------

Debug level (verbosity) set to 0


Processing function: kernel

FunctionCall: assume(((blockDim.x) ==(17)))
Assuming bdim.x == 17

FunctionCall: assume(((blockDim.y) ==(17)))
Assuming bdim.y == 17

FunctionCall: assume(((gridDim.x) ==(1)))
Assuming gdim.x == 1

FunctionCall: assume(((gridDim.y) ==(1)))
Assuming gdim.y == 1
containBarrierFlag = 0
incrExpr = dy++
------------- Already normalized 
rangeExpr = ((!1^dy0 >= -1) && (!1^dy0 <= 1)); substExpr = 
containBarrierFlag = 0
incrExpr = dx++
------------- Already normalized 
rangeExpr = ((!2^dx0 >= -1) && (!2^dx0 <= 1)); substExpr = 

Binary OP: r +=(img[(((idxY + dy) * 17) + idxX) + dx])
Found loop carrying expression, try refinement!
refined exp: r2 == (r1 + ((!2^dx0 - -1) * img0[((((idxY1 + !1^dy0) * 17) + idxX1) + !2^dx0)]))

UNARY OP: samples++

Binary OP: blurimage[(idxY * 17) + idxX] =(r /(samples))

Reaching the end of the kernel
unsatisfiable


#####################################################################

No races or synchronization errors were found.

Max instance solving time = 0.001446s
Total solving time = 0.001446s

#####################################################################

